#         XOrigin (ps),       -20.9891410000
#      Resolution (ps),         0.0169000000
#            Mean (ps),        -4.1622083000
#          Median (ps),        -4.1917000000
#             RMS (ps),         1.3033000000
#       Peak-Peak (ps),        11.5419000000
#             Min (ps),        -9.4641000000
#             Max (ps),         2.0778000000
#                 HITS,               801579
#               Values,                 2048
   0.000000000000000
   0.000000000000000
   0.000000000000000
   0.000000000000000
   0.000000000000000
   0.000000000000000
   0.000000000000000
   0.000000000000000
   0.000000000000000
   0.000000000000000
   0.000000000000000
   0.000000000000000
   0.000000000000000
   0.000000000000000
   0.000000000000000
   0.000000000000000
   0.000000000000000
   0.000000000000000
   0.000000000000000
   0.000000000000000
   0.000000000000000
   0.000000000000000
   0.000000000000000
   0.000000000000000
   0.000000000000000
   0.000000000000000
   0.000000000000000
   0.000000000000000
   0.000000000000000
   0.000000000000000
   0.000000000000000
   0.000000000000000
   0.000000000000000
   0.000000000000000
   0.000000000000000
   0.000000000000000
   0.000000000000000
   0.000000000000000
   0.000000000000000
   0.000000000000000
   0.000000000000000
   0.000000000000000
   0.000000000000000
   0.000000000000000
   0.000000000000000
   0.000000000000000
   0.000000000000000
   0.000000000000000
   0.000000000000000
   0.000000000000000
   0.000000000000000
   0.000000000000000
   0.000000000000000
   0.000000000000000
   0.000000000000000
   0.000000000000000
   0.000000000000000
   0.000000000000000
   0.000000000000000
   0.000000000000000
   0.000000000000000
   0.000000000000000
   0.000000000000000
   0.000000000000000
   0.000000000000000
   0.000000000000000
   0.000000000000000
   0.000000000000000
   0.000000000000000
   0.000000000000000
   0.000000000000000
   0.000000000000000
   0.000000000000000
   0.000000000000000
   0.000000000000000
   0.000000000000000
   0.000000000000000
   0.000000000000000
   0.000000000000000
   0.000000000000000
   0.000000000000000
   0.000000000000000
   0.000000000000000
   0.000000000000000
   0.000000000000000
   0.000000000000000
   0.000000000000000
   0.000000000000000
   0.000000000000000
   0.000000000000000
   0.000000000000000
   0.000000000000000
   0.000000000000000
   0.000000000000000
   0.000000000000000
   0.000000000000000
   0.000000000000000
   0.000000000000000
   0.000000000000000
   0.000000000000000
   0.000000000000000
   0.000000000000000
   0.000000000000000
   0.000000000000000
   0.000000000000000
   0.000000000000000
   0.000000000000000
   0.000000000000000
   0.000000000000000
   0.000000000000000
   0.000000000000000
   0.000000000000000
   0.000000000000000
   0.000000000000000
   0.000000000000000
   0.000000000000000
   0.000000000000000
   0.000000000000000
   0.000000000000000
   0.000000000000000
   0.000000000000000
   0.000000000000000
   0.000000000000000
   0.000000000000000
   0.000000000000000
   0.000000000000000
   0.000000000000000
   0.000000000000000
   0.000000000000000
   0.000000000000000
   0.000000000000000
   0.000000000000000
   0.000000000000000
   0.000000000000000
   0.000000000000000
   0.000000000000000
   0.000000000000000
   0.000000000000000
   0.000000000000000
   0.000000000000000
   0.000000000000000
   0.000000000000000
   0.000000000000000
   0.000000000000000
   0.000000000000000
   0.000000000000000
   0.000000000000000
   0.000000000000000
   0.000000000000000
   0.000000000000000
   0.000000000000000
   0.000000000000000
   0.000000000000000
   0.000000000000000
   0.000000000000000
   0.000000000000000
   0.000000000000000
   0.000000000000000
   0.000000000000000
   0.000000000000000
   0.000000000000000
   0.000000000000000
   0.000000000000000
   0.000000000000000
   0.000000000000000
   0.000000000000000
   0.000000000000000
   0.000000000000000
   0.000000000000000
   0.000000000000000
   0.000000000000000
   0.000000000000000
   0.000000000000000
   0.000000000000000
   0.000000000000000
   0.000000000000000
   0.000000000000000
   0.000000000000000
   0.000000000000000
   0.000000000000000
   0.000000000000000
   0.000000000000000
   0.000000000000000
   0.000000000000000
   0.000000000000000
   0.000000000000000
   0.000000000000000
   0.000000000000000
   0.000000000000000
   0.000000000000000
   0.000000000000000
   0.000000000000000
   0.000000000000000
   0.000000000000000
   0.000000000000000
   0.000000000000000
   0.000000000000000
   0.000000000000000
   0.000000000000000
   0.000000000000000
   0.000000000000000
   0.000000000000000
   0.000000000000000
   0.000000000000000
   0.000000000000000
   0.000000000000000
   0.000000000000000
   0.000000000000000
   0.000000000000000
   0.000000000000000
   0.000000000000000
   0.000000000000000
   0.000000000000000
   0.000000000000000
   0.000000000000000
   0.000000000000000
   0.000000000000000
   0.000000000000000
   0.000000000000000
   0.000000000000000
   0.000000000000000
   0.000000000000000
   0.000000000000000
   0.000000000000000
   0.000000000000000
   0.000000000000000
   0.000000000000000
   0.000000000000000
   0.000000000000000
   0.000000000000000
   0.000000000000000
   0.000000000000000
   0.000000000000000
   0.000000000000000
   0.000000000000000
   0.000000000000000
   0.000000000000000
   0.000000000000000
   0.000000000000000
   0.000000000000000
   0.000000000000000
   0.000000000000000
   0.000000000000000
   0.000000000000000
   0.000000000000000
   0.000000000000000
   0.000000000000000
   0.000000000000000
   0.000000000000000
   0.000000000000000
   0.000000000000000
   0.000000000000000
   0.000000000000000
   0.000000000000000
   0.000000000000000
   0.000000000000000
   0.000000000000000
   0.000000000000000
   0.000000000000000
   0.000000000000000
   0.000000000000000
   0.000000000000000
   0.000000000000000
   0.000000000000000
   0.000000000000000
   0.000000000000000
   0.000000000000000
   0.000000000000000
   0.000000000000000
   0.000000000000000
   0.000000000000000
   0.000000000000000
   0.000000000000000
   0.000000000000000
   0.000000000000000
   0.000000000000000
   0.000000000000000
   0.000000000000000
   0.000000000000000
   0.000000000000000
   0.000000000000000
   0.000000000000000
   0.000000000000000
   0.000000000000000
   0.000000000000000
   0.000000000000000
   0.000000000000000
   0.000000000000000
   0.000000000000000
   0.000000000000000
   0.000000000000000
   0.000000000000000
   0.000000000000000
   0.000000000000000
   0.000000000000000
   0.000000000000000
   0.000000000000000
   0.000000000000000
   0.000000000000000
   0.000000000000000
   0.000000000000000
   0.000000000000000
   0.000000000000000
   0.000000000000000
   0.000000000000000
   0.000000000000000
   0.000000000000000
   0.000000000000000
   0.000000000000000
   0.000000000000000
   0.000000000000000
   0.000000000000000
   0.000000000000000
   0.000000000000000
   0.000000000000000
   0.000000000000000
   0.000000000000000
   0.000000000000000
   0.000000000000000
   0.000000000000000
   0.000000000000000
   0.000000000000000
   0.000000000000000
   0.000000000000000
   0.000000000000000
   0.000000000000000
   0.000000000000000
   0.000000000000000
   0.000000000000000
   0.000000000000000
   0.000000000000000
   0.000000000000000
   0.000000000000000
   0.000000000000000
   0.000000000000000
   0.000000000000000
   0.000000000000000
   0.000000000000000
   0.000000000000000
   0.000000000000000
   0.000000000000000
   0.000000000000000
   0.000000000000000
   0.000000000000000
   0.000000000000000
   0.000000000000000
   0.000000000000000
   0.000000000000000
   0.000000000000000
   0.000000000000000
   0.000000000000000
   0.000000000000000
   0.000000000000000
   0.000000000000000
   0.000000000000000
   0.000000000000000
   0.000000000000000
   0.000000000000000
   0.000000000000000
   0.000000000000000
   0.000000000000000
   0.000000000000000
   0.000000000000000
   0.000000000000000
   0.000000000000000
   0.000000000000000
   0.000000000000000
   0.000000000000000
   0.000000000000000
   0.000000000000000
   0.000000000000000
   0.000000000000000
   0.000000000000000
   0.000000000000000
   0.000000000000000
   0.000000000000000
   0.000000000000000
   0.000000000000000
   0.000000000000000
   0.000000000000000
   0.000000000000000
   0.000000000000000
   0.000000000000000
   0.000000000000000
   0.000000000000000
   0.000000000000000
   0.000000000000000
   0.000000000000000
   0.000000000000000
   0.000000000000000
   0.000000000000000
   0.000000000000000
   0.000000000000000
   0.000000000000000
   0.000000000000000
   0.000000000000000
   0.000000000000000
   0.000000000000000
   0.000000000000000
   0.000000000000000
   0.000000000000000
   0.000000000000000
   0.000000000000000
   0.000000000000000
   0.000000000000000
   0.000000000000000
   0.000000000000000
   0.000000000000000
   0.000000000000000
   0.000000000000000
   0.000000000000000
   0.000000000000000
   0.000000000000000
   0.000000000000000
   0.000000000000000
   0.000000000000000
   0.000000000000000
   0.000000000000000
   0.000000000000000
   0.000000000000000
   0.000000000000000
   0.000000000000000
   0.000000000000000
   0.000000000000000
   0.000000000000000
   0.000000000000000
   0.000000000000000
   0.000000000000000
   0.000000000000000
   0.000000000000000
   0.000000000000000
   0.000000000000000
   0.000000000000000
   0.000000000000000
   0.000000000000000
   0.000000000000000
   0.000000000000000
   0.000000000000000
   0.000000000000000
   0.000000000000000
   0.000000000000000
   0.000000000000000
   0.000000000000000
   0.000000000000000
   0.000000000000000
   0.000000000000000
   0.000000000000000
   0.000000000000000
   0.000000000000000
   0.000000000000000
   0.000000000000000
   0.000000000000000
   0.000000000000000
   0.000000000000000
   0.000000000000000
   0.000000000000000
   0.000000000000000
   0.000000000000000
   0.000000000000000
   0.000000000000000
   0.000000000000000
   0.000000000000000
   0.000000000000000
   0.000000000000000
   0.000000000000000
   0.000000000000000
   0.000000000000000
   0.000000000000000
   0.000000000000000
   0.000000000000000
   0.000000000000000
   0.000000000000000
   0.000000000000000
   0.000000000000000
   0.000000000000000
   0.000000000000000
   0.000000000000000
   0.000000000000000
   0.000000000000000
   0.000000000000000
   0.000000000000000
   0.000000000000000
   0.000000000000000
   0.000000000000000
   0.000000000000000
   0.000000000000000
   0.000000000000000
   0.000000000000000
   0.000000000000000
   0.000000000000000
   0.000000000000000
   0.000000000000000
   0.000000000000000
   0.000000000000000
   0.000000000000000
   0.000000000000000
   0.000000000000000
   0.000000000000000
   0.000000000000000
   0.000000000000000
   0.000000000000000
   0.000000000000000
   0.000000000000000
   0.000000000000000
   0.000000000000000
   0.000000000000000
   0.000000000000000
   0.000000000000000
   0.000000000000000
   0.000000000000000
   0.000000000000000
   0.000000000000000
   0.000000000000000
   0.000000000000000
   0.000000000000000
   0.000000000000000
   0.000000000000000
   0.000000000000000
   0.000000000000000
   0.000000000000000
   0.000000000000000
   0.000000000000000
   0.000000000000000
   0.000000000000000
   0.000000000000000
   0.000000000000000
   0.000000000000000
   0.000000000000000
   0.000000000000000
   0.000000000000000
   0.000000000000000
   0.000000000000000
   0.000000000000000
   0.000000000000000
   0.000000000000000
   0.000000000000000
   0.000000000000000
   0.000000000000000
   0.000000000000000
   0.000000000000000
   0.000000000000000
   0.000000000000000
   0.000000000000000
   0.000000000000000
   0.000000000000000
   0.000000000000000
   0.000000000000000
   0.000000000000000
   0.000000000000000
   0.000000000000000
   0.000000000000000
   0.000000000000000
   0.000000000000000
   0.000000000000000
   0.000000000000000
   0.000000000000000
   0.000000000000000
   0.000000000000000
   0.000000000000000
   0.000000000000000
   0.000000000000000
   0.000000000000000
   0.000000000000000
   0.000000000000000
   0.000000000000000
   0.000000000000000
   0.000000000000000
   0.000000000000000
   0.000000000000000
   0.000000000000000
   0.000000000000000
   0.000000000000000
   0.000000000000000
   0.000000000000000
   0.000000000000000
   0.000000000000000
   0.000000000000000
   0.000000000000000
   0.000000000000000
   0.000000000000000
   0.000000000000000
   0.000000000000000
   0.000000000000000
   0.000000000000000
   0.000000000000000
   0.000000000000000
   0.000000000000000
   0.000000000000000
   0.000000000000000
   0.000000000000000
   0.000000000000000
   0.000000000000000
   0.000000000000000
   0.000000000000000
   0.000000000000000
   0.000000000000000
   0.000000000000000
   0.000000000000000
   0.000000000000000
   0.000000000000000
   0.000000000000000
   0.000000000000000
   0.000000000000000
   0.000000000000000
   0.000000000000000
   0.000000000000000
   0.000000000000000
   0.000000000000000
   0.000000000000000
   0.000000000000000
   0.000000000000000
   0.000000000000000
   0.000000000000000
   0.000000000000000
   0.000000000000000
   0.000000000000000
   0.000000000000000
   0.000000000000000
   0.000000000000000
   0.000000000000000
   0.000000000000000
   0.000000000000000
   0.000000000000000
   0.000000000000000
   0.000000000000000
   0.000000000000000
   0.000000000000000
   0.000000000000000
   0.000000000000000
   0.000000000000000
   0.000000000000000
   0.000000000000000
   0.000000000000000
   0.000000000000000
   0.000000000000000
   0.000000000000000
   0.000000000000000
   0.000000000000000
   0.000000000000000
   0.000000000000000
   0.000000000000000
   0.000000000000000
   0.000000000000000
   0.000000000000000
   0.000000000000000
   0.000000000000000
   0.000000000000000
   0.000000000000000
   0.000000000000000
   0.000000000000000
   0.000000000000000
   0.000000000000000
   0.000000000000000
   0.000000000000000
   0.000000000000000
   0.000000000000000
   0.000000000000000
   0.000000000000000
   0.000000000000000
   0.000000000000000
   0.000000000000000
   0.000000000000000
   0.000000000000000
   0.000000000000000
   0.000000000000000
   0.000000000000000
   0.000000000000000
   0.000000000000000
   0.000000000000000
   0.000000000000000
   0.000000000000000
   0.000000000000000
   0.000000000000000
   0.000000000000000
   0.000000000000000
   0.000000000000000
   0.000000000000000
   0.000000000000000
   0.000000000000000
   0.000000000000000
   0.000000000000000
   0.000000000000000
   0.000001247537673
   0.000000000000000
   0.000000000000000
   0.000000000000000
   0.000000000000000
   0.000000000000000
   0.000000000000000
   0.000001247537673
   0.000001247537673
   0.000000000000000
   0.000001247537673
   0.000000000000000
   0.000000000000000
   0.000001247537673
   0.000003742613018
   0.000000000000000
   0.000000000000000
   0.000000000000000
   0.000001247537673
   0.000000000000000
   0.000000000000000
   0.000000000000000
   0.000000000000000
   0.000002495075345
   0.000000000000000
   0.000001247537673
   0.000001247537673
   0.000003742613018
   0.000000000000000
   0.000001247537673
   0.000002495075345
   0.000003742613018
   0.000002495075345
   0.000000000000000
   0.000003742613018
   0.000000000000000
   0.000003742613018
   0.000006237688363
   0.000001247537673
   0.000002495075345
   0.000001247537673
   0.000001247537673
   0.000002495075345
   0.000004990150690
   0.000009980301380
   0.000002495075345
   0.000008732763708
   0.000006237688363
   0.000003742613018
   0.000007485226035
   0.000008732763708
   0.000006237688363
   0.000004990150690
   0.000008732763708
   0.000014970452070
   0.000012475376725
   0.000003742613018
   0.000008732763708
   0.000006237688363
   0.000016217989743
   0.000013722914398
   0.000017465527415
   0.000014970452070
   0.000016217989743
   0.000018713065088
   0.000014970452070
   0.000017465527415
   0.000016217989743
   0.000011227839053
   0.000011227839053
   0.000011227839053
   0.000019960602760
   0.000014970452070
   0.000014970452070
   0.000022455678105
   0.000033683517158
   0.000019960602760
   0.000037426130176
   0.000026198291123
   0.000018713065088
   0.000023703215778
   0.000034931054831
   0.000031188441813
   0.000032435979485
   0.000048653969228
   0.000044911356211
   0.000044911356211
   0.000037426130176
   0.000052396582246
   0.000048653969228
   0.000047406431556
   0.000051149044573
   0.000058634270608
   0.000049901506901
   0.000044911356211
   0.000056139195263
   0.000058634270608
   0.000074852260351
   0.000058634270608
   0.000077347335696
   0.000081089948714
   0.000086080099404
   0.000086080099404
   0.000096060400784
   0.000093565325439
   0.000083585024059
   0.000086080099404
   0.000119763616562
   0.000099803013802
   0.000102298089147
   0.000121011154234
   0.000132238993287
   0.000133486530960
   0.000145961907685
   0.000138476681650
   0.000134734068632
   0.000126001304924
   0.000164674972772
   0.000183388037860
   0.000178397887170
   0.000192120801568
   0.000167170048118
   0.000180892962515
   0.000178397887170
   0.000182140500188
   0.000203348640621
   0.000250755072176
   0.000228299394071
   0.000240774770796
   0.000230794469416
   0.000243269846141
   0.000258240298211
   0.000294418890714
   0.000279448438644
   0.000283191051662
   0.000286933664679
   0.000284438589334
   0.000341825322270
   0.000349310548305
   0.000344320397615
   0.000356795774340
   0.000387984216153
   0.000328102407872
   0.000437885723054
   0.000419172657966
   0.000400459592879
   0.000442875873744
   0.000455351250469
   0.000447866024434
   0.000497767531335
   0.000494024918317
   0.000563887027979
   0.000496519993663
   0.000527708435475
   0.000610045921862
   0.000575114867031
   0.000556401801943
   0.000613788534879
   0.000592580394446
   0.000651214665055
   0.000654957278072
   0.000679908031523
   0.000636244212985
   0.000657452353417
   0.000785948733687
   0.000810899487137
   0.000795929035067
   0.000759750442564
   0.000799671648085
   0.000868286220073
   0.000884504209816
   0.000880761596798
   0.000873276370763
   0.000989297374307
   0.000971831846892
   0.001016743203103
   0.001024228429138
   0.001054169333278
   0.001116546216904
   0.001183913251220
   0.001148982196390
   0.001190150939583
   0.001187655864238
   0.001192646014928
   0.001272488425969
   0.001296191641747
   0.001251280285536
   0.001389756967186
   0.001395994655549
   0.001413460182964
   0.001424688022017
   0.001510768121420
   0.001498292744695
   0.001600590833842
   0.001615561285912
   0.001692908621608
   0.001588115457117
   0.001657977566778
   0.001679185707210
   0.001775246107994
   0.001783978871702
   0.001800196861445
   0.001832632840930
   0.001937426005422
   0.001917465402661
   0.001866316358088
   0.002097110827504
   0.002043466707586
   0.002153250022768
   0.002035981481551
   0.002188181077598
   0.002154497560440
   0.002304202081142
   0.002264280875622
   0.002423965697704
   0.002352856050371
   0.002460144290207
   0.002480104892968
   0.002485095043658
   0.002495075345038
   0.002574917756079
   0.002662245393155
   0.002614838961600
   0.002604858660219
   0.002864346496103
   0.002789494235752
   0.002829415441273
   0.002863098958431
   0.002915495540677
   0.002986605188010
   0.003025278855858
   0.003029021468876
   0.003120091718970
   0.003123834331987
   0.003072685287414
   0.003318450208900
   0.003252330712257
   0.003294746993122
   0.003298489606140
   0.003370846791146
   0.003451936739860
   0.003466907191930
   0.003521798849521
   0.003671503370223
   0.003632829702375
   0.003721404877124
   0.003770058846352
   0.003819960353253
   0.003797504675147
   0.003832435729978
   0.003873604473171
   0.004056992511031
   0.004013328692493
   0.004040774521289
   0.004126854620692
   0.003967169798610
   0.004155547987160
   0.004210439644751
   0.004165528288540
   0.004209192107079
   0.004197964268026
   0.004294024668810
   0.004304004970190
   0.004427511199769
   0.004471175018308
   0.004459947179255
   0.004579710795817
   0.004441234114167
   0.004617136925992
   0.004558502655384
   0.004655810593840
   0.004629612302718
   0.004573473107454
   0.004689494110998
   0.004644582754788
   0.004667038432893
   0.004691989186343
   0.004696979337034
   0.004825475717303
   0.004824228179630
   0.005000130991456
   0.004866644460496
   0.004808010189888
   0.004916545967397
   0.004941496720847
   0.004961457323608
   0.005010111292836
   0.004970190087315
   0.005051280036029
   0.005021339131888
   0.004963952398953
   0.005117399532672
   0.004972685162660
   0.005108666768965
   0.005043794809994
   0.005069993101117
   0.005158568275866
   0.005041299734649
   0.005199737019059
   0.005243400837597
   0.005178528878626
   0.005176033803281
   0.005116151995000
   0.005187261642333
   0.005138607673105
   0.005149835512158
   0.005273341741737
   0.005117399532672
   0.005119894608017
   0.005081220940169
   0.005178528878626
   0.005157320738193
   0.005106171693620
   0.005118647070345
   0.005076230789479
   0.005366907067176
   0.005141102748450
   0.005124884758708
   0.005104924155947
   0.005184766566988
   0.005146092899140
   0.005141102748450
   0.005229677923199
   0.005078725864824
   0.005112409381982
   0.005114904457327
   0.005026329282579
   0.005026329282579
   0.004825475717303
   0.005025081744906
   0.004909060741362
   0.004973932700333
   0.004929021344122
   0.004914050892052
   0.004825475717303
   0.004826723254975
   0.004804267576870
   0.004775574210402
   0.004741890693244
   0.004725672703501
   0.004708207176086
   0.004790544662472
   0.004688246573326
   0.004609651699957
   0.004538542052624
   0.004580958333489
   0.004542284665641
   0.004543532203314
   0.004430006275114
   0.004372619542179
   0.004347668788728
   0.004331450798986
   0.004346421251056
   0.004356401552436
   0.004335193412003
   0.004453709490892
   0.004232895322857
   0.004264083764669
   0.004135587384400
   0.004392580144939
   0.004083190802154
   0.003970912411628
   0.004037031908271
   0.003935981356797
   0.004015823767838
   0.004034536832926
   0.003849901257393
   0.004008338541803
   0.003807484976528
   0.003817465277908
   0.003823702966270
   0.003743860555229
   0.003691463972983
   0.003659027993498
   0.003642810003755
   0.003640314928410
   0.003585423270819
   0.003514313623486
   0.003314707595883
   0.003475639955638
   0.003307222369848
   0.003357123876748
   0.003251083174584
   0.003253578249929
   0.003348391113041
   0.003288509304760
   0.003206171818373
   0.003097636040864
   0.003118844181297
   0.003102626191554
   0.002957911821542
   0.002893039862571
   0.003029021468876
   0.002805712225495
   0.002825672828255
   0.002796979461787
   0.002754563180922
   0.002759553331612
   0.002677215845225
   0.002646027403413
   0.002639789715050
   0.002626066800652
   0.002561194841681
   0.002423965697704
   0.002557452228664
   0.002472619666932
   0.002330400372265
   0.002407747707961
   0.002372816653131
   0.002309192231832
   0.002280498865364
   0.002264280875622
   0.002243072735189
   0.002138279570697
   0.002173210625528
   0.002100853440522
   0.002078397762416
   0.002110833741902
   0.002047209320603
   0.001983584899305
   0.001928693241714
   0.001931188317059
   0.001881286810158
   0.001852593443691
   0.001846355755328
   0.001798949323772
   0.001776493645667
   0.001729087214111
   0.001699146309971
   0.001695403696953
   0.001630531737982
   0.001591858070134
   0.001616808823584
   0.001591858070134
   0.001546946713923
   0.001445896162449
   0.001459619076847
   0.001452133850812
   0.001417202795981
   0.001318647319852
   0.001347340686320
   0.001279973652004
   0.001342350535630
   0.001296191641747
   0.001245042597174
   0.001146487121045
   0.001187655864238
   0.001177675562858
   0.001192646014928
   0.001115298679232
   0.001185160788893
   0.001077872549056
   0.001044189031898
   0.001099080689489
   0.001054169333278
   0.001008010439395
   0.000964346620857
   0.000988049836635
   0.000958108932494
   0.000949376168787
   0.000936900792062
   0.000904464812576
   0.000900722199559
   0.000812147024810
   0.000790938884377
   0.000818384713172
   0.000773473356962
   0.000774720894634
   0.000824622401535
   0.000748522603511
   0.000712344011008
   0.000723571850061
   0.000696126021266
   0.000659947428762
   0.000644976976692
   0.000623768836259
   0.000633749137640
   0.000626263911604
   0.000682403106868
   0.000597570545137
   0.000561391952633
   0.000522718284785
   0.000546421500563
   0.000523965822458
   0.000520223209440
   0.000457846325814
   0.000471569240212
   0.000505252757370
   0.000445370949089
   0.000436638185382
   0.000445370949089
   0.000451608637452
   0.000385489140808
   0.000412934969604
   0.000371766226411
   0.000384241603136
   0.000378003914773
   0.000359290849685
   0.000343072859943
   0.000315627031147
   0.000301904116750
   0.000284438589334
   0.000294418890714
   0.000345567935288
   0.000311884418130
   0.000260735373556
   0.000284438589334
   0.000300656579077
   0.000248259996831
   0.000214576479673
   0.000235784620106
   0.000232042007089
   0.000223309243381
   0.000209586328983
   0.000224556781053
   0.000220814168036
   0.000208338791311
   0.000210833866656
   0.000167170048118
   0.000188378188550
   0.000182140500188
   0.000183388037860
   0.000175902811825
   0.000170912661135
   0.000162179897427
   0.000157189746737
   0.000143466832340
   0.000116021003544
   0.000132238993287
   0.000129743917942
   0.000126001304924
   0.000119763616562
   0.000123506229579
   0.000089822712421
   0.000103545626819
   0.000094812863111
   0.000097307938456
   0.000101050551474
   0.000096060400784
   0.000112278390527
   0.000083585024059
   0.000076099798024
   0.000086080099404
   0.000092317787766
   0.000088575174749
   0.000081089948714
   0.000088575174749
   0.000062376883626
   0.000057386732936
   0.000069862109661
   0.000066119496643
   0.000061129345953
   0.000062376883626
   0.000062376883626
   0.000059881808281
   0.000066119496643
   0.000056139195263
   0.000047406431556
   0.000042416280866
   0.000049901506901
   0.000048653969228
   0.000042416280866
   0.000029940904140
   0.000042416280866
   0.000032435979485
   0.000037426130176
   0.000032435979485
   0.000041168743193
   0.000031188441813
   0.000029940904140
   0.000032435979485
   0.000031188441813
   0.000028693366468
   0.000026198291123
   0.000019960602760
   0.000017465527415
   0.000022455678105
   0.000019960602760
   0.000024950753450
   0.000017465527415
   0.000012475376725
   0.000021208140433
   0.000017465527415
   0.000016217989743
   0.000013722914398
   0.000013722914398
   0.000013722914398
   0.000012475376725
   0.000014970452070
   0.000021208140433
   0.000021208140433
   0.000014970452070
   0.000008732763708
   0.000007485226035
   0.000012475376725
   0.000013722914398
   0.000007485226035
   0.000007485226035
   0.000012475376725
   0.000008732763708
   0.000008732763708
   0.000007485226035
   0.000004990150690
   0.000006237688363
   0.000007485226035
   0.000008732763708
   0.000003742613018
   0.000004990150690
   0.000001247537673
   0.000001247537673
   0.000004990150690
   0.000002495075345
   0.000006237688363
   0.000006237688363
   0.000006237688363
   0.000004990150690
   0.000004990150690
   0.000001247537673
   0.000000000000000
   0.000002495075345
   0.000000000000000
   0.000004990150690
   0.000004990150690
   0.000001247537673
   0.000002495075345
   0.000001247537673
   0.000000000000000
   0.000000000000000
   0.000003742613018
   0.000000000000000
   0.000001247537673
   0.000001247537673
   0.000000000000000
   0.000001247537673
   0.000001247537673
   0.000002495075345
   0.000002495075345
   0.000001247537673
   0.000001247537673
   0.000000000000000
   0.000000000000000
   0.000000000000000
   0.000000000000000
   0.000001247537673
   0.000001247537673
   0.000001247537673
   0.000001247537673
   0.000001247537673
   0.000001247537673
   0.000000000000000
   0.000001247537673
   0.000000000000000
   0.000000000000000
   0.000001247537673
   0.000000000000000
   0.000000000000000
   0.000000000000000
   0.000000000000000
   0.000000000000000
   0.000000000000000
   0.000000000000000
   0.000000000000000
   0.000000000000000
   0.000000000000000
   0.000000000000000
   0.000001247537673
   0.000000000000000
   0.000000000000000
   0.000000000000000
   0.000000000000000
   0.000000000000000
   0.000000000000000
   0.000000000000000
   0.000000000000000
   0.000000000000000
   0.000000000000000
   0.000000000000000
   0.000000000000000
   0.000000000000000
   0.000001247537673
   0.000000000000000
   0.000000000000000
   0.000000000000000
   0.000001247537673
   0.000000000000000
   0.000000000000000
   0.000000000000000
   0.000000000000000
   0.000000000000000
   0.000000000000000
   0.000000000000000
   0.000000000000000
   0.000000000000000
   0.000000000000000
   0.000000000000000
   0.000000000000000
   0.000000000000000
   0.000000000000000
   0.000000000000000
   0.000000000000000
   0.000000000000000
   0.000000000000000
   0.000000000000000
   0.000000000000000
   0.000000000000000
   0.000000000000000
   0.000000000000000
   0.000000000000000
   0.000000000000000
   0.000000000000000
   0.000000000000000
   0.000000000000000
   0.000000000000000
   0.000000000000000
   0.000000000000000
   0.000000000000000
   0.000000000000000
   0.000000000000000
   0.000000000000000
   0.000000000000000
   0.000000000000000
   0.000000000000000
   0.000000000000000
   0.000000000000000
   0.000000000000000
   0.000000000000000
   0.000000000000000
   0.000000000000000
   0.000000000000000
   0.000000000000000
   0.000000000000000
   0.000000000000000
   0.000000000000000
   0.000000000000000
   0.000000000000000
   0.000000000000000
   0.000000000000000
   0.000000000000000
   0.000000000000000
   0.000000000000000
   0.000000000000000
   0.000000000000000
   0.000000000000000
   0.000000000000000
   0.000000000000000
   0.000000000000000
   0.000000000000000
   0.000000000000000
   0.000000000000000
   0.000000000000000
   0.000000000000000
   0.000000000000000
   0.000000000000000
   0.000000000000000
   0.000000000000000
   0.000000000000000
   0.000000000000000
   0.000000000000000
   0.000000000000000
   0.000000000000000
   0.000000000000000
   0.000000000000000
   0.000000000000000
   0.000000000000000
   0.000000000000000
   0.000000000000000
   0.000000000000000
   0.000000000000000
   0.000000000000000
   0.000000000000000
   0.000000000000000
   0.000000000000000
   0.000000000000000
   0.000000000000000
   0.000000000000000
   0.000000000000000
   0.000000000000000
   0.000000000000000
   0.000000000000000
   0.000000000000000
   0.000000000000000
   0.000000000000000
   0.000000000000000
   0.000000000000000
   0.000000000000000
   0.000000000000000
   0.000000000000000
   0.000000000000000
   0.000000000000000
   0.000000000000000
   0.000000000000000
   0.000000000000000
   0.000000000000000
   0.000000000000000
   0.000000000000000
   0.000000000000000
   0.000000000000000
   0.000000000000000
   0.000000000000000
   0.000000000000000
   0.000000000000000
   0.000000000000000
   0.000000000000000
   0.000000000000000
   0.000000000000000
   0.000000000000000
   0.000000000000000
   0.000000000000000
   0.000000000000000
   0.000000000000000
   0.000000000000000
   0.000000000000000
   0.000000000000000
   0.000000000000000
   0.000000000000000
   0.000000000000000
   0.000000000000000
   0.000000000000000
   0.000000000000000
   0.000000000000000
   0.000000000000000
   0.000000000000000
   0.000000000000000
   0.000000000000000
   0.000000000000000
   0.000000000000000
   0.000000000000000
   0.000000000000000
   0.000000000000000
   0.000000000000000
   0.000000000000000
   0.000000000000000
   0.000000000000000
   0.000000000000000
   0.000000000000000
   0.000000000000000
   0.000000000000000
   0.000000000000000
   0.000000000000000
   0.000000000000000
   0.000000000000000
   0.000000000000000
   0.000000000000000
   0.000000000000000
   0.000000000000000
   0.000000000000000
   0.000000000000000
   0.000000000000000
   0.000000000000000
   0.000000000000000
   0.000000000000000
   0.000000000000000
   0.000000000000000
   0.000000000000000
   0.000000000000000
   0.000000000000000
   0.000000000000000
   0.000000000000000
   0.000000000000000
   0.000000000000000
   0.000000000000000
   0.000000000000000
   0.000000000000000
   0.000000000000000
   0.000000000000000
   0.000000000000000
   0.000000000000000
   0.000000000000000
   0.000000000000000
   0.000000000000000
   0.000000000000000
   0.000000000000000
   0.000000000000000
   0.000000000000000
   0.000000000000000
   0.000000000000000
   0.000000000000000
   0.000000000000000
   0.000000000000000
   0.000000000000000
   0.000000000000000
   0.000000000000000
   0.000000000000000
   0.000000000000000
   0.000000000000000
   0.000000000000000
   0.000000000000000
   0.000000000000000
   0.000000000000000
   0.000000000000000
   0.000000000000000
   0.000000000000000
   0.000000000000000
   0.000000000000000
   0.000000000000000
   0.000000000000000
   0.000000000000000
   0.000000000000000
   0.000000000000000
   0.000000000000000
   0.000000000000000
   0.000000000000000
   0.000000000000000
   0.000000000000000
   0.000000000000000
   0.000000000000000
   0.000000000000000
   0.000000000000000
   0.000000000000000
   0.000000000000000
   0.000000000000000
   0.000000000000000
   0.000000000000000
   0.000000000000000
   0.000000000000000
   0.000000000000000
   0.000000000000000
   0.000000000000000
   0.000000000000000
   0.000000000000000
   0.000000000000000
   0.000000000000000
   0.000000000000000
   0.000000000000000
   0.000000000000000
   0.000000000000000
   0.000000000000000
   0.000000000000000
   0.000000000000000
   0.000000000000000
   0.000000000000000
   0.000000000000000
   0.000000000000000
   0.000000000000000
   0.000000000000000
   0.000000000000000
   0.000000000000000
   0.000000000000000
   0.000000000000000
   0.000000000000000
   0.000000000000000
   0.000000000000000
   0.000000000000000
   0.000000000000000
   0.000000000000000
   0.000000000000000
   0.000000000000000
   0.000000000000000
   0.000000000000000
   0.000000000000000
   0.000000000000000
   0.000000000000000
   0.000000000000000
   0.000000000000000
   0.000000000000000
   0.000000000000000
   0.000000000000000
   0.000000000000000
   0.000000000000000
   0.000000000000000
   0.000000000000000
   0.000000000000000
   0.000000000000000
   0.000000000000000
   0.000000000000000
   0.000000000000000
   0.000000000000000
   0.000000000000000
   0.000000000000000
   0.000000000000000
   0.000000000000000
   0.000000000000000
   0.000000000000000
   0.000000000000000
   0.000000000000000
   0.000000000000000
   0.000000000000000
   0.000000000000000
   0.000000000000000
   0.000000000000000
   0.000000000000000
   0.000000000000000
   0.000000000000000
   0.000000000000000
   0.000000000000000
   0.000000000000000
   0.000000000000000
   0.000000000000000
   0.000000000000000
   0.000000000000000
   0.000000000000000
   0.000000000000000
   0.000000000000000
   0.000000000000000
   0.000000000000000
   0.000000000000000
   0.000000000000000
   0.000000000000000
   0.000000000000000
   0.000000000000000
   0.000000000000000
   0.000000000000000
   0.000000000000000
   0.000000000000000
   0.000000000000000
   0.000000000000000
   0.000000000000000
   0.000000000000000
   0.000000000000000
   0.000000000000000
   0.000000000000000
   0.000000000000000
   0.000000000000000
   0.000000000000000
   0.000000000000000
   0.000000000000000
   0.000000000000000
   0.000000000000000
   0.000000000000000
   0.000000000000000
   0.000000000000000
   0.000000000000000
   0.000000000000000
   0.000000000000000
   0.000000000000000
   0.000000000000000
   0.000000000000000
   0.000000000000000
   0.000000000000000
   0.000000000000000
   0.000000000000000
   0.000000000000000
   0.000000000000000
   0.000000000000000
   0.000000000000000
   0.000000000000000
   0.000000000000000
   0.000000000000000
   0.000000000000000
   0.000000000000000
   0.000000000000000
   0.000000000000000
   0.000000000000000
   0.000000000000000
   0.000000000000000
   0.000000000000000
   0.000000000000000
   0.000000000000000
   0.000000000000000
   0.000000000000000
   0.000000000000000
   0.000000000000000
   0.000000000000000
   0.000000000000000
   0.000000000000000
   0.000000000000000
   0.000000000000000
   0.000000000000000
   0.000000000000000
   0.000000000000000
   0.000000000000000
   0.000000000000000
   0.000000000000000
   0.000000000000000
   0.000000000000000
   0.000000000000000
   0.000000000000000
   0.000000000000000
   0.000000000000000
   0.000000000000000
   0.000000000000000
   0.000000000000000
   0.000000000000000
   0.000000000000000
   0.000000000000000
   0.000000000000000
   0.000000000000000
   0.000000000000000
   0.000000000000000
   0.000000000000000
   0.000000000000000
   0.000000000000000
   0.000000000000000
   0.000000000000000
   0.000000000000000
   0.000000000000000
   0.000000000000000
   0.000000000000000
   0.000000000000000
   0.000000000000000
   0.000000000000000
   0.000000000000000
   0.000000000000000
   0.000000000000000
   0.000000000000000
   0.000000000000000
   0.000000000000000
   0.000000000000000
   0.000000000000000
   0.000000000000000
   0.000000000000000
   0.000000000000000
   0.000000000000000
   0.000000000000000
   0.000000000000000
   0.000000000000000
   0.000000000000000
   0.000000000000000
   0.000000000000000
   0.000000000000000
   0.000000000000000
   0.000000000000000
   0.000000000000000
   0.000000000000000
   0.000000000000000
   0.000000000000000
   0.000000000000000
   0.000000000000000
   0.000000000000000
   0.000000000000000
   0.000000000000000
   0.000000000000000
   0.000000000000000
   0.000000000000000
   0.000000000000000
   0.000000000000000
   0.000000000000000
   0.000000000000000
   0.000000000000000
   0.000000000000000
   0.000000000000000
   0.000000000000000
   0.000000000000000
   0.000000000000000
   0.000000000000000
   0.000000000000000
   0.000000000000000
   0.000000000000000
   0.000000000000000
   0.000000000000000
   0.000000000000000
   0.000000000000000
   0.000000000000000
   0.000000000000000
   0.000000000000000
   0.000000000000000
   0.000000000000000
   0.000000000000000
   0.000000000000000
   0.000000000000000
   0.000000000000000
   0.000000000000000
   0.000000000000000
   0.000000000000000
   0.000000000000000
   0.000000000000000
   0.000000000000000
   0.000000000000000
   0.000000000000000
   0.000000000000000
   0.000000000000000
   0.000000000000000
   0.000000000000000
   0.000000000000000
   0.000000000000000
   0.000000000000000
   0.000000000000000
   0.000000000000000
   0.000000000000000
   0.000000000000000
   0.000000000000000
   0.000000000000000
   0.000000000000000
   0.000000000000000
   0.000000000000000
   0.000000000000000
   0.000000000000000
   0.000000000000000
   0.000000000000000
   0.000000000000000
   0.000000000000000
   0.000000000000000
   0.000000000000000
   0.000000000000000
   0.000000000000000
   0.000000000000000
   0.000000000000000
   0.000000000000000
   0.000000000000000
   0.000000000000000
   0.000000000000000
   0.000000000000000
   0.000000000000000
   0.000000000000000
   0.000000000000000
   0.000000000000000
   0.000000000000000
   0.000000000000000
   0.000000000000000
   0.000000000000000
   0.000000000000000
   0.000000000000000
   0.000000000000000
   0.000000000000000
   0.000000000000000
   0.000000000000000
   0.000000000000000
   0.000000000000000
   0.000000000000000
   0.000000000000000
   0.000000000000000
   0.000000000000000
   0.000000000000000
   0.000000000000000
   0.000000000000000
   0.000000000000000
   0.000000000000000
   0.000000000000000
   0.000000000000000
   0.000000000000000
   0.000000000000000
   0.000000000000000
   0.000000000000000
   0.000000000000000
   0.000000000000000
   0.000000000000000
   0.000000000000000
   0.000000000000000
   0.000000000000000
   0.000000000000000
   0.000000000000000
   0.000000000000000
   0.000000000000000
   0.000000000000000
   0.000000000000000
   0.000000000000000
   0.000000000000000
   0.000000000000000
   0.000000000000000
   0.000000000000000
   0.000000000000000
   0.000000000000000
   0.000000000000000
   0.000000000000000
   0.000000000000000
   0.000000000000000
   0.000000000000000
   0.000000000000000
   0.000000000000000
   0.000000000000000
   0.000000000000000
   0.000000000000000
   0.000000000000000
   0.000000000000000
   0.000000000000000
   0.000000000000000
   0.000000000000000
   0.000000000000000
   0.000000000000000
   0.000000000000000
   0.000000000000000
   0.000000000000000
   0.000000000000000
   0.000000000000000
   0.000000000000000
   0.000000000000000
   0.000000000000000
   0.000000000000000
   0.000000000000000
   0.000000000000000
   0.000000000000000
   0.000000000000000
   0.000000000000000
   0.000000000000000
   0.000000000000000
   0.000000000000000
   0.000000000000000
   0.000000000000000
   0.000000000000000
   0.000000000000000
   0.000000000000000
   0.000000000000000
   0.000000000000000
   0.000000000000000
   0.000000000000000
   0.000000000000000
   0.000000000000000
   0.000000000000000
   0.000000000000000
   0.000000000000000
   0.000000000000000
   0.000000000000000
   0.000000000000000
   0.000000000000000
   0.000000000000000
   0.000000000000000
   0.000000000000000
   0.000000000000000
   0.000000000000000
   0.000000000000000
   0.000000000000000
   0.000000000000000
   0.000000000000000
   0.000000000000000
   0.000000000000000
   0.000000000000000
   0.000000000000000
   0.000000000000000
   0.000000000000000
   0.000000000000000
   0.000000000000000
   0.000000000000000
   0.000000000000000
   0.000000000000000
   0.000000000000000
   0.000000000000000
   0.000000000000000
   0.000000000000000
   0.000000000000000
   0.000000000000000
   0.000000000000000
   0.000000000000000
   0.000000000000000
   0.000000000000000
   0.000000000000000
   0.000000000000000
   0.000000000000000
   0.000000000000000
   0.000000000000000
   0.000000000000000
   0.000000000000000
   0.000000000000000
   0.000000000000000
   0.000000000000000
   0.000000000000000
   0.000000000000000
   0.000000000000000
   0.000000000000000
   0.000000000000000
   0.000000000000000
   0.000000000000000
   0.000000000000000
   0.000000000000000
   0.000000000000000
   0.000000000000000
   0.000000000000000
   0.000000000000000
   0.000000000000000
   0.000000000000000
   0.000000000000000
   0.000000000000000
   0.000000000000000
   0.000000000000000
   0.000000000000000
   0.000000000000000
   0.000000000000000
   0.000000000000000
   0.000000000000000
   0.000000000000000
   0.000000000000000
   0.000000000000000
   0.000000000000000
   0.000000000000000
   0.000000000000000
   0.000000000000000
   0.000000000000000
