#         XOrigin (ps),       -23.6212930000
#      Resolution (ps),         0.0178000000
#            Mean (ps),        -5.4322903000
#          Median (ps),        -5.4481000000
#             RMS (ps),         1.5252100000
#       Peak-Peak (ps),        12.1689000000
#             Min (ps),       -11.4702000000
#             Max (ps),         0.6986000000
#                 HITS,               100197
#               Values,                 2048
   0.000000000000000
   0.000000000000000
   0.000000000000000
   0.000000000000000
   0.000000000000000
   0.000000000000000
   0.000000000000000
   0.000000000000000
   0.000000000000000
   0.000000000000000
   0.000000000000000
   0.000000000000000
   0.000000000000000
   0.000000000000000
   0.000000000000000
   0.000000000000000
   0.000000000000000
   0.000000000000000
   0.000000000000000
   0.000000000000000
   0.000000000000000
   0.000000000000000
   0.000000000000000
   0.000000000000000
   0.000000000000000
   0.000000000000000
   0.000000000000000
   0.000000000000000
   0.000000000000000
   0.000000000000000
   0.000000000000000
   0.000000000000000
   0.000000000000000
   0.000000000000000
   0.000000000000000
   0.000000000000000
   0.000000000000000
   0.000000000000000
   0.000000000000000
   0.000000000000000
   0.000000000000000
   0.000000000000000
   0.000000000000000
   0.000000000000000
   0.000000000000000
   0.000000000000000
   0.000000000000000
   0.000000000000000
   0.000000000000000
   0.000000000000000
   0.000000000000000
   0.000000000000000
   0.000000000000000
   0.000000000000000
   0.000000000000000
   0.000000000000000
   0.000000000000000
   0.000000000000000
   0.000000000000000
   0.000000000000000
   0.000000000000000
   0.000000000000000
   0.000000000000000
   0.000000000000000
   0.000000000000000
   0.000000000000000
   0.000000000000000
   0.000000000000000
   0.000000000000000
   0.000000000000000
   0.000000000000000
   0.000000000000000
   0.000000000000000
   0.000000000000000
   0.000000000000000
   0.000000000000000
   0.000000000000000
   0.000000000000000
   0.000000000000000
   0.000000000000000
   0.000000000000000
   0.000000000000000
   0.000000000000000
   0.000000000000000
   0.000000000000000
   0.000000000000000
   0.000000000000000
   0.000000000000000
   0.000000000000000
   0.000000000000000
   0.000000000000000
   0.000000000000000
   0.000000000000000
   0.000000000000000
   0.000000000000000
   0.000000000000000
   0.000000000000000
   0.000000000000000
   0.000000000000000
   0.000000000000000
   0.000000000000000
   0.000000000000000
   0.000000000000000
   0.000000000000000
   0.000000000000000
   0.000000000000000
   0.000000000000000
   0.000000000000000
   0.000000000000000
   0.000000000000000
   0.000000000000000
   0.000000000000000
   0.000000000000000
   0.000000000000000
   0.000000000000000
   0.000000000000000
   0.000000000000000
   0.000000000000000
   0.000000000000000
   0.000000000000000
   0.000000000000000
   0.000000000000000
   0.000000000000000
   0.000000000000000
   0.000000000000000
   0.000000000000000
   0.000000000000000
   0.000000000000000
   0.000000000000000
   0.000000000000000
   0.000000000000000
   0.000000000000000
   0.000000000000000
   0.000000000000000
   0.000000000000000
   0.000000000000000
   0.000000000000000
   0.000000000000000
   0.000000000000000
   0.000000000000000
   0.000000000000000
   0.000000000000000
   0.000000000000000
   0.000000000000000
   0.000000000000000
   0.000000000000000
   0.000000000000000
   0.000000000000000
   0.000000000000000
   0.000000000000000
   0.000000000000000
   0.000000000000000
   0.000000000000000
   0.000000000000000
   0.000000000000000
   0.000000000000000
   0.000000000000000
   0.000000000000000
   0.000000000000000
   0.000000000000000
   0.000000000000000
   0.000000000000000
   0.000000000000000
   0.000000000000000
   0.000000000000000
   0.000000000000000
   0.000000000000000
   0.000000000000000
   0.000000000000000
   0.000000000000000
   0.000000000000000
   0.000000000000000
   0.000000000000000
   0.000000000000000
   0.000000000000000
   0.000000000000000
   0.000000000000000
   0.000000000000000
   0.000000000000000
   0.000000000000000
   0.000000000000000
   0.000000000000000
   0.000000000000000
   0.000000000000000
   0.000000000000000
   0.000000000000000
   0.000000000000000
   0.000000000000000
   0.000000000000000
   0.000000000000000
   0.000000000000000
   0.000000000000000
   0.000000000000000
   0.000000000000000
   0.000000000000000
   0.000000000000000
   0.000000000000000
   0.000000000000000
   0.000000000000000
   0.000000000000000
   0.000000000000000
   0.000000000000000
   0.000000000000000
   0.000000000000000
   0.000000000000000
   0.000000000000000
   0.000000000000000
   0.000000000000000
   0.000000000000000
   0.000000000000000
   0.000000000000000
   0.000000000000000
   0.000000000000000
   0.000000000000000
   0.000000000000000
   0.000000000000000
   0.000000000000000
   0.000000000000000
   0.000000000000000
   0.000000000000000
   0.000000000000000
   0.000000000000000
   0.000000000000000
   0.000000000000000
   0.000000000000000
   0.000000000000000
   0.000000000000000
   0.000000000000000
   0.000000000000000
   0.000000000000000
   0.000000000000000
   0.000000000000000
   0.000000000000000
   0.000000000000000
   0.000000000000000
   0.000000000000000
   0.000000000000000
   0.000000000000000
   0.000000000000000
   0.000000000000000
   0.000000000000000
   0.000000000000000
   0.000000000000000
   0.000000000000000
   0.000000000000000
   0.000000000000000
   0.000000000000000
   0.000000000000000
   0.000000000000000
   0.000000000000000
   0.000000000000000
   0.000000000000000
   0.000000000000000
   0.000000000000000
   0.000000000000000
   0.000000000000000
   0.000000000000000
   0.000000000000000
   0.000000000000000
   0.000000000000000
   0.000000000000000
   0.000000000000000
   0.000000000000000
   0.000000000000000
   0.000000000000000
   0.000000000000000
   0.000000000000000
   0.000000000000000
   0.000000000000000
   0.000000000000000
   0.000000000000000
   0.000000000000000
   0.000000000000000
   0.000000000000000
   0.000000000000000
   0.000000000000000
   0.000000000000000
   0.000000000000000
   0.000000000000000
   0.000000000000000
   0.000000000000000
   0.000000000000000
   0.000000000000000
   0.000000000000000
   0.000000000000000
   0.000000000000000
   0.000000000000000
   0.000000000000000
   0.000000000000000
   0.000000000000000
   0.000000000000000
   0.000000000000000
   0.000000000000000
   0.000000000000000
   0.000000000000000
   0.000000000000000
   0.000000000000000
   0.000000000000000
   0.000000000000000
   0.000000000000000
   0.000000000000000
   0.000000000000000
   0.000000000000000
   0.000000000000000
   0.000000000000000
   0.000000000000000
   0.000000000000000
   0.000000000000000
   0.000000000000000
   0.000000000000000
   0.000000000000000
   0.000000000000000
   0.000000000000000
   0.000000000000000
   0.000000000000000
   0.000000000000000
   0.000000000000000
   0.000000000000000
   0.000000000000000
   0.000000000000000
   0.000000000000000
   0.000000000000000
   0.000000000000000
   0.000000000000000
   0.000000000000000
   0.000000000000000
   0.000000000000000
   0.000000000000000
   0.000000000000000
   0.000000000000000
   0.000000000000000
   0.000000000000000
   0.000000000000000
   0.000000000000000
   0.000000000000000
   0.000000000000000
   0.000000000000000
   0.000000000000000
   0.000000000000000
   0.000000000000000
   0.000000000000000
   0.000000000000000
   0.000000000000000
   0.000000000000000
   0.000000000000000
   0.000000000000000
   0.000000000000000
   0.000000000000000
   0.000000000000000
   0.000000000000000
   0.000000000000000
   0.000000000000000
   0.000000000000000
   0.000000000000000
   0.000000000000000
   0.000000000000000
   0.000000000000000
   0.000000000000000
   0.000000000000000
   0.000000000000000
   0.000000000000000
   0.000000000000000
   0.000000000000000
   0.000000000000000
   0.000000000000000
   0.000000000000000
   0.000000000000000
   0.000000000000000
   0.000000000000000
   0.000000000000000
   0.000000000000000
   0.000000000000000
   0.000000000000000
   0.000000000000000
   0.000000000000000
   0.000000000000000
   0.000000000000000
   0.000000000000000
   0.000000000000000
   0.000000000000000
   0.000000000000000
   0.000000000000000
   0.000000000000000
   0.000000000000000
   0.000000000000000
   0.000000000000000
   0.000000000000000
   0.000000000000000
   0.000000000000000
   0.000000000000000
   0.000000000000000
   0.000000000000000
   0.000000000000000
   0.000000000000000
   0.000000000000000
   0.000000000000000
   0.000000000000000
   0.000000000000000
   0.000000000000000
   0.000000000000000
   0.000000000000000
   0.000000000000000
   0.000000000000000
   0.000000000000000
   0.000000000000000
   0.000000000000000
   0.000000000000000
   0.000000000000000
   0.000000000000000
   0.000000000000000
   0.000000000000000
   0.000000000000000
   0.000000000000000
   0.000000000000000
   0.000000000000000
   0.000000000000000
   0.000000000000000
   0.000000000000000
   0.000000000000000
   0.000000000000000
   0.000000000000000
   0.000000000000000
   0.000000000000000
   0.000000000000000
   0.000000000000000
   0.000000000000000
   0.000000000000000
   0.000000000000000
   0.000000000000000
   0.000000000000000
   0.000000000000000
   0.000000000000000
   0.000000000000000
   0.000000000000000
   0.000000000000000
   0.000000000000000
   0.000000000000000
   0.000000000000000
   0.000000000000000
   0.000000000000000
   0.000000000000000
   0.000000000000000
   0.000000000000000
   0.000000000000000
   0.000000000000000
   0.000000000000000
   0.000000000000000
   0.000000000000000
   0.000000000000000
   0.000000000000000
   0.000000000000000
   0.000000000000000
   0.000000000000000
   0.000000000000000
   0.000000000000000
   0.000000000000000
   0.000000000000000
   0.000000000000000
   0.000000000000000
   0.000000000000000
   0.000000000000000
   0.000000000000000
   0.000000000000000
   0.000000000000000
   0.000000000000000
   0.000000000000000
   0.000000000000000
   0.000000000000000
   0.000000000000000
   0.000000000000000
   0.000000000000000
   0.000000000000000
   0.000000000000000
   0.000000000000000
   0.000000000000000
   0.000000000000000
   0.000000000000000
   0.000000000000000
   0.000000000000000
   0.000000000000000
   0.000000000000000
   0.000000000000000
   0.000000000000000
   0.000000000000000
   0.000000000000000
   0.000000000000000
   0.000000000000000
   0.000000000000000
   0.000000000000000
   0.000000000000000
   0.000000000000000
   0.000000000000000
   0.000000000000000
   0.000000000000000
   0.000000000000000
   0.000000000000000
   0.000000000000000
   0.000000000000000
   0.000000000000000
   0.000000000000000
   0.000000000000000
   0.000000000000000
   0.000000000000000
   0.000000000000000
   0.000000000000000
   0.000000000000000
   0.000000000000000
   0.000000000000000
   0.000000000000000
   0.000000000000000
   0.000000000000000
   0.000000000000000
   0.000000000000000
   0.000000000000000
   0.000000000000000
   0.000000000000000
   0.000000000000000
   0.000000000000000
   0.000000000000000
   0.000000000000000
   0.000000000000000
   0.000000000000000
   0.000000000000000
   0.000000000000000
   0.000000000000000
   0.000000000000000
   0.000000000000000
   0.000000000000000
   0.000000000000000
   0.000000000000000
   0.000000000000000
   0.000000000000000
   0.000000000000000
   0.000000000000000
   0.000000000000000
   0.000000000000000
   0.000000000000000
   0.000000000000000
   0.000000000000000
   0.000000000000000
   0.000000000000000
   0.000000000000000
   0.000000000000000
   0.000000000000000
   0.000000000000000
   0.000000000000000
   0.000000000000000
   0.000000000000000
   0.000000000000000
   0.000000000000000
   0.000000000000000
   0.000000000000000
   0.000000000000000
   0.000000000000000
   0.000000000000000
   0.000000000000000
   0.000000000000000
   0.000000000000000
   0.000000000000000
   0.000000000000000
   0.000000000000000
   0.000000000000000
   0.000000000000000
   0.000000000000000
   0.000000000000000
   0.000000000000000
   0.000000000000000
   0.000000000000000
   0.000000000000000
   0.000000000000000
   0.000000000000000
   0.000000000000000
   0.000000000000000
   0.000000000000000
   0.000000000000000
   0.000000000000000
   0.000000000000000
   0.000000000000000
   0.000000000000000
   0.000000000000000
   0.000000000000000
   0.000000000000000
   0.000000000000000
   0.000000000000000
   0.000000000000000
   0.000000000000000
   0.000000000000000
   0.000000000000000
   0.000000000000000
   0.000000000000000
   0.000000000000000
   0.000000000000000
   0.000000000000000
   0.000000000000000
   0.000000000000000
   0.000000000000000
   0.000000000000000
   0.000000000000000
   0.000000000000000
   0.000000000000000
   0.000000000000000
   0.000000000000000
   0.000000000000000
   0.000000000000000
   0.000000000000000
   0.000000000000000
   0.000000000000000
   0.000000000000000
   0.000000000000000
   0.000000000000000
   0.000000000000000
   0.000000000000000
   0.000000000000000
   0.000000000000000
   0.000000000000000
   0.000000000000000
   0.000000000000000
   0.000000000000000
   0.000000000000000
   0.000000000000000
   0.000000000000000
   0.000000000000000
   0.000000000000000
   0.000000000000000
   0.000000000000000
   0.000000000000000
   0.000000000000000
   0.000000000000000
   0.000000000000000
   0.000000000000000
   0.000000000000000
   0.000000000000000
   0.000000000000000
   0.000000000000000
   0.000000000000000
   0.000000000000000
   0.000000000000000
   0.000000000000000
   0.000000000000000
   0.000000000000000
   0.000000000000000
   0.000000000000000
   0.000000000000000
   0.000000000000000
   0.000000000000000
   0.000000000000000
   0.000000000000000
   0.000000000000000
   0.000000000000000
   0.000000000000000
   0.000000000000000
   0.000000000000000
   0.000000000000000
   0.000000000000000
   0.000000000000000
   0.000000000000000
   0.000000000000000
   0.000000000000000
   0.000000000000000
   0.000000000000000
   0.000000000000000
   0.000000000000000
   0.000000000000000
   0.000000000000000
   0.000000000000000
   0.000000000000000
   0.000000000000000
   0.000000000000000
   0.000000000000000
   0.000000000000000
   0.000000000000000
   0.000000000000000
   0.000000000000000
   0.000000000000000
   0.000000000000000
   0.000000000000000
   0.000000000000000
   0.000000000000000
   0.000000000000000
   0.000000000000000
   0.000000000000000
   0.000000000000000
   0.000009980338733
   0.000000000000000
   0.000000000000000
   0.000000000000000
   0.000000000000000
   0.000000000000000
   0.000000000000000
   0.000000000000000
   0.000000000000000
   0.000000000000000
   0.000009980338733
   0.000000000000000
   0.000000000000000
   0.000000000000000
   0.000000000000000
   0.000009980338733
   0.000000000000000
   0.000000000000000
   0.000000000000000
   0.000000000000000
   0.000009980338733
   0.000000000000000
   0.000000000000000
   0.000000000000000
   0.000000000000000
   0.000009980338733
   0.000009980338733
   0.000000000000000
   0.000009980338733
   0.000009980338733
   0.000000000000000
   0.000000000000000
   0.000009980338733
   0.000000000000000
   0.000009980338733
   0.000019960677465
   0.000019960677465
   0.000000000000000
   0.000009980338733
   0.000000000000000
   0.000000000000000
   0.000000000000000
   0.000000000000000
   0.000009980338733
   0.000000000000000
   0.000000000000000
   0.000000000000000
   0.000009980338733
   0.000019960677465
   0.000000000000000
   0.000000000000000
   0.000000000000000
   0.000029941016198
   0.000000000000000
   0.000019960677465
   0.000009980338733
   0.000000000000000
   0.000029941016198
   0.000000000000000
   0.000009980338733
   0.000009980338733
   0.000009980338733
   0.000039921354931
   0.000009980338733
   0.000029941016198
   0.000009980338733
   0.000019960677465
   0.000009980338733
   0.000039921354931
   0.000000000000000
   0.000029941016198
   0.000009980338733
   0.000019960677465
   0.000019960677465
   0.000019960677465
   0.000029941016198
   0.000049901693663
   0.000039921354931
   0.000029941016198
   0.000029941016198
   0.000049901693663
   0.000039921354931
   0.000049901693663
   0.000019960677465
   0.000079842709862
   0.000049901693663
   0.000029941016198
   0.000029941016198
   0.000029941016198
   0.000069862371129
   0.000079842709862
   0.000029941016198
   0.000019960677465
   0.000059882032396
   0.000069862371129
   0.000069862371129
   0.000059882032396
   0.000069862371129
   0.000089823048594
   0.000079842709862
   0.000049901693663
   0.000059882032396
   0.000099803387327
   0.000079842709862
   0.000099803387327
   0.000039921354931
   0.000119764064792
   0.000119764064792
   0.000069862371129
   0.000119764064792
   0.000139724742258
   0.000069862371129
   0.000139724742258
   0.000129744403525
   0.000139724742258
   0.000119764064792
   0.000179646097189
   0.000159685419723
   0.000159685419723
   0.000119764064792
   0.000179646097189
   0.000229547790852
   0.000199606774654
   0.000169665758456
   0.000169665758456
   0.000079842709862
   0.000249508468317
   0.000159685419723
   0.000109783726060
   0.000229547790852
   0.000229547790852
   0.000209587113387
   0.000369272533110
   0.000319370839446
   0.000279449484516
   0.000219567452119
   0.000299410161981
   0.000309390500714
   0.000269469145783
   0.000249508468317
   0.000189626435921
   0.000339331516912
   0.000279449484516
   0.000369272533110
   0.000299410161981
   0.000359292194377
   0.000369272533110
   0.000399213549308
   0.000399213549308
   0.000399213549308
   0.000319370839446
   0.000469075920437
   0.000459095581704
   0.000319370839446
   0.000419174226773
   0.000409193888041
   0.000528957952833
   0.000469075920437
   0.000349311855644
   0.000598820323962
   0.000429154565506
   0.000528957952833
   0.000688643372556
   0.000618781001427
   0.000628761340160
   0.000668682695091
   0.000628761340160
   0.000728564727487
   0.000648722017625
   0.000538938291566
   0.000698623711289
   0.000738545066220
   0.000588839985229
   0.000658702356358
   0.000788446759883
   0.000748525404952
   0.000808407437348
   0.000748525404952
   0.000878269808477
   0.000798427098616
   0.000828368114814
   0.000898230485943
   0.000938151840873
   0.000948132179606
   0.000958112518339
   0.000928171502141
   0.000778466421150
   0.001017994550735
   0.000858309131012
   0.001037955228200
   0.001037955228200
   0.001017994550735
   0.001147738954260
   0.000968092857072
   0.001057915905666
   0.001057915905666
   0.001227581664122
   0.001157719292993
   0.001217601325389
   0.001207620986656
   0.001357326067647
   0.001257522680320
   0.001467109793706
   0.001357326067647
   0.001387267083845
   0.001357326067647
   0.001417208100043
   0.001407227761310
   0.001556932842301
   0.001546952503568
   0.001796460971885
   0.001487070471172
   0.001507031148637
   0.001666716568360
   0.001746559278222
   0.001726598600757
   0.001856343004282
   0.001756539616955
   0.001756539616955
   0.001706637923291
   0.001816421649351
   0.001856343004282
   0.001946166052876
   0.001796460971885
   0.002006048085272
   0.002095871133866
   0.002175713843728
   0.002125812150064
   0.002016028424005
   0.002085890795134
   0.002045969440203
   0.002075910456401
   0.002235595876124
   0.002105851472599
   0.002195674521193
   0.002325418924718
   0.002505065021907
   0.002594888070501
   0.002425222312045
   0.002684711119095
   0.002395281295847
   0.002255556553589
   0.002664750441630
   0.002554966715570
   0.002525025699372
   0.002475124005709
   0.002634809425432
   0.002884317893749
   0.002525025699372
   0.002864357216284
   0.002794494845155
   0.002754573490224
   0.002864357216284
   0.003014062297274
   0.002824435861353
   0.002924239248680
   0.003014062297274
   0.002874337555017
   0.002864357216284
   0.003063963990938
   0.003073944329671
   0.003143806700799
   0.003293511781790
   0.003203688733196
   0.003004081958542
   0.003333433136721
   0.003383334830384
   0.003413275846582
   0.003383334830384
   0.003503098895177
   0.003263570765592
   0.003503098895177
   0.003353393814186
   0.003533039911375
   0.003293511781790
   0.003413275846582
   0.003343413475453
   0.003742627024761
   0.003922273121950
   0.003802509057157
   0.003592921943771
   0.003742627024761
   0.003952214138148
   0.003852410750821
   0.003862391089554
   0.003822469734623
   0.003682744992365
   0.003892332105752
   0.003992135493079
   0.003912292783217
   0.004431270397317
   0.004131860235336
   0.004032056848009
   0.004221683283931
   0.004191742267733
   0.004461211413515
   0.004002115831811
   0.004321486671258
   0.004401329381119
   0.004091938880406
   0.004481172090981
   0.004151820912802
   0.004111899557871
   0.004022076509277
   0.004531073784644
   0.004201722606465
   0.004391349042386
   0.004501132768446
   0.004580975478308
   0.004421290058585
   0.004521093445912
   0.004501132768446
   0.004361408026188
   0.003932253460682
   0.004271584977594
   0.004441250736050
   0.004810523269160
   0.004780582252962
   0.004441250736050
   0.004391349042386
   0.004461211413515
   0.004461211413515
   0.004780582252962
   0.004640857510704
   0.004261604638861
   0.004890365979021
   0.004081958541673
   0.004820503607892
   0.004341447348723
   0.004341447348723
   0.004640857510704
   0.004541054123377
   0.004271584977594
   0.004660818188169
   0.004690759204367
   0.004950248011418
   0.004141840574069
   0.004261604638861
   0.005040071060012
   0.004501132768446
   0.004391349042386
   0.004461211413515
   0.004840464285358
   0.004640857510704
   0.004421290058585
   0.004301525993792
   0.004491152429713
   0.004521093445912
   0.004371388364921
   0.004600936155773
   0.004301525993792
   0.004820503607892
   0.004381368703654
   0.004441250736050
   0.004391349042386
   0.004640857510704
   0.004421290058585
   0.004531073784644
   0.004730680559298
   0.004690759204367
   0.004301525993792
   0.004421290058585
   0.004261604638861
   0.004022076509277
   0.004361408026188
   0.004381368703654
   0.004061997864208
   0.004461211413515
   0.004231663622663
   0.004221683283931
   0.004002115831811
   0.004421290058585
   0.003962194476881
   0.004161801251534
   0.004191742267733
   0.003992135493079
   0.003992135493079
   0.004012096170544
   0.004251624300129
   0.004271584977594
   0.004042037186742
   0.004221683283931
   0.004241643961396
   0.004002115831811
   0.004012096170544
   0.004341447348723
   0.004022076509277
   0.003932253460682
   0.003872371428286
   0.003952214138148
   0.003802509057157
   0.003672764653632
   0.003852410750821
   0.003493118556444
   0.003682744992365
   0.003612882621236
   0.003742627024761
   0.003553000588840
   0.003642823637434
   0.003772568040959
   0.003443216862780
   0.003323452797988
   0.003582941605038
   0.003393315169117
   0.003453197201513
   0.003592921943771
   0.003562980927573
   0.003243610088126
   0.003353393814186
   0.003742627024761
   0.003253590426859
   0.003403295507850
   0.003223649410661
   0.003103885345869
   0.003223649410661
   0.002884317893749
   0.003034022974740
   0.003153787039532
   0.003203688733196
   0.002704671796561
   0.002874337555017
   0.003163767378265
   0.002714652135293
   0.002794494845155
   0.002714652135293
   0.002944199926145
   0.002934219587413
   0.002505065021907
   0.002614848747967
   0.002814455522620
   0.003063963990938
   0.002624829086699
   0.002345379602184
   0.002505065021907
   0.002604868409234
   0.003004081958542
   0.002075910456401
   0.002564947054303
   0.002375320618382
   0.002395281295847
   0.002415241973313
   0.002006048085272
   0.002325418924718
   0.002355359940916
   0.002075910456401
   0.002325418924718
   0.002215635198659
   0.001976107069074
   0.002195674521193
   0.002085890795134
   0.002165733504995
   0.001976107069074
   0.001866323343014
   0.002035989101470
   0.002205654859926
   0.001836382326816
   0.001886284020480
   0.001576893519766
   0.001576893519766
   0.001786480633153
   0.001706637923291
   0.001666716568360
   0.001546952503568
   0.001706637923291
   0.001866323343014
   0.001477090132439
   0.001766519955687
   0.001766519955687
   0.001746559278222
   0.001287463696518
   0.001487070471172
   0.001317404712716
   0.001526991826103
   0.001357326067647
   0.001247542341587
   0.001387267083845
   0.001377286745112
   0.001177679970458
   0.001237562002854
   0.001397247422578
   0.001237562002854
   0.001237562002854
   0.001067896244399
   0.001117797938062
   0.001227581664122
   0.001027974889468
   0.001137758615527
   0.001057915905666
   0.001047935566933
   0.000968092857072
   0.000918191163408
   0.001037955228200
   0.000988053534537
   0.000798427098616
   0.001008014212002
   0.000808407437348
   0.000938151840873
   0.000858309131012
   0.000918191163408
   0.000838348453547
   0.000798427098616
   0.000798427098616
   0.000748525404952
   0.000738545066220
   0.000878269808477
   0.000748525404952
   0.000708604050021
   0.000658702356358
   0.000688643372556
   0.000648722017625
   0.000788446759883
   0.000758505743685
   0.000558898969031
   0.000588839985229
   0.000568879307764
   0.000768486082418
   0.000439134904239
   0.000538938291566
   0.000528957952833
   0.000499016936635
   0.000389233210575
   0.000479056259169
   0.000469075920437
   0.000499016936635
   0.000518977614100
   0.000489036597902
   0.000419174226773
   0.000459095581704
   0.000359292194377
   0.000499016936635
   0.000409193888041
   0.000429154565506
   0.000339331516912
   0.000379252871842
   0.000459095581704
   0.000369272533110
   0.000309390500714
   0.000249508468317
   0.000339331516912
   0.000329351178179
   0.000289429823248
   0.000279449484516
   0.000279449484516
   0.000439134904239
   0.000279449484516
   0.000249508468317
   0.000269469145783
   0.000289429823248
   0.000309390500714
   0.000229547790852
   0.000199606774654
   0.000179646097189
   0.000269469145783
   0.000259488807050
   0.000209587113387
   0.000129744403525
   0.000189626435921
   0.000169665758456
   0.000209587113387
   0.000139724742258
   0.000139724742258
   0.000159685419723
   0.000099803387327
   0.000099803387327
   0.000109783726060
   0.000209587113387
   0.000139724742258
   0.000169665758456
   0.000159685419723
   0.000149705080990
   0.000089823048594
   0.000109783726060
   0.000119764064792
   0.000139724742258
   0.000109783726060
   0.000139724742258
   0.000129744403525
   0.000089823048594
   0.000079842709862
   0.000049901693663
   0.000069862371129
   0.000049901693663
   0.000089823048594
   0.000079842709862
   0.000089823048594
   0.000079842709862
   0.000069862371129
   0.000029941016198
   0.000049901693663
   0.000029941016198
   0.000089823048594
   0.000079842709862
   0.000069862371129
   0.000079842709862
   0.000069862371129
   0.000019960677465
   0.000029941016198
   0.000039921354931
   0.000049901693663
   0.000049901693663
   0.000029941016198
   0.000029941016198
   0.000039921354931
   0.000049901693663
   0.000099803387327
   0.000029941016198
   0.000019960677465
   0.000009980338733
   0.000029941016198
   0.000019960677465
   0.000019960677465
   0.000009980338733
   0.000009980338733
   0.000009980338733
   0.000039921354931
   0.000019960677465
   0.000019960677465
   0.000009980338733
   0.000059882032396
   0.000000000000000
   0.000019960677465
   0.000009980338733
   0.000009980338733
   0.000009980338733
   0.000009980338733
   0.000009980338733
   0.000009980338733
   0.000000000000000
   0.000000000000000
   0.000000000000000
   0.000029941016198
   0.000009980338733
   0.000019960677465
   0.000009980338733
   0.000009980338733
   0.000000000000000
   0.000009980338733
   0.000000000000000
   0.000000000000000
   0.000000000000000
   0.000009980338733
   0.000019960677465
   0.000019960677465
   0.000000000000000
   0.000019960677465
   0.000000000000000
   0.000009980338733
   0.000019960677465
   0.000009980338733
   0.000009980338733
   0.000000000000000
   0.000000000000000
   0.000000000000000
   0.000009980338733
   0.000000000000000
   0.000000000000000
   0.000009980338733
   0.000000000000000
   0.000000000000000
   0.000000000000000
   0.000000000000000
   0.000000000000000
   0.000000000000000
   0.000009980338733
   0.000000000000000
   0.000019960677465
   0.000009980338733
   0.000000000000000
   0.000000000000000
   0.000009980338733
   0.000000000000000
   0.000000000000000
   0.000000000000000
   0.000000000000000
   0.000000000000000
   0.000000000000000
   0.000000000000000
   0.000000000000000
   0.000000000000000
   0.000000000000000
   0.000000000000000
   0.000000000000000
   0.000000000000000
   0.000009980338733
   0.000000000000000
   0.000000000000000
   0.000000000000000
   0.000000000000000
   0.000000000000000
   0.000000000000000
   0.000000000000000
   0.000000000000000
   0.000000000000000
   0.000000000000000
   0.000000000000000
   0.000000000000000
   0.000000000000000
   0.000000000000000
   0.000000000000000
   0.000000000000000
   0.000000000000000
   0.000000000000000
   0.000000000000000
   0.000000000000000
   0.000000000000000
   0.000000000000000
   0.000000000000000
   0.000000000000000
   0.000000000000000
   0.000000000000000
   0.000000000000000
   0.000000000000000
   0.000000000000000
   0.000000000000000
   0.000000000000000
   0.000000000000000
   0.000000000000000
   0.000000000000000
   0.000000000000000
   0.000000000000000
   0.000000000000000
   0.000000000000000
   0.000000000000000
   0.000000000000000
   0.000000000000000
   0.000000000000000
   0.000000000000000
   0.000000000000000
   0.000000000000000
   0.000000000000000
   0.000000000000000
   0.000000000000000
   0.000000000000000
   0.000000000000000
   0.000000000000000
   0.000000000000000
   0.000000000000000
   0.000000000000000
   0.000000000000000
   0.000000000000000
   0.000000000000000
   0.000000000000000
   0.000000000000000
   0.000000000000000
   0.000000000000000
   0.000000000000000
   0.000000000000000
   0.000000000000000
   0.000000000000000
   0.000000000000000
   0.000000000000000
   0.000000000000000
   0.000000000000000
   0.000000000000000
   0.000000000000000
   0.000000000000000
   0.000000000000000
   0.000000000000000
   0.000000000000000
   0.000000000000000
   0.000000000000000
   0.000000000000000
   0.000000000000000
   0.000000000000000
   0.000000000000000
   0.000000000000000
   0.000000000000000
   0.000000000000000
   0.000000000000000
   0.000000000000000
   0.000000000000000
   0.000000000000000
   0.000000000000000
   0.000000000000000
   0.000000000000000
   0.000000000000000
   0.000000000000000
   0.000000000000000
   0.000000000000000
   0.000000000000000
   0.000000000000000
   0.000000000000000
   0.000000000000000
   0.000000000000000
   0.000000000000000
   0.000000000000000
   0.000000000000000
   0.000000000000000
   0.000000000000000
   0.000000000000000
   0.000000000000000
   0.000000000000000
   0.000000000000000
   0.000000000000000
   0.000000000000000
   0.000000000000000
   0.000000000000000
   0.000000000000000
   0.000000000000000
   0.000000000000000
   0.000000000000000
   0.000000000000000
   0.000000000000000
   0.000000000000000
   0.000000000000000
   0.000000000000000
   0.000000000000000
   0.000000000000000
   0.000000000000000
   0.000000000000000
   0.000000000000000
   0.000000000000000
   0.000000000000000
   0.000000000000000
   0.000000000000000
   0.000000000000000
   0.000000000000000
   0.000000000000000
   0.000000000000000
   0.000000000000000
   0.000000000000000
   0.000000000000000
   0.000000000000000
   0.000000000000000
   0.000000000000000
   0.000000000000000
   0.000000000000000
   0.000000000000000
   0.000000000000000
   0.000000000000000
   0.000000000000000
   0.000000000000000
   0.000000000000000
   0.000000000000000
   0.000000000000000
   0.000000000000000
   0.000000000000000
   0.000000000000000
   0.000000000000000
   0.000000000000000
   0.000000000000000
   0.000000000000000
   0.000000000000000
   0.000000000000000
   0.000000000000000
   0.000000000000000
   0.000000000000000
   0.000000000000000
   0.000000000000000
   0.000000000000000
   0.000000000000000
   0.000000000000000
   0.000000000000000
   0.000000000000000
   0.000000000000000
   0.000000000000000
   0.000000000000000
   0.000000000000000
   0.000000000000000
   0.000000000000000
   0.000000000000000
   0.000000000000000
   0.000000000000000
   0.000000000000000
   0.000000000000000
   0.000000000000000
   0.000000000000000
   0.000000000000000
   0.000000000000000
   0.000000000000000
   0.000000000000000
   0.000000000000000
   0.000000000000000
   0.000000000000000
   0.000000000000000
   0.000000000000000
   0.000000000000000
   0.000000000000000
   0.000000000000000
   0.000000000000000
   0.000000000000000
   0.000000000000000
   0.000000000000000
   0.000000000000000
   0.000000000000000
   0.000000000000000
   0.000000000000000
   0.000000000000000
   0.000000000000000
   0.000000000000000
   0.000000000000000
   0.000000000000000
   0.000000000000000
   0.000000000000000
   0.000000000000000
   0.000000000000000
   0.000000000000000
   0.000000000000000
   0.000000000000000
   0.000000000000000
   0.000000000000000
   0.000000000000000
   0.000000000000000
   0.000000000000000
   0.000000000000000
   0.000000000000000
   0.000000000000000
   0.000000000000000
   0.000000000000000
   0.000000000000000
   0.000000000000000
   0.000000000000000
   0.000000000000000
   0.000000000000000
   0.000000000000000
   0.000000000000000
   0.000000000000000
   0.000000000000000
   0.000000000000000
   0.000000000000000
   0.000000000000000
   0.000000000000000
   0.000000000000000
   0.000000000000000
   0.000000000000000
   0.000000000000000
   0.000000000000000
   0.000000000000000
   0.000000000000000
   0.000000000000000
   0.000000000000000
   0.000000000000000
   0.000000000000000
   0.000000000000000
   0.000000000000000
   0.000000000000000
   0.000000000000000
   0.000000000000000
   0.000000000000000
   0.000000000000000
   0.000000000000000
   0.000000000000000
   0.000000000000000
   0.000000000000000
   0.000000000000000
   0.000000000000000
   0.000000000000000
   0.000000000000000
   0.000000000000000
   0.000000000000000
   0.000000000000000
   0.000000000000000
   0.000000000000000
   0.000000000000000
   0.000000000000000
   0.000000000000000
   0.000000000000000
   0.000000000000000
   0.000000000000000
   0.000000000000000
   0.000000000000000
   0.000000000000000
   0.000000000000000
   0.000000000000000
   0.000000000000000
   0.000000000000000
   0.000000000000000
   0.000000000000000
   0.000000000000000
   0.000000000000000
   0.000000000000000
   0.000000000000000
   0.000000000000000
   0.000000000000000
   0.000000000000000
   0.000000000000000
   0.000000000000000
   0.000000000000000
   0.000000000000000
   0.000000000000000
   0.000000000000000
   0.000000000000000
   0.000000000000000
   0.000000000000000
   0.000000000000000
   0.000000000000000
   0.000000000000000
   0.000000000000000
   0.000000000000000
   0.000000000000000
   0.000000000000000
   0.000000000000000
   0.000000000000000
   0.000000000000000
   0.000000000000000
   0.000000000000000
   0.000000000000000
   0.000000000000000
   0.000000000000000
   0.000000000000000
   0.000000000000000
   0.000000000000000
   0.000000000000000
   0.000000000000000
   0.000000000000000
   0.000000000000000
   0.000000000000000
   0.000000000000000
   0.000000000000000
   0.000000000000000
   0.000000000000000
   0.000000000000000
   0.000000000000000
   0.000000000000000
   0.000000000000000
   0.000000000000000
   0.000000000000000
   0.000000000000000
   0.000000000000000
   0.000000000000000
   0.000000000000000
   0.000000000000000
   0.000000000000000
   0.000000000000000
   0.000000000000000
   0.000000000000000
   0.000000000000000
   0.000000000000000
   0.000000000000000
   0.000000000000000
   0.000000000000000
   0.000000000000000
   0.000000000000000
   0.000000000000000
   0.000000000000000
   0.000000000000000
   0.000000000000000
   0.000000000000000
   0.000000000000000
   0.000000000000000
   0.000000000000000
   0.000000000000000
   0.000000000000000
   0.000000000000000
   0.000000000000000
   0.000000000000000
   0.000000000000000
   0.000000000000000
   0.000000000000000
   0.000000000000000
   0.000000000000000
   0.000000000000000
   0.000000000000000
   0.000000000000000
   0.000000000000000
   0.000000000000000
   0.000000000000000
   0.000000000000000
   0.000000000000000
   0.000000000000000
   0.000000000000000
   0.000000000000000
   0.000000000000000
   0.000000000000000
   0.000000000000000
   0.000000000000000
   0.000000000000000
   0.000000000000000
   0.000000000000000
   0.000000000000000
   0.000000000000000
   0.000000000000000
   0.000000000000000
   0.000000000000000
   0.000000000000000
   0.000000000000000
   0.000000000000000
   0.000000000000000
   0.000000000000000
   0.000000000000000
   0.000000000000000
   0.000000000000000
   0.000000000000000
   0.000000000000000
   0.000000000000000
   0.000000000000000
   0.000000000000000
   0.000000000000000
   0.000000000000000
   0.000000000000000
   0.000000000000000
   0.000000000000000
   0.000000000000000
   0.000000000000000
   0.000000000000000
   0.000000000000000
   0.000000000000000
   0.000000000000000
   0.000000000000000
   0.000000000000000
   0.000000000000000
   0.000000000000000
   0.000000000000000
   0.000000000000000
   0.000000000000000
   0.000000000000000
   0.000000000000000
   0.000000000000000
   0.000000000000000
   0.000000000000000
   0.000000000000000
   0.000000000000000
   0.000000000000000
   0.000000000000000
   0.000000000000000
   0.000000000000000
   0.000000000000000
   0.000000000000000
   0.000000000000000
   0.000000000000000
   0.000000000000000
   0.000000000000000
   0.000000000000000
   0.000000000000000
   0.000000000000000
   0.000000000000000
   0.000000000000000
   0.000000000000000
   0.000000000000000
   0.000000000000000
   0.000000000000000
   0.000000000000000
   0.000000000000000
   0.000000000000000
   0.000000000000000
   0.000000000000000
   0.000000000000000
   0.000000000000000
   0.000000000000000
   0.000000000000000
   0.000000000000000
   0.000000000000000
   0.000000000000000
   0.000000000000000
   0.000000000000000
   0.000000000000000
   0.000000000000000
   0.000000000000000
   0.000000000000000
   0.000000000000000
   0.000000000000000
   0.000000000000000
   0.000000000000000
   0.000000000000000
   0.000000000000000
   0.000000000000000
   0.000000000000000
   0.000000000000000
   0.000000000000000
   0.000000000000000
   0.000000000000000
   0.000000000000000
   0.000000000000000
   0.000000000000000
   0.000000000000000
   0.000000000000000
   0.000000000000000
   0.000000000000000
   0.000000000000000
   0.000000000000000
   0.000000000000000
   0.000000000000000
   0.000000000000000
   0.000000000000000
   0.000000000000000
   0.000000000000000
   0.000000000000000
   0.000000000000000
   0.000000000000000
   0.000000000000000
   0.000000000000000
   0.000000000000000
   0.000000000000000
   0.000000000000000
   0.000000000000000
   0.000000000000000
   0.000000000000000
   0.000000000000000
   0.000000000000000
   0.000000000000000
   0.000000000000000
   0.000000000000000
   0.000000000000000
   0.000000000000000
   0.000000000000000
   0.000000000000000
   0.000000000000000
   0.000000000000000
   0.000000000000000
   0.000000000000000
   0.000000000000000
   0.000000000000000
   0.000000000000000
   0.000000000000000
   0.000000000000000
   0.000000000000000
   0.000000000000000
   0.000000000000000
   0.000000000000000
   0.000000000000000
   0.000000000000000
   0.000000000000000
   0.000000000000000
   0.000000000000000
   0.000000000000000
   0.000000000000000
   0.000000000000000
   0.000000000000000
   0.000000000000000
   0.000000000000000
   0.000000000000000
   0.000000000000000
   0.000000000000000
   0.000000000000000
   0.000000000000000
   0.000000000000000
   0.000000000000000
   0.000000000000000
   0.000000000000000
   0.000000000000000
   0.000000000000000
   0.000000000000000
   0.000000000000000
   0.000000000000000
   0.000000000000000
   0.000000000000000
   0.000000000000000
   0.000000000000000
   0.000000000000000
   0.000000000000000
   0.000000000000000
   0.000000000000000
   0.000000000000000
   0.000000000000000
   0.000000000000000
   0.000000000000000
   0.000000000000000
   0.000000000000000
   0.000000000000000
   0.000000000000000
   0.000000000000000
   0.000000000000000
   0.000000000000000
   0.000000000000000
   0.000000000000000
   0.000000000000000
   0.000000000000000
   0.000000000000000
   0.000000000000000
   0.000000000000000
   0.000000000000000
   0.000000000000000
   0.000000000000000
   0.000000000000000
   0.000000000000000
   0.000000000000000
   0.000000000000000
   0.000000000000000
   0.000000000000000
   0.000000000000000
   0.000000000000000
   0.000000000000000
   0.000000000000000
   0.000000000000000
   0.000000000000000
   0.000000000000000
   0.000000000000000
   0.000000000000000
   0.000000000000000
   0.000000000000000
   0.000000000000000
   0.000000000000000
   0.000000000000000
   0.000000000000000
   0.000000000000000
   0.000000000000000
   0.000000000000000
   0.000000000000000
   0.000000000000000
   0.000000000000000
   0.000000000000000
   0.000000000000000
   0.000000000000000
   0.000000000000000
   0.000000000000000
   0.000000000000000
   0.000000000000000
   0.000000000000000
   0.000000000000000
   0.000000000000000
   0.000000000000000
   0.000000000000000
   0.000000000000000
   0.000000000000000
   0.000000000000000
   0.000000000000000
   0.000000000000000
   0.000000000000000
   0.000000000000000
   0.000000000000000
   0.000000000000000
   0.000000000000000
   0.000000000000000
   0.000000000000000
   0.000000000000000
   0.000000000000000
   0.000000000000000
   0.000000000000000
   0.000000000000000
   0.000000000000000
   0.000000000000000
   0.000000000000000
   0.000000000000000
   0.000000000000000
   0.000000000000000
   0.000000000000000
   0.000000000000000
   0.000000000000000
   0.000000000000000
   0.000000000000000
   0.000000000000000
   0.000000000000000
   0.000000000000000
   0.000000000000000
   0.000000000000000
   0.000000000000000
   0.000000000000000
   0.000000000000000
   0.000000000000000
   0.000000000000000
   0.000000000000000
   0.000000000000000
   0.000000000000000
   0.000000000000000
   0.000000000000000
   0.000000000000000
   0.000000000000000
   0.000000000000000
   0.000000000000000
   0.000000000000000
   0.000000000000000
   0.000000000000000
   0.000000000000000
   0.000000000000000
   0.000000000000000
   0.000000000000000
   0.000000000000000
   0.000000000000000
   0.000000000000000
   0.000000000000000
   0.000000000000000
   0.000000000000000
   0.000000000000000
   0.000000000000000
   0.000000000000000
   0.000000000000000
