Change Component Designator: OldDesignator=J1 NewDesignator=OUT0_P
Change Component Designator: OldDesignator=J2 NewDesignator=IN0_P
Change Component Designator: OldDesignator=J3 NewDesignator=OUT0_N
Change Component Designator: OldDesignator=J4 NewDesignator=IN0_N
Change Component Designator: OldDesignator=J5 NewDesignator=OUT1_P
Change Component Designator: OldDesignator=J6 NewDesignator=IN1_P
Change Component Designator: OldDesignator=J7 NewDesignator=OUT1_N
Change Component Designator: OldDesignator=J8 NewDesignator=IN1_N
Change Component Designator: OldDesignator=J9 NewDesignator=OUT2_P
Change Component Designator: OldDesignator=J10 NewDesignator=OUT2_N
Change Component Designator: OldDesignator=J11 NewDesignator=IN2_P
Change Component Designator: OldDesignator=J12 NewDesignator=IN2_N
Change Component Designator: OldDesignator=J13 NewDesignator=OUT3_P
Change Component Designator: OldDesignator=J14 NewDesignator=OUT3_N
Change Component Designator: OldDesignator=J15 NewDesignator=IN3_P
Change Component Designator: OldDesignator=J16 NewDesignator=IN3_N
