#         XOrigin (ps),       -23.0517610000
#      Resolution (ps),         0.0177000000
#            Mean (ps),        -4.6675488000
#          Median (ps),        -4.6478000000
#             RMS (ps),         1.3808100000
#       Peak-Peak (ps),        12.1214000000
#             Min (ps),       -10.9481000000
#             Max (ps),         1.1733000000
#                 HITS,               400788
#               Values,                 2048
   0.000000000000000
   0.000000000000000
   0.000000000000000
   0.000000000000000
   0.000000000000000
   0.000000000000000
   0.000000000000000
   0.000000000000000
   0.000000000000000
   0.000000000000000
   0.000000000000000
   0.000000000000000
   0.000000000000000
   0.000000000000000
   0.000000000000000
   0.000000000000000
   0.000000000000000
   0.000000000000000
   0.000000000000000
   0.000000000000000
   0.000000000000000
   0.000000000000000
   0.000000000000000
   0.000000000000000
   0.000000000000000
   0.000000000000000
   0.000000000000000
   0.000000000000000
   0.000000000000000
   0.000000000000000
   0.000000000000000
   0.000000000000000
   0.000000000000000
   0.000000000000000
   0.000000000000000
   0.000000000000000
   0.000000000000000
   0.000000000000000
   0.000000000000000
   0.000000000000000
   0.000000000000000
   0.000000000000000
   0.000000000000000
   0.000000000000000
   0.000000000000000
   0.000000000000000
   0.000000000000000
   0.000000000000000
   0.000000000000000
   0.000000000000000
   0.000000000000000
   0.000000000000000
   0.000000000000000
   0.000000000000000
   0.000000000000000
   0.000000000000000
   0.000000000000000
   0.000000000000000
   0.000000000000000
   0.000000000000000
   0.000000000000000
   0.000000000000000
   0.000000000000000
   0.000000000000000
   0.000000000000000
   0.000000000000000
   0.000000000000000
   0.000000000000000
   0.000000000000000
   0.000000000000000
   0.000000000000000
   0.000000000000000
   0.000000000000000
   0.000000000000000
   0.000000000000000
   0.000000000000000
   0.000000000000000
   0.000000000000000
   0.000000000000000
   0.000000000000000
   0.000000000000000
   0.000000000000000
   0.000000000000000
   0.000000000000000
   0.000000000000000
   0.000000000000000
   0.000000000000000
   0.000000000000000
   0.000000000000000
   0.000000000000000
   0.000000000000000
   0.000000000000000
   0.000000000000000
   0.000000000000000
   0.000000000000000
   0.000000000000000
   0.000000000000000
   0.000000000000000
   0.000000000000000
   0.000000000000000
   0.000000000000000
   0.000000000000000
   0.000000000000000
   0.000000000000000
   0.000000000000000
   0.000000000000000
   0.000000000000000
   0.000000000000000
   0.000000000000000
   0.000000000000000
   0.000000000000000
   0.000000000000000
   0.000000000000000
   0.000000000000000
   0.000000000000000
   0.000000000000000
   0.000000000000000
   0.000000000000000
   0.000000000000000
   0.000000000000000
   0.000000000000000
   0.000000000000000
   0.000000000000000
   0.000000000000000
   0.000000000000000
   0.000000000000000
   0.000000000000000
   0.000000000000000
   0.000000000000000
   0.000000000000000
   0.000000000000000
   0.000000000000000
   0.000000000000000
   0.000000000000000
   0.000000000000000
   0.000000000000000
   0.000000000000000
   0.000000000000000
   0.000000000000000
   0.000000000000000
   0.000000000000000
   0.000000000000000
   0.000000000000000
   0.000000000000000
   0.000000000000000
   0.000000000000000
   0.000000000000000
   0.000000000000000
   0.000000000000000
   0.000000000000000
   0.000000000000000
   0.000000000000000
   0.000000000000000
   0.000000000000000
   0.000000000000000
   0.000000000000000
   0.000000000000000
   0.000000000000000
   0.000000000000000
   0.000000000000000
   0.000000000000000
   0.000000000000000
   0.000000000000000
   0.000000000000000
   0.000000000000000
   0.000000000000000
   0.000000000000000
   0.000000000000000
   0.000000000000000
   0.000000000000000
   0.000000000000000
   0.000000000000000
   0.000000000000000
   0.000000000000000
   0.000000000000000
   0.000000000000000
   0.000000000000000
   0.000000000000000
   0.000000000000000
   0.000000000000000
   0.000000000000000
   0.000000000000000
   0.000000000000000
   0.000000000000000
   0.000000000000000
   0.000000000000000
   0.000000000000000
   0.000000000000000
   0.000000000000000
   0.000000000000000
   0.000000000000000
   0.000000000000000
   0.000000000000000
   0.000000000000000
   0.000000000000000
   0.000000000000000
   0.000000000000000
   0.000000000000000
   0.000000000000000
   0.000000000000000
   0.000000000000000
   0.000000000000000
   0.000000000000000
   0.000000000000000
   0.000000000000000
   0.000000000000000
   0.000000000000000
   0.000000000000000
   0.000000000000000
   0.000000000000000
   0.000000000000000
   0.000000000000000
   0.000000000000000
   0.000000000000000
   0.000000000000000
   0.000000000000000
   0.000000000000000
   0.000000000000000
   0.000000000000000
   0.000000000000000
   0.000000000000000
   0.000000000000000
   0.000000000000000
   0.000000000000000
   0.000000000000000
   0.000000000000000
   0.000000000000000
   0.000000000000000
   0.000000000000000
   0.000000000000000
   0.000000000000000
   0.000000000000000
   0.000000000000000
   0.000000000000000
   0.000000000000000
   0.000000000000000
   0.000000000000000
   0.000000000000000
   0.000000000000000
   0.000000000000000
   0.000000000000000
   0.000000000000000
   0.000000000000000
   0.000000000000000
   0.000000000000000
   0.000000000000000
   0.000000000000000
   0.000000000000000
   0.000000000000000
   0.000000000000000
   0.000000000000000
   0.000000000000000
   0.000000000000000
   0.000000000000000
   0.000000000000000
   0.000000000000000
   0.000000000000000
   0.000000000000000
   0.000000000000000
   0.000000000000000
   0.000000000000000
   0.000000000000000
   0.000000000000000
   0.000000000000000
   0.000000000000000
   0.000000000000000
   0.000000000000000
   0.000000000000000
   0.000000000000000
   0.000000000000000
   0.000000000000000
   0.000000000000000
   0.000000000000000
   0.000000000000000
   0.000000000000000
   0.000000000000000
   0.000000000000000
   0.000000000000000
   0.000000000000000
   0.000000000000000
   0.000000000000000
   0.000000000000000
   0.000000000000000
   0.000000000000000
   0.000000000000000
   0.000000000000000
   0.000000000000000
   0.000000000000000
   0.000000000000000
   0.000000000000000
   0.000000000000000
   0.000000000000000
   0.000000000000000
   0.000000000000000
   0.000000000000000
   0.000000000000000
   0.000000000000000
   0.000000000000000
   0.000000000000000
   0.000000000000000
   0.000000000000000
   0.000000000000000
   0.000000000000000
   0.000000000000000
   0.000000000000000
   0.000000000000000
   0.000000000000000
   0.000000000000000
   0.000000000000000
   0.000000000000000
   0.000000000000000
   0.000000000000000
   0.000000000000000
   0.000000000000000
   0.000000000000000
   0.000000000000000
   0.000000000000000
   0.000000000000000
   0.000000000000000
   0.000000000000000
   0.000000000000000
   0.000000000000000
   0.000000000000000
   0.000000000000000
   0.000000000000000
   0.000000000000000
   0.000000000000000
   0.000000000000000
   0.000000000000000
   0.000000000000000
   0.000000000000000
   0.000000000000000
   0.000000000000000
   0.000000000000000
   0.000000000000000
   0.000000000000000
   0.000000000000000
   0.000000000000000
   0.000000000000000
   0.000000000000000
   0.000000000000000
   0.000000000000000
   0.000000000000000
   0.000000000000000
   0.000000000000000
   0.000000000000000
   0.000000000000000
   0.000000000000000
   0.000000000000000
   0.000000000000000
   0.000000000000000
   0.000000000000000
   0.000000000000000
   0.000000000000000
   0.000000000000000
   0.000000000000000
   0.000000000000000
   0.000000000000000
   0.000000000000000
   0.000000000000000
   0.000000000000000
   0.000000000000000
   0.000000000000000
   0.000000000000000
   0.000000000000000
   0.000000000000000
   0.000000000000000
   0.000000000000000
   0.000000000000000
   0.000000000000000
   0.000000000000000
   0.000000000000000
   0.000000000000000
   0.000000000000000
   0.000000000000000
   0.000000000000000
   0.000000000000000
   0.000000000000000
   0.000000000000000
   0.000000000000000
   0.000000000000000
   0.000000000000000
   0.000000000000000
   0.000000000000000
   0.000000000000000
   0.000000000000000
   0.000000000000000
   0.000000000000000
   0.000000000000000
   0.000000000000000
   0.000000000000000
   0.000000000000000
   0.000000000000000
   0.000000000000000
   0.000000000000000
   0.000000000000000
   0.000000000000000
   0.000000000000000
   0.000000000000000
   0.000000000000000
   0.000000000000000
   0.000000000000000
   0.000000000000000
   0.000000000000000
   0.000000000000000
   0.000000000000000
   0.000000000000000
   0.000000000000000
   0.000000000000000
   0.000000000000000
   0.000000000000000
   0.000000000000000
   0.000000000000000
   0.000000000000000
   0.000000000000000
   0.000000000000000
   0.000000000000000
   0.000000000000000
   0.000000000000000
   0.000000000000000
   0.000000000000000
   0.000000000000000
   0.000000000000000
   0.000000000000000
   0.000000000000000
   0.000000000000000
   0.000000000000000
   0.000000000000000
   0.000000000000000
   0.000000000000000
   0.000000000000000
   0.000000000000000
   0.000000000000000
   0.000000000000000
   0.000000000000000
   0.000000000000000
   0.000000000000000
   0.000000000000000
   0.000000000000000
   0.000000000000000
   0.000000000000000
   0.000000000000000
   0.000000000000000
   0.000000000000000
   0.000000000000000
   0.000000000000000
   0.000000000000000
   0.000000000000000
   0.000000000000000
   0.000000000000000
   0.000000000000000
   0.000000000000000
   0.000000000000000
   0.000000000000000
   0.000000000000000
   0.000000000000000
   0.000000000000000
   0.000000000000000
   0.000000000000000
   0.000000000000000
   0.000000000000000
   0.000000000000000
   0.000000000000000
   0.000000000000000
   0.000000000000000
   0.000000000000000
   0.000000000000000
   0.000000000000000
   0.000000000000000
   0.000000000000000
   0.000000000000000
   0.000000000000000
   0.000000000000000
   0.000000000000000
   0.000000000000000
   0.000000000000000
   0.000000000000000
   0.000000000000000
   0.000000000000000
   0.000000000000000
   0.000000000000000
   0.000000000000000
   0.000000000000000
   0.000000000000000
   0.000000000000000
   0.000000000000000
   0.000000000000000
   0.000000000000000
   0.000000000000000
   0.000000000000000
   0.000000000000000
   0.000000000000000
   0.000000000000000
   0.000000000000000
   0.000000000000000
   0.000000000000000
   0.000000000000000
   0.000000000000000
   0.000000000000000
   0.000000000000000
   0.000000000000000
   0.000000000000000
   0.000000000000000
   0.000000000000000
   0.000000000000000
   0.000000000000000
   0.000000000000000
   0.000000000000000
   0.000000000000000
   0.000000000000000
   0.000000000000000
   0.000000000000000
   0.000000000000000
   0.000000000000000
   0.000000000000000
   0.000000000000000
   0.000000000000000
   0.000000000000000
   0.000000000000000
   0.000000000000000
   0.000000000000000
   0.000000000000000
   0.000000000000000
   0.000000000000000
   0.000000000000000
   0.000000000000000
   0.000000000000000
   0.000000000000000
   0.000000000000000
   0.000000000000000
   0.000000000000000
   0.000000000000000
   0.000000000000000
   0.000000000000000
   0.000000000000000
   0.000000000000000
   0.000000000000000
   0.000000000000000
   0.000000000000000
   0.000000000000000
   0.000000000000000
   0.000000000000000
   0.000000000000000
   0.000000000000000
   0.000000000000000
   0.000000000000000
   0.000000000000000
   0.000000000000000
   0.000000000000000
   0.000000000000000
   0.000000000000000
   0.000000000000000
   0.000000000000000
   0.000000000000000
   0.000000000000000
   0.000000000000000
   0.000000000000000
   0.000000000000000
   0.000000000000000
   0.000000000000000
   0.000000000000000
   0.000000000000000
   0.000000000000000
   0.000000000000000
   0.000000000000000
   0.000000000000000
   0.000000000000000
   0.000000000000000
   0.000000000000000
   0.000000000000000
   0.000000000000000
   0.000000000000000
   0.000000000000000
   0.000000000000000
   0.000000000000000
   0.000000000000000
   0.000000000000000
   0.000000000000000
   0.000000000000000
   0.000000000000000
   0.000000000000000
   0.000000000000000
   0.000000000000000
   0.000000000000000
   0.000000000000000
   0.000000000000000
   0.000000000000000
   0.000000000000000
   0.000000000000000
   0.000000000000000
   0.000000000000000
   0.000000000000000
   0.000000000000000
   0.000000000000000
   0.000000000000000
   0.000000000000000
   0.000000000000000
   0.000000000000000
   0.000000000000000
   0.000000000000000
   0.000000000000000
   0.000000000000000
   0.000000000000000
   0.000000000000000
   0.000000000000000
   0.000000000000000
   0.000000000000000
   0.000000000000000
   0.000000000000000
   0.000000000000000
   0.000000000000000
   0.000000000000000
   0.000000000000000
   0.000000000000000
   0.000000000000000
   0.000000000000000
   0.000000000000000
   0.000000000000000
   0.000000000000000
   0.000000000000000
   0.000000000000000
   0.000000000000000
   0.000000000000000
   0.000000000000000
   0.000000000000000
   0.000000000000000
   0.000000000000000
   0.000000000000000
   0.000000000000000
   0.000000000000000
   0.000000000000000
   0.000000000000000
   0.000000000000000
   0.000000000000000
   0.000000000000000
   0.000000000000000
   0.000000000000000
   0.000000000000000
   0.000000000000000
   0.000000000000000
   0.000000000000000
   0.000000000000000
   0.000000000000000
   0.000000000000000
   0.000000000000000
   0.000000000000000
   0.000000000000000
   0.000000000000000
   0.000000000000000
   0.000000000000000
   0.000000000000000
   0.000000000000000
   0.000000000000000
   0.000000000000000
   0.000000000000000
   0.000000000000000
   0.000000000000000
   0.000000000000000
   0.000000000000000
   0.000000000000000
   0.000000000000000
   0.000000000000000
   0.000000000000000
   0.000000000000000
   0.000000000000000
   0.000000000000000
   0.000000000000000
   0.000000000000000
   0.000000000000000
   0.000000000000000
   0.000000000000000
   0.000000000000000
   0.000000000000000
   0.000000000000000
   0.000000000000000
   0.000000000000000
   0.000000000000000
   0.000000000000000
   0.000000000000000
   0.000000000000000
   0.000000000000000
   0.000000000000000
   0.000002495084683
   0.000000000000000
   0.000000000000000
   0.000002495084683
   0.000000000000000
   0.000000000000000
   0.000000000000000
   0.000000000000000
   0.000000000000000
   0.000000000000000
   0.000000000000000
   0.000000000000000
   0.000000000000000
   0.000000000000000
   0.000000000000000
   0.000000000000000
   0.000000000000000
   0.000002495084683
   0.000000000000000
   0.000000000000000
   0.000000000000000
   0.000000000000000
   0.000000000000000
   0.000000000000000
   0.000000000000000
   0.000000000000000
   0.000000000000000
   0.000002495084683
   0.000002495084683
   0.000000000000000
   0.000000000000000
   0.000000000000000
   0.000000000000000
   0.000000000000000
   0.000000000000000
   0.000000000000000
   0.000000000000000
   0.000000000000000
   0.000000000000000
   0.000004990169366
   0.000004990169366
   0.000004990169366
   0.000002495084683
   0.000000000000000
   0.000000000000000
   0.000000000000000
   0.000002495084683
   0.000000000000000
   0.000002495084683
   0.000000000000000
   0.000002495084683
   0.000004990169366
   0.000000000000000
   0.000000000000000
   0.000000000000000
   0.000004990169366
   0.000002495084683
   0.000002495084683
   0.000002495084683
   0.000002495084683
   0.000002495084683
   0.000002495084683
   0.000000000000000
   0.000002495084683
   0.000007485254050
   0.000002495084683
   0.000004990169366
   0.000004990169366
   0.000000000000000
   0.000009980338733
   0.000009980338733
   0.000007485254050
   0.000007485254050
   0.000009980338733
   0.000009980338733
   0.000002495084683
   0.000017465592782
   0.000004990169366
   0.000014970508099
   0.000017465592782
   0.000009980338733
   0.000007485254050
   0.000007485254050
   0.000007485254050
   0.000014970508099
   0.000014970508099
   0.000012475423416
   0.000017465592782
   0.000019960677465
   0.000009980338733
   0.000009980338733
   0.000009980338733
   0.000007485254050
   0.000014970508099
   0.000017465592782
   0.000012475423416
   0.000024950846832
   0.000037426270248
   0.000019960677465
   0.000024950846832
   0.000032436100881
   0.000022455762149
   0.000029941016198
   0.000019960677465
   0.000034931185564
   0.000032436100881
   0.000024950846832
   0.000024950846832
   0.000039921354931
   0.000059882032396
   0.000017465592782
   0.000039921354931
   0.000044911524297
   0.000044911524297
   0.000072357455812
   0.000052396778347
   0.000047406608980
   0.000052396778347
   0.000044911524297
   0.000059882032396
   0.000064872201763
   0.000074852540495
   0.000094813217961
   0.000052396778347
   0.000069862371129
   0.000097308302644
   0.000087327963911
   0.000072357455812
   0.000062377117079
   0.000094813217961
   0.000104793556693
   0.000087327963911
   0.000074852540495
   0.000114773895426
   0.000094813217961
   0.000114773895426
   0.000089823048594
   0.000152200165674
   0.000112278810743
   0.000112278810743
   0.000124754234159
   0.000132239488208
   0.000137229657575
   0.000129744403525
   0.000122259149476
   0.000149705080990
   0.000159685419723
   0.000172160843139
   0.000147209996307
   0.000194616605288
   0.000204596944020
   0.000189626435921
   0.000177151012505
   0.000162180504406
   0.000182141181872
   0.000234537960218
   0.000239528129585
   0.000237033044902
   0.000219567452119
   0.000259488807050
   0.000254498637684
   0.000311885585397
   0.000329351178179
   0.000309390500714
   0.000281944569199
   0.000289429823248
   0.000276954399832
   0.000227052706169
   0.000351806940328
   0.000404203718674
   0.000326856093496
   0.000321865924129
   0.000329351178179
   0.000331846262862
   0.000391728295258
   0.000401708633991
   0.000429154565506
   0.000469075920437
   0.000444125073605
   0.000411688972724
   0.000434144734872
   0.000513987444734
   0.000504007106001
   0.000528957952833
   0.000471571005120
   0.000508997275368
   0.000541433376249
   0.000608800662694
   0.000558898969031
   0.000571374392447
   0.000623771170794
   0.000583849815863
   0.000591335069912
   0.000638741678893
   0.000693633541922
   0.000716089304071
   0.000736049981536
   0.000738545066220
   0.000743535235586
   0.000711099134705
   0.000763495913051
   0.000718584388754
   0.000835853368863
   0.000795932013933
   0.000840843538230
   0.000908210824675
   0.000825873030131
   0.000883259977844
   0.000908210824675
   0.000975578111121
   0.001003024042636
   0.000938151840873
   0.000975578111121
   0.001013004381369
   0.000950627264289
   0.001107817599329
   0.001107817599329
   0.001050430651616
   0.001235066918171
   0.001210116071339
   0.001102827429963
   0.001312414543350
   0.001292453865884
   0.001304929289300
   0.001260017765003
   0.001402237591944
   0.001367306406379
   0.001392257253211
   0.001439663862191
   0.001394752337894
   0.001444654031558
   0.001519506572053
   0.001492060640538
   0.001462119624340
   0.001474595047756
   0.001624300128746
   0.001469604878390
   0.001759034701638
   0.001646755890895
   0.001686677245826
   0.001706637923291
   0.001751549447588
   0.001873808597064
   0.001913729951995
   0.001968621815024
   0.001868818427697
   0.001968621815024
   0.001913729951995
   0.002080900625767
   0.002108346557282
   0.002110841641965
   0.002110841641965
   0.002153258081579
   0.002188189267144
   0.002287992654471
   0.002183199097777
   0.002255556553589
   0.002330409094085
   0.002395281295847
   0.002505065021907
   0.002385300957114
   0.002544986376838
   0.002377815703065
   0.002572432308353
   0.002579917562402
   0.002539996207471
   0.002537501122788
   0.002764553828957
   0.002752078405541
   0.002624829086699
   0.002804475183888
   0.002789504675789
   0.002934219587413
   0.002929229418046
   0.002789504675789
   0.003001586873858
   0.003118855853968
   0.003131331277384
   0.003076439414354
   0.003298501951156
   0.003116360769285
   0.003223649410661
   0.003203688733196
   0.003433236524048
   0.003395810253800
   0.003276046189008
   0.003246105172810
   0.003473157878978
   0.003350898729503
   0.003515574318592
   0.003538030080741
   0.003590426859088
   0.003548010419474
   0.003672764653632
   0.003567971096939
   0.003667774484266
   0.003700210585147
   0.003787538549058
   0.003667774484266
   0.003992135493079
   0.003800013972474
   0.003979660069663
   0.004047027356108
   0.003882351767019
   0.004061997864208
   0.004094433965089
   0.004189247183049
   0.004154315997485
   0.004116889727237
   0.004194237352416
   0.004506122937813
   0.004131860235336
   0.004381368703654
   0.004326476840624
   0.004398834296436
   0.004648342764753
   0.004501132768446
   0.004441250736050
   0.004531073784644
   0.004461211413515
   0.004585965647674
   0.004615906663872
   0.004608421409823
   0.004718205135882
   0.004688264119684
   0.004498637683763
   0.004645847680070
   0.004648342764753
   0.004733175643981
   0.004723195305249
   0.004675788696268
   0.004663313272852
   0.005037575975329
   0.004977693942932
   0.005002644789764
   0.004915316825853
   0.005082487499626
   0.004920306995219
   0.004715710051199
   0.005032585805962
   0.005017615297863
   0.004975198858249
   0.004977693942932
   0.005037575975329
   0.005022605467230
   0.005284589358963
   0.005219717157200
   0.005022605467230
   0.005119913769873
   0.005162330209487
   0.005172310548220
   0.005000149705081
   0.005339481221993
   0.005122408854557
   0.005331995967943
   0.005060031737477
   0.005364432068824
   0.004965218519517
   0.005284589358963
   0.005199756479735
   0.005084982584309
   0.004887870894338
   0.005169815463537
   0.005097458007725
   0.005139874447339
   0.005124903939240
   0.005099953092408
   0.005027595636596
   0.005219717157200
   0.005184785971636
   0.004987674281665
   0.004900346317754
   0.004965218519517
   0.004875395470922
   0.005114923600507
   0.005035080890645
   0.004945257842051
   0.004957733265467
   0.004965218519517
   0.005139874447339
   0.004668303442219
   0.005010130043814
   0.004830483946625
   0.004915316825853
   0.004827988861942
   0.004920306995219
   0.004775592083595
   0.004658323103486
   0.004758126490813
   0.004668303442219
   0.004788067507011
   0.004847949539407
   0.004743155982714
   0.004481172090981
   0.004563509885526
   0.004563509885526
   0.004648342764753
   0.004408814635169
   0.004603431240456
   0.004281565316327
   0.004466201582882
   0.004343942433406
   0.004266594808228
   0.004463706498199
   0.004216693114564
   0.004219188199247
   0.004211702945198
   0.004136850404703
   0.004096929049772
   0.004151820912802
   0.003952214138148
   0.003959699392197
   0.003932253460682
   0.003994630577762
   0.003917282952583
   0.003777558210326
   0.003787538549058
   0.003822469734623
   0.003812489395890
   0.003722666347296
   0.003535534996058
   0.003690230246415
   0.003632843298702
   0.003592921943771
   0.003455692286196
   0.003420761100632
   0.003508089064543
   0.003513079233909
   0.003383334830384
   0.003323452797988
   0.003266065850275
   0.003228639580027
   0.003083924668403
   0.003106380430552
   0.002949190095512
   0.002949190095512
   0.003141311616116
   0.002814455522620
   0.002969150772977
   0.002974140942344
   0.002811960437937
   0.002851881792868
   0.002629819256066
   0.002844396538819
   0.002634809425432
   0.002752078405541
   0.002602373324551
   0.002515045360640
   0.002497579767857
   0.002517540445323
   0.002283002485104
   0.002425222312045
   0.002332904178768
   0.002350369771550
   0.002168228589678
   0.002098366218549
   0.002178208928411
   0.002193179436510
   0.002128307234748
   0.002040979270836
   0.002045969440203
   0.002016028424005
   0.001893769274529
   0.001916225036678
   0.001741569108856
   0.001838877411499
   0.001888779105163
   0.001806441310618
   0.001841372496183
   0.001828897072767
   0.001664221483677
   0.001699152669242
   0.001649250975578
   0.001576893519766
   0.001497050809904
   0.001639270636845
   0.001512021318004
   0.001497050809904
   0.001399742507261
   0.001507031148637
   0.001429683523459
   0.001339860474865
   0.001282473527152
   0.001327385051449
   0.001272493188419
   0.001177679970458
   0.001197640647924
   0.001245047256904
   0.001170194716409
   0.001250037426270
   0.001015499466052
   0.001003024042636
   0.001062906075032
   0.000998033873270
   0.000953122348973
   0.001057915905666
   0.001037955228200
   0.000913200994042
   0.000948132179606
   0.000910705909359
   0.000880764893160
   0.000868289469745
   0.000788446759883
   0.000835853368863
   0.000763495913051
   0.000795932013933
   0.000701118795972
   0.000815892691398
   0.000686148287873
   0.000626266255477
   0.000696128626606
   0.000586344900546
   0.000563889138397
   0.000691138457239
   0.000618781001427
   0.000596325239279
   0.000578859646496
   0.000521472698783
   0.000546423545615
   0.000558898969031
   0.000479056259169
   0.000484046428536
   0.000444125073605
   0.000461590666387
   0.000479056259169
   0.000451610327655
   0.000399213549308
   0.000354302025011
   0.000391728295258
   0.000316875754763
   0.000354302025011
   0.000364282363743
   0.000359292194377
   0.000349311855644
   0.000326856093496
   0.000331846262862
   0.000389233210575
   0.000281944569199
   0.000304400331347
   0.000306895416030
   0.000256993722367
   0.000252003553001
   0.000252003553001
   0.000239528129585
   0.000264478976416
   0.000242023214268
   0.000227052706169
   0.000162180504406
   0.000199606774654
   0.000224557621486
   0.000202101859337
   0.000184636266555
   0.000159685419723
   0.000172160843139
   0.000189626435921
   0.000124754234159
   0.000192121520604
   0.000162180504406
   0.000127249318842
   0.000162180504406
   0.000184636266555
   0.000137229657575
   0.000122259149476
   0.000114773895426
   0.000129744403525
   0.000112278810743
   0.000117268980109
   0.000104793556693
   0.000104793556693
   0.000112278810743
   0.000077347625178
   0.000079842709862
   0.000084832879228
   0.000089823048594
   0.000064872201763
   0.000054891863030
   0.000064872201763
   0.000054891863030
   0.000072357455812
   0.000067367286446
   0.000034931185564
   0.000057386947713
   0.000042416439614
   0.000052396778347
   0.000062377117079
   0.000052396778347
   0.000047406608980
   0.000037426270248
   0.000044911524297
   0.000049901693663
   0.000052396778347
   0.000044911524297
   0.000029941016198
   0.000037426270248
   0.000029941016198
   0.000019960677465
   0.000009980338733
   0.000017465592782
   0.000042416439614
   0.000027445931515
   0.000012475423416
   0.000029941016198
   0.000019960677465
   0.000019960677465
   0.000027445931515
   0.000019960677465
   0.000039921354931
   0.000027445931515
   0.000034931185564
   0.000017465592782
   0.000009980338733
   0.000014970508099
   0.000024950846832
   0.000017465592782
   0.000012475423416
   0.000009980338733
   0.000014970508099
   0.000012475423416
   0.000014970508099
   0.000004990169366
   0.000012475423416
   0.000004990169366
   0.000007485254050
   0.000004990169366
   0.000014970508099
   0.000009980338733
   0.000009980338733
   0.000007485254050
   0.000002495084683
   0.000002495084683
   0.000004990169366
   0.000004990169366
   0.000007485254050
   0.000002495084683
   0.000009980338733
   0.000007485254050
   0.000009980338733
   0.000002495084683
   0.000002495084683
   0.000002495084683
   0.000002495084683
   0.000000000000000
   0.000004990169366
   0.000012475423416
   0.000007485254050
   0.000002495084683
   0.000004990169366
   0.000000000000000
   0.000000000000000
   0.000002495084683
   0.000002495084683
   0.000004990169366
   0.000002495084683
   0.000002495084683
   0.000002495084683
   0.000000000000000
   0.000000000000000
   0.000000000000000
   0.000002495084683
   0.000002495084683
   0.000000000000000
   0.000004990169366
   0.000000000000000
   0.000000000000000
   0.000000000000000
   0.000002495084683
   0.000000000000000
   0.000000000000000
   0.000002495084683
   0.000000000000000
   0.000000000000000
   0.000000000000000
   0.000002495084683
   0.000002495084683
   0.000000000000000
   0.000000000000000
   0.000002495084683
   0.000000000000000
   0.000000000000000
   0.000002495084683
   0.000000000000000
   0.000000000000000
   0.000000000000000
   0.000002495084683
   0.000000000000000
   0.000000000000000
   0.000000000000000
   0.000000000000000
   0.000000000000000
   0.000000000000000
   0.000000000000000
   0.000000000000000
   0.000000000000000
   0.000000000000000
   0.000000000000000
   0.000000000000000
   0.000000000000000
   0.000000000000000
   0.000000000000000
   0.000000000000000
   0.000000000000000
   0.000000000000000
   0.000000000000000
   0.000000000000000
   0.000000000000000
   0.000000000000000
   0.000000000000000
   0.000000000000000
   0.000000000000000
   0.000000000000000
   0.000000000000000
   0.000000000000000
   0.000000000000000
   0.000000000000000
   0.000000000000000
   0.000000000000000
   0.000000000000000
   0.000000000000000
   0.000000000000000
   0.000000000000000
   0.000000000000000
   0.000000000000000
   0.000000000000000
   0.000000000000000
   0.000000000000000
   0.000000000000000
   0.000000000000000
   0.000000000000000
   0.000000000000000
   0.000000000000000
   0.000000000000000
   0.000000000000000
   0.000000000000000
   0.000000000000000
   0.000000000000000
   0.000000000000000
   0.000000000000000
   0.000000000000000
   0.000000000000000
   0.000000000000000
   0.000000000000000
   0.000000000000000
   0.000000000000000
   0.000000000000000
   0.000000000000000
   0.000000000000000
   0.000000000000000
   0.000000000000000
   0.000000000000000
   0.000000000000000
   0.000000000000000
   0.000000000000000
   0.000000000000000
   0.000000000000000
   0.000000000000000
   0.000000000000000
   0.000000000000000
   0.000000000000000
   0.000000000000000
   0.000000000000000
   0.000000000000000
   0.000000000000000
   0.000000000000000
   0.000000000000000
   0.000000000000000
   0.000000000000000
   0.000000000000000
   0.000000000000000
   0.000000000000000
   0.000000000000000
   0.000000000000000
   0.000000000000000
   0.000000000000000
   0.000000000000000
   0.000000000000000
   0.000000000000000
   0.000000000000000
   0.000000000000000
   0.000000000000000
   0.000000000000000
   0.000000000000000
   0.000000000000000
   0.000000000000000
   0.000000000000000
   0.000000000000000
   0.000000000000000
   0.000000000000000
   0.000000000000000
   0.000000000000000
   0.000000000000000
   0.000000000000000
   0.000000000000000
   0.000000000000000
   0.000000000000000
   0.000000000000000
   0.000000000000000
   0.000000000000000
   0.000000000000000
   0.000000000000000
   0.000000000000000
   0.000000000000000
   0.000000000000000
   0.000000000000000
   0.000000000000000
   0.000000000000000
   0.000000000000000
   0.000000000000000
   0.000000000000000
   0.000000000000000
   0.000000000000000
   0.000000000000000
   0.000000000000000
   0.000000000000000
   0.000000000000000
   0.000000000000000
   0.000000000000000
   0.000000000000000
   0.000000000000000
   0.000000000000000
   0.000000000000000
   0.000000000000000
   0.000000000000000
   0.000000000000000
   0.000000000000000
   0.000000000000000
   0.000000000000000
   0.000000000000000
   0.000000000000000
   0.000000000000000
   0.000000000000000
   0.000000000000000
   0.000000000000000
   0.000000000000000
   0.000000000000000
   0.000000000000000
   0.000000000000000
   0.000000000000000
   0.000000000000000
   0.000000000000000
   0.000000000000000
   0.000000000000000
   0.000000000000000
   0.000000000000000
   0.000000000000000
   0.000000000000000
   0.000000000000000
   0.000000000000000
   0.000000000000000
   0.000000000000000
   0.000000000000000
   0.000000000000000
   0.000000000000000
   0.000000000000000
   0.000000000000000
   0.000000000000000
   0.000000000000000
   0.000000000000000
   0.000000000000000
   0.000000000000000
   0.000000000000000
   0.000000000000000
   0.000000000000000
   0.000000000000000
   0.000000000000000
   0.000000000000000
   0.000000000000000
   0.000000000000000
   0.000000000000000
   0.000000000000000
   0.000000000000000
   0.000000000000000
   0.000000000000000
   0.000000000000000
   0.000000000000000
   0.000000000000000
   0.000000000000000
   0.000000000000000
   0.000000000000000
   0.000000000000000
   0.000000000000000
   0.000000000000000
   0.000000000000000
   0.000000000000000
   0.000000000000000
   0.000000000000000
   0.000000000000000
   0.000000000000000
   0.000000000000000
   0.000000000000000
   0.000000000000000
   0.000000000000000
   0.000000000000000
   0.000000000000000
   0.000000000000000
   0.000000000000000
   0.000000000000000
   0.000000000000000
   0.000000000000000
   0.000000000000000
   0.000000000000000
   0.000000000000000
   0.000000000000000
   0.000000000000000
   0.000000000000000
   0.000000000000000
   0.000000000000000
   0.000000000000000
   0.000000000000000
   0.000000000000000
   0.000000000000000
   0.000000000000000
   0.000000000000000
   0.000000000000000
   0.000000000000000
   0.000000000000000
   0.000000000000000
   0.000000000000000
   0.000000000000000
   0.000000000000000
   0.000000000000000
   0.000000000000000
   0.000000000000000
   0.000000000000000
   0.000000000000000
   0.000000000000000
   0.000000000000000
   0.000000000000000
   0.000000000000000
   0.000000000000000
   0.000000000000000
   0.000000000000000
   0.000000000000000
   0.000000000000000
   0.000000000000000
   0.000000000000000
   0.000000000000000
   0.000000000000000
   0.000000000000000
   0.000000000000000
   0.000000000000000
   0.000000000000000
   0.000000000000000
   0.000000000000000
   0.000000000000000
   0.000000000000000
   0.000000000000000
   0.000000000000000
   0.000000000000000
   0.000000000000000
   0.000000000000000
   0.000000000000000
   0.000000000000000
   0.000000000000000
   0.000000000000000
   0.000000000000000
   0.000000000000000
   0.000000000000000
   0.000000000000000
   0.000000000000000
   0.000000000000000
   0.000000000000000
   0.000000000000000
   0.000000000000000
   0.000000000000000
   0.000000000000000
   0.000000000000000
   0.000000000000000
   0.000000000000000
   0.000000000000000
   0.000000000000000
   0.000000000000000
   0.000000000000000
   0.000000000000000
   0.000000000000000
   0.000000000000000
   0.000000000000000
   0.000000000000000
   0.000000000000000
   0.000000000000000
   0.000000000000000
   0.000000000000000
   0.000000000000000
   0.000000000000000
   0.000000000000000
   0.000000000000000
   0.000000000000000
   0.000000000000000
   0.000000000000000
   0.000000000000000
   0.000000000000000
   0.000000000000000
   0.000000000000000
   0.000000000000000
   0.000000000000000
   0.000000000000000
   0.000000000000000
   0.000000000000000
   0.000000000000000
   0.000000000000000
   0.000000000000000
   0.000000000000000
   0.000000000000000
   0.000000000000000
   0.000000000000000
   0.000000000000000
   0.000000000000000
   0.000000000000000
   0.000000000000000
   0.000000000000000
   0.000000000000000
   0.000000000000000
   0.000000000000000
   0.000000000000000
   0.000000000000000
   0.000000000000000
   0.000000000000000
   0.000000000000000
   0.000000000000000
   0.000000000000000
   0.000000000000000
   0.000000000000000
   0.000000000000000
   0.000000000000000
   0.000000000000000
   0.000000000000000
   0.000000000000000
   0.000000000000000
   0.000000000000000
   0.000000000000000
   0.000000000000000
   0.000000000000000
   0.000000000000000
   0.000000000000000
   0.000000000000000
   0.000000000000000
   0.000000000000000
   0.000000000000000
   0.000000000000000
   0.000000000000000
   0.000000000000000
   0.000000000000000
   0.000000000000000
   0.000000000000000
   0.000000000000000
   0.000000000000000
   0.000000000000000
   0.000000000000000
   0.000000000000000
   0.000000000000000
   0.000000000000000
   0.000000000000000
   0.000000000000000
   0.000000000000000
   0.000000000000000
   0.000000000000000
   0.000000000000000
   0.000000000000000
   0.000000000000000
   0.000000000000000
   0.000000000000000
   0.000000000000000
   0.000000000000000
   0.000000000000000
   0.000000000000000
   0.000000000000000
   0.000000000000000
   0.000000000000000
   0.000000000000000
   0.000000000000000
   0.000000000000000
   0.000000000000000
   0.000000000000000
   0.000000000000000
   0.000000000000000
   0.000000000000000
   0.000000000000000
   0.000000000000000
   0.000000000000000
   0.000000000000000
   0.000000000000000
   0.000000000000000
   0.000000000000000
   0.000000000000000
   0.000000000000000
   0.000000000000000
   0.000000000000000
   0.000000000000000
   0.000000000000000
   0.000000000000000
   0.000000000000000
   0.000000000000000
   0.000000000000000
   0.000000000000000
   0.000000000000000
   0.000000000000000
   0.000000000000000
   0.000000000000000
   0.000000000000000
   0.000000000000000
   0.000000000000000
   0.000000000000000
   0.000000000000000
   0.000000000000000
   0.000000000000000
   0.000000000000000
   0.000000000000000
   0.000000000000000
   0.000000000000000
   0.000000000000000
   0.000000000000000
   0.000000000000000
   0.000000000000000
   0.000000000000000
   0.000000000000000
   0.000000000000000
   0.000000000000000
   0.000000000000000
   0.000000000000000
   0.000000000000000
   0.000000000000000
   0.000000000000000
   0.000000000000000
   0.000000000000000
   0.000000000000000
   0.000000000000000
   0.000000000000000
   0.000000000000000
   0.000000000000000
   0.000000000000000
   0.000000000000000
   0.000000000000000
   0.000000000000000
   0.000000000000000
   0.000000000000000
   0.000000000000000
   0.000000000000000
   0.000000000000000
   0.000000000000000
   0.000000000000000
   0.000000000000000
   0.000000000000000
   0.000000000000000
   0.000000000000000
   0.000000000000000
   0.000000000000000
   0.000000000000000
   0.000000000000000
   0.000000000000000
   0.000000000000000
   0.000000000000000
   0.000000000000000
   0.000000000000000
   0.000000000000000
   0.000000000000000
   0.000000000000000
   0.000000000000000
   0.000000000000000
   0.000000000000000
   0.000000000000000
   0.000000000000000
   0.000000000000000
   0.000000000000000
   0.000000000000000
   0.000000000000000
   0.000000000000000
   0.000000000000000
   0.000000000000000
   0.000000000000000
   0.000000000000000
   0.000000000000000
   0.000000000000000
   0.000000000000000
   0.000000000000000
   0.000000000000000
   0.000000000000000
   0.000000000000000
   0.000000000000000
   0.000000000000000
   0.000000000000000
   0.000000000000000
   0.000000000000000
   0.000000000000000
   0.000000000000000
   0.000000000000000
   0.000000000000000
   0.000000000000000
   0.000000000000000
   0.000000000000000
   0.000000000000000
   0.000000000000000
   0.000000000000000
   0.000000000000000
   0.000000000000000
   0.000000000000000
   0.000000000000000
   0.000000000000000
   0.000000000000000
   0.000000000000000
   0.000000000000000
   0.000000000000000
   0.000000000000000
   0.000000000000000
   0.000000000000000
   0.000000000000000
   0.000000000000000
   0.000000000000000
   0.000000000000000
   0.000000000000000
   0.000000000000000
   0.000000000000000
   0.000000000000000
   0.000000000000000
   0.000000000000000
   0.000000000000000
   0.000000000000000
   0.000000000000000
   0.000000000000000
   0.000000000000000
   0.000000000000000
   0.000000000000000
   0.000000000000000
   0.000000000000000
   0.000000000000000
   0.000000000000000
   0.000000000000000
   0.000000000000000
   0.000000000000000
   0.000000000000000
   0.000000000000000
   0.000000000000000
   0.000000000000000
   0.000000000000000
   0.000000000000000
   0.000000000000000
   0.000000000000000
   0.000000000000000
   0.000000000000000
   0.000000000000000
   0.000000000000000
   0.000000000000000
   0.000000000000000
   0.000000000000000
   0.000000000000000
   0.000000000000000
   0.000000000000000
   0.000000000000000
   0.000000000000000
   0.000000000000000
   0.000000000000000
   0.000000000000000
   0.000000000000000
   0.000000000000000
   0.000000000000000
   0.000000000000000
   0.000000000000000
   0.000000000000000
   0.000000000000000
   0.000000000000000
   0.000000000000000
   0.000000000000000
   0.000000000000000
   0.000000000000000
   0.000000000000000
   0.000000000000000
   0.000000000000000
   0.000000000000000
   0.000000000000000
   0.000000000000000
   0.000000000000000
   0.000000000000000
   0.000000000000000
   0.000000000000000
   0.000000000000000
   0.000000000000000
   0.000000000000000
   0.000000000000000
   0.000000000000000
   0.000000000000000
   0.000000000000000
   0.000000000000000
   0.000000000000000
   0.000000000000000
   0.000000000000000
   0.000000000000000
   0.000000000000000
   0.000000000000000
   0.000000000000000
   0.000000000000000
   0.000000000000000
   0.000000000000000
   0.000000000000000
   0.000000000000000
   0.000000000000000
   0.000000000000000
   0.000000000000000
   0.000000000000000
   0.000000000000000
   0.000000000000000
   0.000000000000000
   0.000000000000000
   0.000000000000000
   0.000000000000000
   0.000000000000000
   0.000000000000000
   0.000000000000000
   0.000000000000000
   0.000000000000000
   0.000000000000000
   0.000000000000000
   0.000000000000000
   0.000000000000000
   0.000000000000000
   0.000000000000000
   0.000000000000000
   0.000000000000000
   0.000000000000000
   0.000000000000000
   0.000000000000000
   0.000000000000000
   0.000000000000000
   0.000000000000000
   0.000000000000000
   0.000000000000000
   0.000000000000000
   0.000000000000000
   0.000000000000000
   0.000000000000000
   0.000000000000000
   0.000000000000000
   0.000000000000000
   0.000000000000000
   0.000000000000000
   0.000000000000000
   0.000000000000000
   0.000000000000000
   0.000000000000000
   0.000000000000000
   0.000000000000000
   0.000000000000000
   0.000000000000000
   0.000000000000000
   0.000000000000000
   0.000000000000000
   0.000000000000000
   0.000000000000000
   0.000000000000000
   0.000000000000000
   0.000000000000000
   0.000000000000000
   0.000000000000000
   0.000000000000000
   0.000000000000000
   0.000000000000000
   0.000000000000000
   0.000000000000000
   0.000000000000000
   0.000000000000000
   0.000000000000000
   0.000000000000000
   0.000000000000000
   0.000000000000000
   0.000000000000000
   0.000000000000000
   0.000000000000000
   0.000000000000000
   0.000000000000000
