#         XOrigin (ps),       -24.9792310000
#      Resolution (ps),         0.0208000000
#            Mean (ps),        -4.0504518000
#          Median (ps),        -4.0698000000
#             RMS (ps),         1.5503500000
#       Peak-Peak (ps),        14.2101000000
#             Min (ps),       -10.7899000000
#             Max (ps),         3.4202000000
#                 HITS,               400789
#               Values,                 2048
   0.000000000000000
   0.000000000000000
   0.000000000000000
   0.000000000000000
   0.000000000000000
   0.000000000000000
   0.000000000000000
   0.000000000000000
   0.000000000000000
   0.000000000000000
   0.000000000000000
   0.000000000000000
   0.000000000000000
   0.000000000000000
   0.000000000000000
   0.000000000000000
   0.000000000000000
   0.000000000000000
   0.000000000000000
   0.000000000000000
   0.000000000000000
   0.000000000000000
   0.000000000000000
   0.000000000000000
   0.000000000000000
   0.000000000000000
   0.000000000000000
   0.000000000000000
   0.000000000000000
   0.000000000000000
   0.000000000000000
   0.000000000000000
   0.000000000000000
   0.000000000000000
   0.000000000000000
   0.000000000000000
   0.000000000000000
   0.000000000000000
   0.000000000000000
   0.000000000000000
   0.000000000000000
   0.000000000000000
   0.000000000000000
   0.000000000000000
   0.000000000000000
   0.000000000000000
   0.000000000000000
   0.000000000000000
   0.000000000000000
   0.000000000000000
   0.000000000000000
   0.000000000000000
   0.000000000000000
   0.000000000000000
   0.000000000000000
   0.000000000000000
   0.000000000000000
   0.000000000000000
   0.000000000000000
   0.000000000000000
   0.000000000000000
   0.000000000000000
   0.000000000000000
   0.000000000000000
   0.000000000000000
   0.000000000000000
   0.000000000000000
   0.000000000000000
   0.000000000000000
   0.000000000000000
   0.000000000000000
   0.000000000000000
   0.000000000000000
   0.000000000000000
   0.000000000000000
   0.000000000000000
   0.000000000000000
   0.000000000000000
   0.000000000000000
   0.000000000000000
   0.000000000000000
   0.000000000000000
   0.000000000000000
   0.000000000000000
   0.000000000000000
   0.000000000000000
   0.000000000000000
   0.000000000000000
   0.000000000000000
   0.000000000000000
   0.000000000000000
   0.000000000000000
   0.000000000000000
   0.000000000000000
   0.000000000000000
   0.000000000000000
   0.000000000000000
   0.000000000000000
   0.000000000000000
   0.000000000000000
   0.000000000000000
   0.000000000000000
   0.000000000000000
   0.000000000000000
   0.000000000000000
   0.000000000000000
   0.000000000000000
   0.000000000000000
   0.000000000000000
   0.000000000000000
   0.000000000000000
   0.000000000000000
   0.000000000000000
   0.000000000000000
   0.000000000000000
   0.000000000000000
   0.000000000000000
   0.000000000000000
   0.000000000000000
   0.000000000000000
   0.000000000000000
   0.000000000000000
   0.000000000000000
   0.000000000000000
   0.000000000000000
   0.000000000000000
   0.000000000000000
   0.000000000000000
   0.000000000000000
   0.000000000000000
   0.000000000000000
   0.000000000000000
   0.000000000000000
   0.000000000000000
   0.000000000000000
   0.000000000000000
   0.000000000000000
   0.000000000000000
   0.000000000000000
   0.000000000000000
   0.000000000000000
   0.000000000000000
   0.000000000000000
   0.000000000000000
   0.000000000000000
   0.000000000000000
   0.000000000000000
   0.000000000000000
   0.000000000000000
   0.000000000000000
   0.000000000000000
   0.000000000000000
   0.000000000000000
   0.000000000000000
   0.000000000000000
   0.000000000000000
   0.000000000000000
   0.000000000000000
   0.000000000000000
   0.000000000000000
   0.000000000000000
   0.000000000000000
   0.000000000000000
   0.000000000000000
   0.000000000000000
   0.000000000000000
   0.000000000000000
   0.000000000000000
   0.000000000000000
   0.000000000000000
   0.000000000000000
   0.000000000000000
   0.000000000000000
   0.000000000000000
   0.000000000000000
   0.000000000000000
   0.000000000000000
   0.000000000000000
   0.000000000000000
   0.000000000000000
   0.000000000000000
   0.000000000000000
   0.000000000000000
   0.000000000000000
   0.000000000000000
   0.000000000000000
   0.000000000000000
   0.000000000000000
   0.000000000000000
   0.000000000000000
   0.000000000000000
   0.000000000000000
   0.000000000000000
   0.000000000000000
   0.000000000000000
   0.000000000000000
   0.000000000000000
   0.000000000000000
   0.000000000000000
   0.000000000000000
   0.000000000000000
   0.000000000000000
   0.000000000000000
   0.000000000000000
   0.000000000000000
   0.000000000000000
   0.000000000000000
   0.000000000000000
   0.000000000000000
   0.000000000000000
   0.000000000000000
   0.000000000000000
   0.000000000000000
   0.000000000000000
   0.000000000000000
   0.000000000000000
   0.000000000000000
   0.000000000000000
   0.000000000000000
   0.000000000000000
   0.000000000000000
   0.000000000000000
   0.000000000000000
   0.000000000000000
   0.000000000000000
   0.000000000000000
   0.000000000000000
   0.000000000000000
   0.000000000000000
   0.000000000000000
   0.000000000000000
   0.000000000000000
   0.000000000000000
   0.000000000000000
   0.000000000000000
   0.000000000000000
   0.000000000000000
   0.000000000000000
   0.000000000000000
   0.000000000000000
   0.000000000000000
   0.000000000000000
   0.000000000000000
   0.000000000000000
   0.000000000000000
   0.000000000000000
   0.000000000000000
   0.000000000000000
   0.000000000000000
   0.000000000000000
   0.000000000000000
   0.000000000000000
   0.000000000000000
   0.000000000000000
   0.000000000000000
   0.000000000000000
   0.000000000000000
   0.000000000000000
   0.000000000000000
   0.000000000000000
   0.000000000000000
   0.000000000000000
   0.000000000000000
   0.000000000000000
   0.000000000000000
   0.000000000000000
   0.000000000000000
   0.000000000000000
   0.000000000000000
   0.000000000000000
   0.000000000000000
   0.000000000000000
   0.000000000000000
   0.000000000000000
   0.000000000000000
   0.000000000000000
   0.000000000000000
   0.000000000000000
   0.000000000000000
   0.000000000000000
   0.000000000000000
   0.000000000000000
   0.000000000000000
   0.000000000000000
   0.000000000000000
   0.000000000000000
   0.000000000000000
   0.000000000000000
   0.000000000000000
   0.000000000000000
   0.000000000000000
   0.000000000000000
   0.000000000000000
   0.000000000000000
   0.000000000000000
   0.000000000000000
   0.000000000000000
   0.000000000000000
   0.000000000000000
   0.000000000000000
   0.000000000000000
   0.000000000000000
   0.000000000000000
   0.000000000000000
   0.000000000000000
   0.000000000000000
   0.000000000000000
   0.000000000000000
   0.000000000000000
   0.000000000000000
   0.000000000000000
   0.000000000000000
   0.000000000000000
   0.000000000000000
   0.000000000000000
   0.000000000000000
   0.000000000000000
   0.000000000000000
   0.000000000000000
   0.000000000000000
   0.000000000000000
   0.000000000000000
   0.000000000000000
   0.000000000000000
   0.000000000000000
   0.000000000000000
   0.000000000000000
   0.000000000000000
   0.000000000000000
   0.000000000000000
   0.000000000000000
   0.000000000000000
   0.000000000000000
   0.000000000000000
   0.000000000000000
   0.000000000000000
   0.000000000000000
   0.000000000000000
   0.000000000000000
   0.000000000000000
   0.000000000000000
   0.000000000000000
   0.000000000000000
   0.000000000000000
   0.000000000000000
   0.000000000000000
   0.000000000000000
   0.000000000000000
   0.000000000000000
   0.000000000000000
   0.000000000000000
   0.000000000000000
   0.000000000000000
   0.000000000000000
   0.000000000000000
   0.000000000000000
   0.000000000000000
   0.000000000000000
   0.000000000000000
   0.000000000000000
   0.000000000000000
   0.000000000000000
   0.000000000000000
   0.000000000000000
   0.000000000000000
   0.000000000000000
   0.000000000000000
   0.000000000000000
   0.000000000000000
   0.000000000000000
   0.000000000000000
   0.000000000000000
   0.000000000000000
   0.000000000000000
   0.000000000000000
   0.000000000000000
   0.000000000000000
   0.000000000000000
   0.000000000000000
   0.000000000000000
   0.000000000000000
   0.000000000000000
   0.000000000000000
   0.000000000000000
   0.000000000000000
   0.000000000000000
   0.000000000000000
   0.000000000000000
   0.000000000000000
   0.000000000000000
   0.000000000000000
   0.000000000000000
   0.000000000000000
   0.000000000000000
   0.000000000000000
   0.000000000000000
   0.000000000000000
   0.000000000000000
   0.000000000000000
   0.000000000000000
   0.000000000000000
   0.000000000000000
   0.000000000000000
   0.000000000000000
   0.000000000000000
   0.000000000000000
   0.000000000000000
   0.000000000000000
   0.000000000000000
   0.000000000000000
   0.000000000000000
   0.000000000000000
   0.000000000000000
   0.000000000000000
   0.000000000000000
   0.000000000000000
   0.000000000000000
   0.000000000000000
   0.000000000000000
   0.000000000000000
   0.000000000000000
   0.000000000000000
   0.000000000000000
   0.000000000000000
   0.000000000000000
   0.000000000000000
   0.000000000000000
   0.000000000000000
   0.000000000000000
   0.000000000000000
   0.000000000000000
   0.000000000000000
   0.000000000000000
   0.000000000000000
   0.000000000000000
   0.000000000000000
   0.000000000000000
   0.000000000000000
   0.000000000000000
   0.000000000000000
   0.000000000000000
   0.000000000000000
   0.000000000000000
   0.000000000000000
   0.000000000000000
   0.000000000000000
   0.000000000000000
   0.000000000000000
   0.000000000000000
   0.000000000000000
   0.000000000000000
   0.000000000000000
   0.000000000000000
   0.000000000000000
   0.000000000000000
   0.000000000000000
   0.000000000000000
   0.000000000000000
   0.000000000000000
   0.000000000000000
   0.000000000000000
   0.000000000000000
   0.000000000000000
   0.000000000000000
   0.000000000000000
   0.000000000000000
   0.000000000000000
   0.000000000000000
   0.000000000000000
   0.000000000000000
   0.000000000000000
   0.000000000000000
   0.000000000000000
   0.000000000000000
   0.000000000000000
   0.000000000000000
   0.000000000000000
   0.000000000000000
   0.000000000000000
   0.000000000000000
   0.000000000000000
   0.000000000000000
   0.000000000000000
   0.000000000000000
   0.000000000000000
   0.000000000000000
   0.000000000000000
   0.000000000000000
   0.000000000000000
   0.000000000000000
   0.000000000000000
   0.000000000000000
   0.000000000000000
   0.000000000000000
   0.000000000000000
   0.000000000000000
   0.000000000000000
   0.000000000000000
   0.000000000000000
   0.000000000000000
   0.000000000000000
   0.000000000000000
   0.000000000000000
   0.000000000000000
   0.000000000000000
   0.000000000000000
   0.000000000000000
   0.000000000000000
   0.000000000000000
   0.000000000000000
   0.000000000000000
   0.000000000000000
   0.000000000000000
   0.000000000000000
   0.000000000000000
   0.000000000000000
   0.000000000000000
   0.000000000000000
   0.000000000000000
   0.000000000000000
   0.000000000000000
   0.000000000000000
   0.000000000000000
   0.000000000000000
   0.000000000000000
   0.000000000000000
   0.000000000000000
   0.000000000000000
   0.000000000000000
   0.000000000000000
   0.000000000000000
   0.000000000000000
   0.000000000000000
   0.000000000000000
   0.000000000000000
   0.000000000000000
   0.000000000000000
   0.000000000000000
   0.000000000000000
   0.000000000000000
   0.000000000000000
   0.000000000000000
   0.000000000000000
   0.000000000000000
   0.000000000000000
   0.000000000000000
   0.000000000000000
   0.000000000000000
   0.000000000000000
   0.000000000000000
   0.000000000000000
   0.000000000000000
   0.000000000000000
   0.000000000000000
   0.000000000000000
   0.000000000000000
   0.000000000000000
   0.000000000000000
   0.000000000000000
   0.000000000000000
   0.000000000000000
   0.000000000000000
   0.000000000000000
   0.000000000000000
   0.000000000000000
   0.000000000000000
   0.000000000000000
   0.000000000000000
   0.000000000000000
   0.000000000000000
   0.000000000000000
   0.000000000000000
   0.000000000000000
   0.000000000000000
   0.000000000000000
   0.000000000000000
   0.000000000000000
   0.000000000000000
   0.000000000000000
   0.000000000000000
   0.000000000000000
   0.000000000000000
   0.000000000000000
   0.000000000000000
   0.000000000000000
   0.000000000000000
   0.000000000000000
   0.000000000000000
   0.000000000000000
   0.000000000000000
   0.000000000000000
   0.000000000000000
   0.000000000000000
   0.000000000000000
   0.000000000000000
   0.000000000000000
   0.000000000000000
   0.000000000000000
   0.000000000000000
   0.000000000000000
   0.000000000000000
   0.000000000000000
   0.000000000000000
   0.000000000000000
   0.000000000000000
   0.000000000000000
   0.000000000000000
   0.000000000000000
   0.000000000000000
   0.000000000000000
   0.000000000000000
   0.000000000000000
   0.000000000000000
   0.000000000000000
   0.000000000000000
   0.000000000000000
   0.000000000000000
   0.000000000000000
   0.000000000000000
   0.000000000000000
   0.000000000000000
   0.000000000000000
   0.000000000000000
   0.000000000000000
   0.000000000000000
   0.000000000000000
   0.000000000000000
   0.000000000000000
   0.000000000000000
   0.000000000000000
   0.000000000000000
   0.000000000000000
   0.000000000000000
   0.000000000000000
   0.000000000000000
   0.000000000000000
   0.000000000000000
   0.000000000000000
   0.000000000000000
   0.000000000000000
   0.000000000000000
   0.000000000000000
   0.000000000000000
   0.000000000000000
   0.000000000000000
   0.000000000000000
   0.000000000000000
   0.000000000000000
   0.000000000000000
   0.000000000000000
   0.000000000000000
   0.000000000000000
   0.000000000000000
   0.000000000000000
   0.000000000000000
   0.000000000000000
   0.000000000000000
   0.000000000000000
   0.000000000000000
   0.000000000000000
   0.000000000000000
   0.000000000000000
   0.000000000000000
   0.000000000000000
   0.000000000000000
   0.000000000000000
   0.000000000000000
   0.000000000000000
   0.000000000000000
   0.000000000000000
   0.000000000000000
   0.000000000000000
   0.000000000000000
   0.000000000000000
   0.000000000000000
   0.000000000000000
   0.000000000000000
   0.000000000000000
   0.000000000000000
   0.000000000000000
   0.000000000000000
   0.000000000000000
   0.000002495078458
   0.000000000000000
   0.000000000000000
   0.000000000000000
   0.000000000000000
   0.000000000000000
   0.000000000000000
   0.000000000000000
   0.000002495078458
   0.000000000000000
   0.000000000000000
   0.000000000000000
   0.000000000000000
   0.000000000000000
   0.000000000000000
   0.000000000000000
   0.000000000000000
   0.000000000000000
   0.000000000000000
   0.000000000000000
   0.000000000000000
   0.000000000000000
   0.000000000000000
   0.000000000000000
   0.000000000000000
   0.000000000000000
   0.000000000000000
   0.000002495078458
   0.000000000000000
   0.000000000000000
   0.000000000000000
   0.000000000000000
   0.000000000000000
   0.000002495078458
   0.000000000000000
   0.000002495078458
   0.000000000000000
   0.000000000000000
   0.000000000000000
   0.000000000000000
   0.000000000000000
   0.000000000000000
   0.000002495078458
   0.000000000000000
   0.000002495078458
   0.000000000000000
   0.000000000000000
   0.000004990156915
   0.000002495078458
   0.000002495078458
   0.000000000000000
   0.000002495078458
   0.000004990156915
   0.000002495078458
   0.000000000000000
   0.000004990156915
   0.000007485235373
   0.000000000000000
   0.000000000000000
   0.000007485235373
   0.000002495078458
   0.000002495078458
   0.000009980313831
   0.000004990156915
   0.000002495078458
   0.000004990156915
   0.000014970470746
   0.000007485235373
   0.000014970470746
   0.000002495078458
   0.000012475392289
   0.000002495078458
   0.000012475392289
   0.000009980313831
   0.000009980313831
   0.000012475392289
   0.000014970470746
   0.000014970470746
   0.000012475392289
   0.000009980313831
   0.000012475392289
   0.000017465549204
   0.000004990156915
   0.000012475392289
   0.000019960627662
   0.000009980313831
   0.000024950784577
   0.000017465549204
   0.000012475392289
   0.000024950784577
   0.000027445863035
   0.000019960627662
   0.000024950784577
   0.000024950784577
   0.000032436019951
   0.000042416333782
   0.000037426176866
   0.000024950784577
   0.000027445863035
   0.000022455706120
   0.000034931098408
   0.000037426176866
   0.000034931098408
   0.000039921255324
   0.000039921255324
   0.000049901569155
   0.000069862196817
   0.000067367118359
   0.000077347432190
   0.000062376961444
   0.000044911412239
   0.000054891726070
   0.000084832667563
   0.000054891726070
   0.000074852353732
   0.000092317902936
   0.000089822824479
   0.000069862196817
   0.000087327746021
   0.000102298216767
   0.000087327746021
   0.000082337589105
   0.000094812981394
   0.000112278530598
   0.000134734236718
   0.000124753922887
   0.000134734236718
   0.000112278530598
   0.000129744079803
   0.000134734236718
   0.000154694864380
   0.000119763765972
   0.000159685021295
   0.000169665335126
   0.000209586590450
   0.000192121041246
   0.000199606276619
   0.000209586590450
   0.000219566904281
   0.000232042296570
   0.000227052139655
   0.000244517688859
   0.000259488159605
   0.000239527531943
   0.000227052139655
   0.000271963551894
   0.000259488159605
   0.000296914336471
   0.000321865121049
   0.000271963551894
   0.000296914336471
   0.000336835591795
   0.000321865121049
   0.000346815905626
   0.000311884807218
   0.000369271611746
   0.000424163337816
   0.000336835591795
   0.000456599357767
   0.000399212553239
   0.000401707631696
   0.000469074750056
   0.000409192867070
   0.000518976319210
   0.000543927103788
   0.000481550142344
   0.000499015691548
   0.000501510770006
   0.000459094436225
   0.000598818829858
   0.000601313908316
   0.000616284379062
   0.000648720399013
   0.000641235163640
   0.000668681026675
   0.000701117046626
   0.000681156418964
   0.000756008772696
   0.000703612125083
   0.000803415263393
   0.000775969400358
   0.000805910341851
   0.000880762695583
   0.000935654421653
   0.000865792224837
   0.000833356204886
   0.000973080598519
   0.001005516618470
   0.000948129813942
   0.000990546147724
   0.001100329599864
   0.001102824678322
   0.001177677032054
   0.001150231169019
   0.001130270541357
   0.001222588444294
   0.001329876817977
   0.001279975248822
   0.001200132738174
   0.001222588444294
   0.001277480170364
   0.001354827602554
   0.001392253779420
   0.001434670113202
   0.001529483094596
   0.001514512623849
   0.001412214407082
   0.001561919114547
   0.001636771468279
   0.001729089371215
   0.001704138586638
   0.001786476175743
   0.001754040155793
   0.001876299000222
   0.001908735020173
   0.002028498786144
   0.001951151353954
   0.001871308843307
   0.001943666118581
   0.002050954492264
   0.002026003707687
   0.002145767473658
   0.002130797002912
   0.002387790084059
   0.002175708415151
   0.002195669042813
   0.002270521396545
   0.002395275319432
   0.002290482024207
   0.002417731025552
   0.002430206417841
   0.002632307772918
   0.002572425889932
   0.002510048928489
   0.002664743792869
   0.002609852066798
   0.002791992794213
   0.002749576460432
   0.002899281167896
   0.002846884520284
   0.002762051852721
   0.002991599070833
   0.002926727030931
   0.003029025247699
   0.003148789013671
   0.003178729955163
   0.003410772251733
   0.003196195504368
   0.003203680739741
   0.003338414976459
   0.003365860839494
   0.003268552779642
   0.003365860839494
   0.003615368685268
   0.003575447429944
   0.003540516331536
   0.003523050782332
   0.003662775175965
   0.003722657058951
   0.003605388371437
   0.004047017258458
   0.003702696431289
   0.003909787943282
   0.004024561552338
   0.003979650140099
   0.004084443435324
   0.004032046787711
   0.004136840082936
   0.004161790867514
   0.004264089084281
   0.004214187515126
   0.004286544790401
   0.004269079241197
   0.004353911908760
   0.004523577243886
   0.004501121537767
   0.004468685517816
   0.004573478813041
   0.004513596930055
   0.004683262265182
   0.004556013263837
   0.004301515261147
   0.004725678598964
   0.004765599854287
   0.004892848855632
   0.004865402992597
   0.004770590011203
   0.004832966972646
   0.004985166758569
   0.004700727814386
   0.005025088013893
   0.004810511266527
   0.004992651993942
   0.005002632307773
   0.004990156915484
   0.005005127386231
   0.005109920681456
   0.005359428527230
   0.005060019112301
   0.005169802564442
   0.005309526958075
   0.005129881309118
   0.005252140153547
   0.005167307485984
   0.005401844861012
   0.005194753349019
   0.005282081095040
   0.005289566330413
   0.005317012193448
   0.005212218898223
   0.005319507271906
   0.005229684447427
   0.005314517114991
   0.005391864547181
   0.005603946216089
   0.005559034803849
   0.005519113548526
   0.005436775959420
   0.005364418684146
   0.005284576173498
   0.005454241508624
   0.005733690295891
   0.005326992507279
   0.005608936373004
   0.005608936373004
   0.005257130310463
   0.005504143077779
   0.005369408841061
   0.005541569254645
   0.005531588940814
   0.005424300567131
   0.005516618470068
   0.005471707057828
   0.005441766116336
   0.005366913762603
   0.005297051565786
   0.005406835017927
   0.005351943291857
   0.005259625388920
   0.005346953134941
   0.005010117543146
   0.005426795645589
   0.005242159839716
   0.005317012193448
   0.005177287799815
   0.005199743505935
   0.005137366544491
   0.004940255346329
   0.005219704133596
   0.005057524033843
   0.005065009269216
   0.004972691366280
   0.004865402992597
   0.004765599854287
   0.004803026031154
   0.004730668755879
   0.004583459126872
   0.004688252422097
   0.004768094932745
   0.004693242579013
   0.004688252422097
   0.004693242579013
   0.004548528028464
   0.004561003420753
   0.004603419754534
   0.004473675674732
   0.004710708128217
   0.004493636302394
   0.004548528028464
   0.004453715047070
   0.004413793791746
   0.004274069398112
   0.004304010339605
   0.004256603848908
   0.004079453278408
   0.004151810553683
   0.004071968043035
   0.004184246573634
   0.004027056630796
   0.004109394219901
   0.003662775175965
   0.003854896217212
   0.003902302707909
   0.003849906060296
   0.003829945432634
   0.003675250568254
   0.003690221039001
   0.003607883449895
   0.003510575390043
   0.003500595076212
   0.003483129527008
   0.003575447429944
   0.003450693507057
   0.003308474034966
   0.003261067544269
   0.003395801780987
   0.003236116759692
   0.003263562622727
   0.003141303778297
   0.003131323464466
   0.003066451424565
   0.002961658129340
   0.002859359912572
   0.002881815618692
   0.002921736874016
   0.002782012480382
   0.002794487872671
   0.002602366831425
   0.002677219185157
   0.002629812694460
   0.002649773322122
   0.002564940654559
   0.002634802851376
   0.002537494791524
   0.002470127673165
   0.002477612908538
   0.002325413122616
   0.002215629670475
   0.002278006631919
   0.002028498786144
   0.002123311767539
   0.002065924963010
   0.002080895433757
   0.002123311767539
   0.001991072609278
   0.001911230098630
   0.001938675961666
   0.001851348215645
   0.001841367901814
   0.001771505704997
   0.001878794078680
   0.001783981097286
   0.001801446646490
   0.001803941724948
   0.001621800997532
   0.001591860056039
   0.001641761625194
   0.001594355134497
   0.001534473251511
   0.001499542153103
   0.001409719328624
   0.001384768544047
   0.001504532310018
   0.001414709485540
   0.001357322681012
   0.001282470327279
   0.001304926033399
   0.001217598287378
   0.001294945719568
   0.001145241012104
   0.001267499856533
   0.001185162267427
   0.001137755776730
   0.001072883736829
   0.001070388658371
   0.001112804992153
   0.001020487089217
   0.001037952638421
   0.001022982167674
   0.000960605206231
   0.001077873893745
   0.000948129813942
   0.000945634735484
   0.000860802067921
   0.000903218401703
   0.000813395577224
   0.000795930028020
   0.000835851283344
   0.000863297146379
   0.000768484164985
   0.000726067831203
   0.000753513694238
   0.000701117046626
   0.000768484164985
   0.000658700712844
   0.000621274535978
   0.000646225320555
   0.000628759771351
   0.000593828672943
   0.000673671183590
   0.000598818829858
   0.000608799143689
   0.000543927103788
   0.000508996005379
   0.000578858202196
   0.000578858202196
   0.000501510770006
   0.000436638730105
   0.000518976319210
   0.000416678102443
   0.000441628887020
   0.000449114122394
   0.000389232239408
   0.000464084593140
   0.000404202710154
   0.000376756847119
   0.000416678102443
   0.000436638730105
   0.000396717474781
   0.000329350356422
   0.000304399571845
   0.000324360199506
   0.000314379885676
   0.000391727317866
   0.000309389728760
   0.000299409414929
   0.000314379885676
   0.000374261768661
   0.000339330670253
   0.000299409414929
   0.000299409414929
   0.000256993081147
   0.000261983238063
   0.000269468473436
   0.000261983238063
   0.000242022610401
   0.000209586590450
   0.000219566904281
   0.000252002924232
   0.000259488159605
   0.000189625962788
   0.000192121041246
   0.000249507845774
   0.000232042296570
   0.000219566904281
   0.000227052139655
   0.000179645648957
   0.000192121041246
   0.000189625962788
   0.000164675178211
   0.000184635805873
   0.000169665335126
   0.000144714550549
   0.000177150570500
   0.000157189942838
   0.000147209629007
   0.000119763765972
   0.000157189942838
   0.000162180099753
   0.000119763765972
   0.000117268687514
   0.000119763765972
   0.000112278530598
   0.000104793295225
   0.000089822824479
   0.000122258844429
   0.000087327746021
   0.000102298216767
   0.000102298216767
   0.000109783452141
   0.000074852353732
   0.000097308059852
   0.000082337589105
   0.000094812981394
   0.000082337589105
   0.000094812981394
   0.000079842510648
   0.000064872039901
   0.000062376961444
   0.000069862196817
   0.000072357275275
   0.000069862196817
   0.000064872039901
   0.000067367118359
   0.000079842510648
   0.000049901569155
   0.000054891726070
   0.000049901569155
   0.000044911412239
   0.000059881882986
   0.000049901569155
   0.000057386804528
   0.000062376961444
   0.000064872039901
   0.000047406490697
   0.000072357275275
   0.000037426176866
   0.000032436019951
   0.000032436019951
   0.000032436019951
   0.000032436019951
   0.000042416333782
   0.000042416333782
   0.000014970470746
   0.000019960627662
   0.000049901569155
   0.000024950784577
   0.000027445863035
   0.000044911412239
   0.000009980313831
   0.000034931098408
   0.000032436019951
   0.000012475392289
   0.000017465549204
   0.000019960627662
   0.000029940941493
   0.000017465549204
   0.000017465549204
   0.000007485235373
   0.000022455706120
   0.000014970470746
   0.000022455706120
   0.000014970470746
   0.000024950784577
   0.000012475392289
   0.000007485235373
   0.000017465549204
   0.000007485235373
   0.000017465549204
   0.000017465549204
   0.000004990156915
   0.000019960627662
   0.000007485235373
   0.000007485235373
   0.000007485235373
   0.000012475392289
   0.000007485235373
   0.000004990156915
   0.000002495078458
   0.000002495078458
   0.000004990156915
   0.000012475392289
   0.000002495078458
   0.000004990156915
   0.000007485235373
   0.000000000000000
   0.000004990156915
   0.000009980313831
   0.000000000000000
   0.000002495078458
   0.000002495078458
   0.000002495078458
   0.000000000000000
   0.000000000000000
   0.000000000000000
   0.000002495078458
   0.000000000000000
   0.000002495078458
   0.000000000000000
   0.000000000000000
   0.000000000000000
   0.000002495078458
   0.000002495078458
   0.000007485235373
   0.000002495078458
   0.000000000000000
   0.000002495078458
   0.000000000000000
   0.000000000000000
   0.000000000000000
   0.000000000000000
   0.000000000000000
   0.000000000000000
   0.000000000000000
   0.000002495078458
   0.000002495078458
   0.000000000000000
   0.000000000000000
   0.000000000000000
   0.000000000000000
   0.000000000000000
   0.000000000000000
   0.000000000000000
   0.000000000000000
   0.000000000000000
   0.000000000000000
   0.000000000000000
   0.000000000000000
   0.000000000000000
   0.000000000000000
   0.000000000000000
   0.000000000000000
   0.000000000000000
   0.000000000000000
   0.000004990156915
   0.000000000000000
   0.000000000000000
   0.000000000000000
   0.000000000000000
   0.000000000000000
   0.000000000000000
   0.000000000000000
   0.000000000000000
   0.000002495078458
   0.000000000000000
   0.000000000000000
   0.000000000000000
   0.000000000000000
   0.000000000000000
   0.000000000000000
   0.000000000000000
   0.000000000000000
   0.000000000000000
   0.000000000000000
   0.000000000000000
   0.000000000000000
   0.000000000000000
   0.000000000000000
   0.000000000000000
   0.000000000000000
   0.000000000000000
   0.000000000000000
   0.000000000000000
   0.000000000000000
   0.000000000000000
   0.000000000000000
   0.000000000000000
   0.000000000000000
   0.000000000000000
   0.000000000000000
   0.000000000000000
   0.000000000000000
   0.000000000000000
   0.000000000000000
   0.000000000000000
   0.000000000000000
   0.000000000000000
   0.000000000000000
   0.000000000000000
   0.000000000000000
   0.000000000000000
   0.000000000000000
   0.000000000000000
   0.000000000000000
   0.000000000000000
   0.000000000000000
   0.000000000000000
   0.000000000000000
   0.000000000000000
   0.000000000000000
   0.000000000000000
   0.000000000000000
   0.000000000000000
   0.000000000000000
   0.000000000000000
   0.000000000000000
   0.000000000000000
   0.000000000000000
   0.000000000000000
   0.000000000000000
   0.000000000000000
   0.000000000000000
   0.000000000000000
   0.000000000000000
   0.000000000000000
   0.000000000000000
   0.000000000000000
   0.000000000000000
   0.000000000000000
   0.000000000000000
   0.000000000000000
   0.000000000000000
   0.000000000000000
   0.000000000000000
   0.000000000000000
   0.000000000000000
   0.000000000000000
   0.000000000000000
   0.000000000000000
   0.000000000000000
   0.000000000000000
   0.000000000000000
   0.000000000000000
   0.000000000000000
   0.000000000000000
   0.000000000000000
   0.000000000000000
   0.000000000000000
   0.000000000000000
   0.000000000000000
   0.000000000000000
   0.000000000000000
   0.000000000000000
   0.000000000000000
   0.000000000000000
   0.000000000000000
   0.000000000000000
   0.000000000000000
   0.000000000000000
   0.000000000000000
   0.000000000000000
   0.000000000000000
   0.000000000000000
   0.000000000000000
   0.000000000000000
   0.000000000000000
   0.000000000000000
   0.000000000000000
   0.000000000000000
   0.000000000000000
   0.000000000000000
   0.000000000000000
   0.000000000000000
   0.000000000000000
   0.000000000000000
   0.000000000000000
   0.000000000000000
   0.000000000000000
   0.000000000000000
   0.000000000000000
   0.000000000000000
   0.000000000000000
   0.000000000000000
   0.000000000000000
   0.000000000000000
   0.000000000000000
   0.000000000000000
   0.000000000000000
   0.000000000000000
   0.000000000000000
   0.000000000000000
   0.000000000000000
   0.000000000000000
   0.000000000000000
   0.000000000000000
   0.000000000000000
   0.000000000000000
   0.000000000000000
   0.000000000000000
   0.000000000000000
   0.000000000000000
   0.000000000000000
   0.000000000000000
   0.000000000000000
   0.000000000000000
   0.000000000000000
   0.000000000000000
   0.000000000000000
   0.000000000000000
   0.000000000000000
   0.000000000000000
   0.000000000000000
   0.000000000000000
   0.000000000000000
   0.000000000000000
   0.000000000000000
   0.000000000000000
   0.000000000000000
   0.000000000000000
   0.000000000000000
   0.000000000000000
   0.000000000000000
   0.000000000000000
   0.000000000000000
   0.000000000000000
   0.000000000000000
   0.000000000000000
   0.000000000000000
   0.000000000000000
   0.000000000000000
   0.000000000000000
   0.000000000000000
   0.000000000000000
   0.000000000000000
   0.000000000000000
   0.000000000000000
   0.000000000000000
   0.000000000000000
   0.000000000000000
   0.000000000000000
   0.000000000000000
   0.000000000000000
   0.000000000000000
   0.000000000000000
   0.000000000000000
   0.000000000000000
   0.000000000000000
   0.000000000000000
   0.000000000000000
   0.000000000000000
   0.000000000000000
   0.000000000000000
   0.000000000000000
   0.000000000000000
   0.000000000000000
   0.000000000000000
   0.000000000000000
   0.000000000000000
   0.000000000000000
   0.000000000000000
   0.000000000000000
   0.000000000000000
   0.000000000000000
   0.000000000000000
   0.000000000000000
   0.000000000000000
   0.000000000000000
   0.000000000000000
   0.000000000000000
   0.000000000000000
   0.000000000000000
   0.000000000000000
   0.000000000000000
   0.000000000000000
   0.000000000000000
   0.000000000000000
   0.000000000000000
   0.000000000000000
   0.000000000000000
   0.000000000000000
   0.000000000000000
   0.000000000000000
   0.000000000000000
   0.000000000000000
   0.000000000000000
   0.000000000000000
   0.000000000000000
   0.000000000000000
   0.000000000000000
   0.000000000000000
   0.000000000000000
   0.000000000000000
   0.000000000000000
   0.000000000000000
   0.000000000000000
   0.000000000000000
   0.000000000000000
   0.000000000000000
   0.000000000000000
   0.000000000000000
   0.000000000000000
   0.000000000000000
   0.000000000000000
   0.000000000000000
   0.000000000000000
   0.000000000000000
   0.000000000000000
   0.000000000000000
   0.000000000000000
   0.000000000000000
   0.000000000000000
   0.000000000000000
   0.000000000000000
   0.000000000000000
   0.000000000000000
   0.000000000000000
   0.000000000000000
   0.000000000000000
   0.000000000000000
   0.000000000000000
   0.000000000000000
   0.000000000000000
   0.000000000000000
   0.000000000000000
   0.000000000000000
   0.000000000000000
   0.000000000000000
   0.000000000000000
   0.000000000000000
   0.000000000000000
   0.000000000000000
   0.000000000000000
   0.000000000000000
   0.000000000000000
   0.000000000000000
   0.000000000000000
   0.000000000000000
   0.000000000000000
   0.000000000000000
   0.000000000000000
   0.000000000000000
   0.000000000000000
   0.000000000000000
   0.000000000000000
   0.000000000000000
   0.000000000000000
   0.000000000000000
   0.000000000000000
   0.000000000000000
   0.000000000000000
   0.000000000000000
   0.000000000000000
   0.000000000000000
   0.000000000000000
   0.000000000000000
   0.000000000000000
   0.000000000000000
   0.000000000000000
   0.000000000000000
   0.000000000000000
   0.000000000000000
   0.000000000000000
   0.000000000000000
   0.000000000000000
   0.000000000000000
   0.000000000000000
   0.000000000000000
   0.000000000000000
   0.000000000000000
   0.000000000000000
   0.000000000000000
   0.000000000000000
   0.000000000000000
   0.000000000000000
   0.000000000000000
   0.000000000000000
   0.000000000000000
   0.000000000000000
   0.000000000000000
   0.000000000000000
   0.000000000000000
   0.000000000000000
   0.000000000000000
   0.000000000000000
   0.000000000000000
   0.000000000000000
   0.000000000000000
   0.000000000000000
   0.000000000000000
   0.000000000000000
   0.000000000000000
   0.000000000000000
   0.000000000000000
   0.000000000000000
   0.000000000000000
   0.000000000000000
   0.000000000000000
   0.000000000000000
   0.000000000000000
   0.000000000000000
   0.000000000000000
   0.000000000000000
   0.000000000000000
   0.000000000000000
   0.000000000000000
   0.000000000000000
   0.000000000000000
   0.000000000000000
   0.000000000000000
   0.000000000000000
   0.000000000000000
   0.000000000000000
   0.000000000000000
   0.000000000000000
   0.000000000000000
   0.000000000000000
   0.000000000000000
   0.000000000000000
   0.000000000000000
   0.000000000000000
   0.000000000000000
   0.000000000000000
   0.000000000000000
   0.000000000000000
   0.000000000000000
   0.000000000000000
   0.000000000000000
   0.000000000000000
   0.000000000000000
   0.000000000000000
   0.000000000000000
   0.000000000000000
   0.000000000000000
   0.000000000000000
   0.000000000000000
   0.000000000000000
   0.000000000000000
   0.000000000000000
   0.000000000000000
   0.000000000000000
   0.000000000000000
   0.000000000000000
   0.000000000000000
   0.000000000000000
   0.000000000000000
   0.000000000000000
   0.000000000000000
   0.000000000000000
   0.000000000000000
   0.000000000000000
   0.000000000000000
   0.000000000000000
   0.000000000000000
   0.000000000000000
   0.000000000000000
   0.000000000000000
   0.000000000000000
   0.000000000000000
   0.000000000000000
   0.000000000000000
   0.000000000000000
   0.000000000000000
   0.000000000000000
   0.000000000000000
   0.000000000000000
   0.000000000000000
   0.000000000000000
   0.000000000000000
   0.000000000000000
   0.000000000000000
   0.000000000000000
   0.000000000000000
   0.000000000000000
   0.000000000000000
   0.000000000000000
   0.000000000000000
   0.000000000000000
   0.000000000000000
   0.000000000000000
   0.000000000000000
   0.000000000000000
   0.000000000000000
   0.000000000000000
   0.000000000000000
   0.000000000000000
   0.000000000000000
   0.000000000000000
   0.000000000000000
   0.000000000000000
   0.000000000000000
   0.000000000000000
   0.000000000000000
   0.000000000000000
   0.000000000000000
   0.000000000000000
   0.000000000000000
   0.000000000000000
   0.000000000000000
   0.000000000000000
   0.000000000000000
   0.000000000000000
   0.000000000000000
   0.000000000000000
   0.000000000000000
   0.000000000000000
   0.000000000000000
   0.000000000000000
   0.000000000000000
   0.000000000000000
   0.000000000000000
   0.000000000000000
   0.000000000000000
   0.000000000000000
   0.000000000000000
   0.000000000000000
   0.000000000000000
   0.000000000000000
   0.000000000000000
   0.000000000000000
   0.000000000000000
   0.000000000000000
   0.000000000000000
   0.000000000000000
   0.000000000000000
   0.000000000000000
   0.000000000000000
   0.000000000000000
   0.000000000000000
   0.000000000000000
   0.000000000000000
   0.000000000000000
   0.000000000000000
   0.000000000000000
   0.000000000000000
   0.000000000000000
   0.000000000000000
   0.000000000000000
   0.000000000000000
   0.000000000000000
   0.000000000000000
   0.000000000000000
   0.000000000000000
   0.000000000000000
   0.000000000000000
   0.000000000000000
   0.000000000000000
   0.000000000000000
   0.000000000000000
   0.000000000000000
   0.000000000000000
   0.000000000000000
   0.000000000000000
   0.000000000000000
   0.000000000000000
   0.000000000000000
   0.000000000000000
   0.000000000000000
   0.000000000000000
   0.000000000000000
   0.000000000000000
   0.000000000000000
   0.000000000000000
   0.000000000000000
   0.000000000000000
   0.000000000000000
   0.000000000000000
   0.000000000000000
   0.000000000000000
   0.000000000000000
   0.000000000000000
   0.000000000000000
   0.000000000000000
   0.000000000000000
   0.000000000000000
   0.000000000000000
   0.000000000000000
   0.000000000000000
   0.000000000000000
   0.000000000000000
   0.000000000000000
   0.000000000000000
   0.000000000000000
   0.000000000000000
   0.000000000000000
   0.000000000000000
   0.000000000000000
   0.000000000000000
   0.000000000000000
   0.000000000000000
   0.000000000000000
   0.000000000000000
   0.000000000000000
   0.000000000000000
   0.000000000000000
   0.000000000000000
   0.000000000000000
   0.000000000000000
   0.000000000000000
   0.000000000000000
   0.000000000000000
   0.000000000000000
   0.000000000000000
   0.000000000000000
   0.000000000000000
   0.000000000000000
   0.000000000000000
   0.000000000000000
   0.000000000000000
   0.000000000000000
   0.000000000000000
   0.000000000000000
   0.000000000000000
   0.000000000000000
   0.000000000000000
   0.000000000000000
   0.000000000000000
   0.000000000000000
   0.000000000000000
   0.000000000000000
   0.000000000000000
   0.000000000000000
   0.000000000000000
   0.000000000000000
   0.000000000000000
   0.000000000000000
   0.000000000000000
   0.000000000000000
   0.000000000000000
   0.000000000000000
   0.000000000000000
   0.000000000000000
   0.000000000000000
   0.000000000000000
   0.000000000000000
   0.000000000000000
   0.000000000000000
   0.000000000000000
   0.000000000000000
   0.000000000000000
   0.000000000000000
   0.000000000000000
   0.000000000000000
   0.000000000000000
   0.000000000000000
   0.000000000000000
   0.000000000000000
   0.000000000000000
   0.000000000000000
   0.000000000000000
   0.000000000000000
   0.000000000000000
   0.000000000000000
   0.000000000000000
   0.000000000000000
   0.000000000000000
   0.000000000000000
   0.000000000000000
   0.000000000000000
   0.000000000000000
   0.000000000000000
   0.000000000000000
   0.000000000000000
   0.000000000000000
   0.000000000000000
   0.000000000000000
   0.000000000000000
   0.000000000000000
   0.000000000000000
   0.000000000000000
   0.000000000000000
   0.000000000000000
   0.000000000000000
   0.000000000000000
   0.000000000000000
   0.000000000000000
   0.000000000000000
   0.000000000000000
   0.000000000000000
   0.000000000000000
   0.000000000000000
   0.000000000000000
   0.000000000000000
   0.000000000000000
   0.000000000000000
   0.000000000000000
   0.000000000000000
   0.000000000000000
   0.000000000000000
   0.000000000000000
   0.000000000000000
   0.000000000000000
   0.000000000000000
   0.000000000000000
   0.000000000000000
   0.000000000000000
   0.000000000000000
   0.000000000000000
   0.000000000000000
   0.000000000000000
   0.000000000000000
   0.000000000000000
   0.000000000000000
   0.000000000000000
   0.000000000000000
   0.000000000000000
   0.000000000000000
   0.000000000000000
   0.000000000000000
   0.000000000000000
   0.000000000000000
   0.000000000000000
   0.000000000000000
   0.000000000000000
   0.000000000000000
   0.000000000000000
   0.000000000000000
   0.000000000000000
   0.000000000000000
   0.000000000000000
   0.000000000000000
   0.000000000000000
   0.000000000000000
   0.000000000000000
   0.000000000000000
   0.000000000000000
   0.000000000000000
   0.000000000000000
   0.000000000000000
   0.000000000000000
   0.000000000000000
   0.000000000000000
   0.000000000000000
   0.000000000000000
   0.000000000000000
   0.000000000000000
   0.000000000000000
   0.000000000000000
   0.000000000000000
   0.000000000000000
   0.000000000000000
   0.000000000000000
   0.000000000000000
   0.000000000000000
   0.000000000000000
   0.000000000000000
   0.000000000000000
