#         XOrigin (ps),       -21.2939510000
#      Resolution (ps),         0.0169000000
#            Mean (ps),        -4.0237625000
#          Median (ps),        -4.0534000000
#             RMS (ps),         1.2964100000
#       Peak-Peak (ps),        11.5671000000
#             Min (ps),        -9.7438000000
#             Max (ps),         1.8234000000
#                 HITS,               801579
#               Values,                 2048
   0.000000000000000
   0.000000000000000
   0.000000000000000
   0.000000000000000
   0.000000000000000
   0.000000000000000
   0.000000000000000
   0.000000000000000
   0.000000000000000
   0.000000000000000
   0.000000000000000
   0.000000000000000
   0.000000000000000
   0.000000000000000
   0.000000000000000
   0.000000000000000
   0.000000000000000
   0.000000000000000
   0.000000000000000
   0.000000000000000
   0.000000000000000
   0.000000000000000
   0.000000000000000
   0.000000000000000
   0.000000000000000
   0.000000000000000
   0.000000000000000
   0.000000000000000
   0.000000000000000
   0.000000000000000
   0.000000000000000
   0.000000000000000
   0.000000000000000
   0.000000000000000
   0.000000000000000
   0.000000000000000
   0.000000000000000
   0.000000000000000
   0.000000000000000
   0.000000000000000
   0.000000000000000
   0.000000000000000
   0.000000000000000
   0.000000000000000
   0.000000000000000
   0.000000000000000
   0.000000000000000
   0.000000000000000
   0.000000000000000
   0.000000000000000
   0.000000000000000
   0.000000000000000
   0.000000000000000
   0.000000000000000
   0.000000000000000
   0.000000000000000
   0.000000000000000
   0.000000000000000
   0.000000000000000
   0.000000000000000
   0.000000000000000
   0.000000000000000
   0.000000000000000
   0.000000000000000
   0.000000000000000
   0.000000000000000
   0.000000000000000
   0.000000000000000
   0.000000000000000
   0.000000000000000
   0.000000000000000
   0.000000000000000
   0.000000000000000
   0.000000000000000
   0.000000000000000
   0.000000000000000
   0.000000000000000
   0.000000000000000
   0.000000000000000
   0.000000000000000
   0.000000000000000
   0.000000000000000
   0.000000000000000
   0.000000000000000
   0.000000000000000
   0.000000000000000
   0.000000000000000
   0.000000000000000
   0.000000000000000
   0.000000000000000
   0.000000000000000
   0.000000000000000
   0.000000000000000
   0.000000000000000
   0.000000000000000
   0.000000000000000
   0.000000000000000
   0.000000000000000
   0.000000000000000
   0.000000000000000
   0.000000000000000
   0.000000000000000
   0.000000000000000
   0.000000000000000
   0.000000000000000
   0.000000000000000
   0.000000000000000
   0.000000000000000
   0.000000000000000
   0.000000000000000
   0.000000000000000
   0.000000000000000
   0.000000000000000
   0.000000000000000
   0.000000000000000
   0.000000000000000
   0.000000000000000
   0.000000000000000
   0.000000000000000
   0.000000000000000
   0.000000000000000
   0.000000000000000
   0.000000000000000
   0.000000000000000
   0.000000000000000
   0.000000000000000
   0.000000000000000
   0.000000000000000
   0.000000000000000
   0.000000000000000
   0.000000000000000
   0.000000000000000
   0.000000000000000
   0.000000000000000
   0.000000000000000
   0.000000000000000
   0.000000000000000
   0.000000000000000
   0.000000000000000
   0.000000000000000
   0.000000000000000
   0.000000000000000
   0.000000000000000
   0.000000000000000
   0.000000000000000
   0.000000000000000
   0.000000000000000
   0.000000000000000
   0.000000000000000
   0.000000000000000
   0.000000000000000
   0.000000000000000
   0.000000000000000
   0.000000000000000
   0.000000000000000
   0.000000000000000
   0.000000000000000
   0.000000000000000
   0.000000000000000
   0.000000000000000
   0.000000000000000
   0.000000000000000
   0.000000000000000
   0.000000000000000
   0.000000000000000
   0.000000000000000
   0.000000000000000
   0.000000000000000
   0.000000000000000
   0.000000000000000
   0.000000000000000
   0.000000000000000
   0.000000000000000
   0.000000000000000
   0.000000000000000
   0.000000000000000
   0.000000000000000
   0.000000000000000
   0.000000000000000
   0.000000000000000
   0.000000000000000
   0.000000000000000
   0.000000000000000
   0.000000000000000
   0.000000000000000
   0.000000000000000
   0.000000000000000
   0.000000000000000
   0.000000000000000
   0.000000000000000
   0.000000000000000
   0.000000000000000
   0.000000000000000
   0.000000000000000
   0.000000000000000
   0.000000000000000
   0.000000000000000
   0.000000000000000
   0.000000000000000
   0.000000000000000
   0.000000000000000
   0.000000000000000
   0.000000000000000
   0.000000000000000
   0.000000000000000
   0.000000000000000
   0.000000000000000
   0.000000000000000
   0.000000000000000
   0.000000000000000
   0.000000000000000
   0.000000000000000
   0.000000000000000
   0.000000000000000
   0.000000000000000
   0.000000000000000
   0.000000000000000
   0.000000000000000
   0.000000000000000
   0.000000000000000
   0.000000000000000
   0.000000000000000
   0.000000000000000
   0.000000000000000
   0.000000000000000
   0.000000000000000
   0.000000000000000
   0.000000000000000
   0.000000000000000
   0.000000000000000
   0.000000000000000
   0.000000000000000
   0.000000000000000
   0.000000000000000
   0.000000000000000
   0.000000000000000
   0.000000000000000
   0.000000000000000
   0.000000000000000
   0.000000000000000
   0.000000000000000
   0.000000000000000
   0.000000000000000
   0.000000000000000
   0.000000000000000
   0.000000000000000
   0.000000000000000
   0.000000000000000
   0.000000000000000
   0.000000000000000
   0.000000000000000
   0.000000000000000
   0.000000000000000
   0.000000000000000
   0.000000000000000
   0.000000000000000
   0.000000000000000
   0.000000000000000
   0.000000000000000
   0.000000000000000
   0.000000000000000
   0.000000000000000
   0.000000000000000
   0.000000000000000
   0.000000000000000
   0.000000000000000
   0.000000000000000
   0.000000000000000
   0.000000000000000
   0.000000000000000
   0.000000000000000
   0.000000000000000
   0.000000000000000
   0.000000000000000
   0.000000000000000
   0.000000000000000
   0.000000000000000
   0.000000000000000
   0.000000000000000
   0.000000000000000
   0.000000000000000
   0.000000000000000
   0.000000000000000
   0.000000000000000
   0.000000000000000
   0.000000000000000
   0.000000000000000
   0.000000000000000
   0.000000000000000
   0.000000000000000
   0.000000000000000
   0.000000000000000
   0.000000000000000
   0.000000000000000
   0.000000000000000
   0.000000000000000
   0.000000000000000
   0.000000000000000
   0.000000000000000
   0.000000000000000
   0.000000000000000
   0.000000000000000
   0.000000000000000
   0.000000000000000
   0.000000000000000
   0.000000000000000
   0.000000000000000
   0.000000000000000
   0.000000000000000
   0.000000000000000
   0.000000000000000
   0.000000000000000
   0.000000000000000
   0.000000000000000
   0.000000000000000
   0.000000000000000
   0.000000000000000
   0.000000000000000
   0.000000000000000
   0.000000000000000
   0.000000000000000
   0.000000000000000
   0.000000000000000
   0.000000000000000
   0.000000000000000
   0.000000000000000
   0.000000000000000
   0.000000000000000
   0.000000000000000
   0.000000000000000
   0.000000000000000
   0.000000000000000
   0.000000000000000
   0.000000000000000
   0.000000000000000
   0.000000000000000
   0.000000000000000
   0.000000000000000
   0.000000000000000
   0.000000000000000
   0.000000000000000
   0.000000000000000
   0.000000000000000
   0.000000000000000
   0.000000000000000
   0.000000000000000
   0.000000000000000
   0.000000000000000
   0.000000000000000
   0.000000000000000
   0.000000000000000
   0.000000000000000
   0.000000000000000
   0.000000000000000
   0.000000000000000
   0.000000000000000
   0.000000000000000
   0.000000000000000
   0.000000000000000
   0.000000000000000
   0.000000000000000
   0.000000000000000
   0.000000000000000
   0.000000000000000
   0.000000000000000
   0.000000000000000
   0.000000000000000
   0.000000000000000
   0.000000000000000
   0.000000000000000
   0.000000000000000
   0.000000000000000
   0.000000000000000
   0.000000000000000
   0.000000000000000
   0.000000000000000
   0.000000000000000
   0.000000000000000
   0.000000000000000
   0.000000000000000
   0.000000000000000
   0.000000000000000
   0.000000000000000
   0.000000000000000
   0.000000000000000
   0.000000000000000
   0.000000000000000
   0.000000000000000
   0.000000000000000
   0.000000000000000
   0.000000000000000
   0.000000000000000
   0.000000000000000
   0.000000000000000
   0.000000000000000
   0.000000000000000
   0.000000000000000
   0.000000000000000
   0.000000000000000
   0.000000000000000
   0.000000000000000
   0.000000000000000
   0.000000000000000
   0.000000000000000
   0.000000000000000
   0.000000000000000
   0.000000000000000
   0.000000000000000
   0.000000000000000
   0.000000000000000
   0.000000000000000
   0.000000000000000
   0.000000000000000
   0.000000000000000
   0.000000000000000
   0.000000000000000
   0.000000000000000
   0.000000000000000
   0.000000000000000
   0.000000000000000
   0.000000000000000
   0.000000000000000
   0.000000000000000
   0.000000000000000
   0.000000000000000
   0.000000000000000
   0.000000000000000
   0.000000000000000
   0.000000000000000
   0.000000000000000
   0.000000000000000
   0.000000000000000
   0.000000000000000
   0.000000000000000
   0.000000000000000
   0.000000000000000
   0.000000000000000
   0.000000000000000
   0.000000000000000
   0.000000000000000
   0.000000000000000
   0.000000000000000
   0.000000000000000
   0.000000000000000
   0.000000000000000
   0.000000000000000
   0.000000000000000
   0.000000000000000
   0.000000000000000
   0.000000000000000
   0.000000000000000
   0.000000000000000
   0.000000000000000
   0.000000000000000
   0.000000000000000
   0.000000000000000
   0.000000000000000
   0.000000000000000
   0.000000000000000
   0.000000000000000
   0.000000000000000
   0.000000000000000
   0.000000000000000
   0.000000000000000
   0.000000000000000
   0.000000000000000
   0.000000000000000
   0.000000000000000
   0.000000000000000
   0.000000000000000
   0.000000000000000
   0.000000000000000
   0.000000000000000
   0.000000000000000
   0.000000000000000
   0.000000000000000
   0.000000000000000
   0.000000000000000
   0.000000000000000
   0.000000000000000
   0.000000000000000
   0.000000000000000
   0.000000000000000
   0.000000000000000
   0.000000000000000
   0.000000000000000
   0.000000000000000
   0.000000000000000
   0.000000000000000
   0.000000000000000
   0.000000000000000
   0.000000000000000
   0.000000000000000
   0.000000000000000
   0.000000000000000
   0.000000000000000
   0.000000000000000
   0.000000000000000
   0.000000000000000
   0.000000000000000
   0.000000000000000
   0.000000000000000
   0.000000000000000
   0.000000000000000
   0.000000000000000
   0.000000000000000
   0.000000000000000
   0.000000000000000
   0.000000000000000
   0.000000000000000
   0.000000000000000
   0.000000000000000
   0.000000000000000
   0.000000000000000
   0.000000000000000
   0.000000000000000
   0.000000000000000
   0.000000000000000
   0.000000000000000
   0.000000000000000
   0.000000000000000
   0.000000000000000
   0.000000000000000
   0.000000000000000
   0.000000000000000
   0.000000000000000
   0.000000000000000
   0.000000000000000
   0.000000000000000
   0.000000000000000
   0.000000000000000
   0.000000000000000
   0.000000000000000
   0.000000000000000
   0.000000000000000
   0.000000000000000
   0.000000000000000
   0.000000000000000
   0.000000000000000
   0.000000000000000
   0.000000000000000
   0.000000000000000
   0.000000000000000
   0.000000000000000
   0.000000000000000
   0.000000000000000
   0.000000000000000
   0.000000000000000
   0.000000000000000
   0.000000000000000
   0.000000000000000
   0.000000000000000
   0.000000000000000
   0.000000000000000
   0.000000000000000
   0.000000000000000
   0.000000000000000
   0.000000000000000
   0.000000000000000
   0.000000000000000
   0.000000000000000
   0.000000000000000
   0.000000000000000
   0.000000000000000
   0.000000000000000
   0.000000000000000
   0.000000000000000
   0.000000000000000
   0.000000000000000
   0.000000000000000
   0.000000000000000
   0.000000000000000
   0.000000000000000
   0.000000000000000
   0.000000000000000
   0.000000000000000
   0.000000000000000
   0.000000000000000
   0.000000000000000
   0.000000000000000
   0.000000000000000
   0.000000000000000
   0.000000000000000
   0.000000000000000
   0.000000000000000
   0.000000000000000
   0.000000000000000
   0.000000000000000
   0.000000000000000
   0.000000000000000
   0.000000000000000
   0.000000000000000
   0.000000000000000
   0.000000000000000
   0.000000000000000
   0.000000000000000
   0.000000000000000
   0.000000000000000
   0.000000000000000
   0.000000000000000
   0.000000000000000
   0.000000000000000
   0.000000000000000
   0.000000000000000
   0.000000000000000
   0.000000000000000
   0.000000000000000
   0.000000000000000
   0.000000000000000
   0.000000000000000
   0.000000000000000
   0.000000000000000
   0.000000000000000
   0.000000000000000
   0.000000000000000
   0.000000000000000
   0.000000000000000
   0.000000000000000
   0.000000000000000
   0.000000000000000
   0.000000000000000
   0.000000000000000
   0.000000000000000
   0.000000000000000
   0.000000000000000
   0.000000000000000
   0.000000000000000
   0.000000000000000
   0.000000000000000
   0.000000000000000
   0.000000000000000
   0.000000000000000
   0.000000000000000
   0.000000000000000
   0.000000000000000
   0.000000000000000
   0.000000000000000
   0.000000000000000
   0.000000000000000
   0.000000000000000
   0.000000000000000
   0.000000000000000
   0.000000000000000
   0.000000000000000
   0.000000000000000
   0.000000000000000
   0.000000000000000
   0.000000000000000
   0.000000000000000
   0.000000000000000
   0.000000000000000
   0.000000000000000
   0.000000000000000
   0.000000000000000
   0.000000000000000
   0.000000000000000
   0.000000000000000
   0.000000000000000
   0.000000000000000
   0.000000000000000
   0.000000000000000
   0.000000000000000
   0.000000000000000
   0.000000000000000
   0.000000000000000
   0.000000000000000
   0.000000000000000
   0.000000000000000
   0.000000000000000
   0.000000000000000
   0.000000000000000
   0.000000000000000
   0.000000000000000
   0.000000000000000
   0.000000000000000
   0.000000000000000
   0.000000000000000
   0.000000000000000
   0.000000000000000
   0.000000000000000
   0.000000000000000
   0.000000000000000
   0.000001247537673
   0.000001247537673
   0.000000000000000
   0.000000000000000
   0.000000000000000
   0.000000000000000
   0.000001247537673
   0.000001247537673
   0.000000000000000
   0.000001247537673
   0.000000000000000
   0.000000000000000
   0.000000000000000
   0.000000000000000
   0.000000000000000
   0.000001247537673
   0.000000000000000
   0.000000000000000
   0.000000000000000
   0.000000000000000
   0.000000000000000
   0.000000000000000
   0.000000000000000
   0.000001247537673
   0.000000000000000
   0.000000000000000
   0.000000000000000
   0.000000000000000
   0.000001247537673
   0.000000000000000
   0.000000000000000
   0.000000000000000
   0.000000000000000
   0.000000000000000
   0.000001247537673
   0.000000000000000
   0.000000000000000
   0.000000000000000
   0.000001247537673
   0.000001247537673
   0.000002495075345
   0.000001247537673
   0.000000000000000
   0.000001247537673
   0.000002495075345
   0.000001247537673
   0.000000000000000
   0.000002495075345
   0.000003742613018
   0.000001247537673
   0.000001247537673
   0.000003742613018
   0.000000000000000
   0.000002495075345
   0.000003742613018
   0.000002495075345
   0.000003742613018
   0.000003742613018
   0.000003742613018
   0.000004990150690
   0.000003742613018
   0.000003742613018
   0.000002495075345
   0.000002495075345
   0.000001247537673
   0.000003742613018
   0.000006237688363
   0.000007485226035
   0.000009980301380
   0.000004990150690
   0.000006237688363
   0.000001247537673
   0.000007485226035
   0.000009980301380
   0.000009980301380
   0.000009980301380
   0.000006237688363
   0.000007485226035
   0.000018713065088
   0.000007485226035
   0.000007485226035
   0.000014970452070
   0.000014970452070
   0.000017465527415
   0.000009980301380
   0.000012475376725
   0.000014970452070
   0.000012475376725
   0.000013722914398
   0.000011227839053
   0.000026198291123
   0.000017465527415
   0.000012475376725
   0.000009980301380
   0.000017465527415
   0.000023703215778
   0.000019960602760
   0.000011227839053
   0.000023703215778
   0.000017465527415
   0.000034931054831
   0.000024950753450
   0.000029940904140
   0.000026198291123
   0.000027445828795
   0.000029940904140
   0.000041168743193
   0.000042416280866
   0.000042416280866
   0.000061129345953
   0.000037426130176
   0.000043663818538
   0.000039921205521
   0.000046158893883
   0.000043663818538
   0.000046158893883
   0.000047406431556
   0.000061129345953
   0.000067367034316
   0.000061129345953
   0.000067367034316
   0.000059881808281
   0.000056139195263
   0.000073604722679
   0.000079842411041
   0.000092317787766
   0.000079842411041
   0.000093565325439
   0.000076099798024
   0.000089822712421
   0.000089822712421
   0.000099803013802
   0.000126001304924
   0.000133486530960
   0.000111030852854
   0.000127248842597
   0.000135981606305
   0.000129743917942
   0.000143466832340
   0.000138476681650
   0.000139724219322
   0.000170912661135
   0.000154694671392
   0.000162179897427
   0.000195863414585
   0.000172160198808
   0.000182140500188
   0.000192120801568
   0.000184635575533
   0.000194615876913
   0.000207091253638
   0.000230794469416
   0.000242022308469
   0.000239527233124
   0.000235784620106
   0.000268220599592
   0.000254497685194
   0.000280695976317
   0.000276953363299
   0.000323112257182
   0.000275705825627
   0.000308141805112
   0.000339330246925
   0.000323112257182
   0.000353053161323
   0.000359290849685
   0.000376756377101
   0.000424162808656
   0.000405449743569
   0.000442875873744
   0.000390479291498
   0.000411687431931
   0.000449113562107
   0.000444123411417
   0.000521470747113
   0.000475311853230
   0.000477806928575
   0.000525213360130
   0.000533946123838
   0.000532698586166
   0.000583847630739
   0.000558896877288
   0.000617531147897
   0.000659947428762
   0.000644976976692
   0.000721076774716
   0.000704858784973
   0.000702363709628
   0.000746027528166
   0.000762245517909
   0.000753512754201
   0.000825869939207
   0.000810899487137
   0.000884504209816
   0.000833355165243
   0.000885751747488
   0.000883256672143
   0.000928168028354
   0.000930663103699
   0.000993039987325
   0.000999277675688
   0.001081615162074
   0.001077872549056
   0.001049179182588
   0.001163952648460
   0.001193893552601
   0.001167695261478
   0.001267498275279
   0.001265003199934
   0.001373538977443
   0.001277478576659
   0.001352330837010
   0.001395994655549
   0.001410965107619
   0.001435915861069
   0.001447143700122
   0.001533223799526
   0.001615561285912
   0.001546946713923
   0.001614313748239
   0.001616808823584
   0.001670452943503
   0.001654234953760
   0.001735324902474
   0.001876296659468
   0.001773998570322
   0.001943663693784
   0.001891267111539
   0.001853840981363
   0.001989822587668
   0.002040971632241
   0.002124556656300
   0.002077150224744
   0.002194418765961
   0.002104596053539
   0.002214379368721
   0.002239330122171
   0.002302954543470
   0.002376559266148
   0.002382796954511
   0.002352856050371
   0.002456401677190
   0.002541234238921
   0.002583650519787
   0.002497570420383
   0.002642284790395
   0.002634799564360
   0.002759553331612
   0.002727117352126
   0.002784504085062
   0.002873079259811
   0.002903020163951
   0.002841890817998
   0.002990347801028
   0.003006565790770
   0.003093893427847
   0.003067695136724
   0.003172488301215
   0.003152527698455
   0.003223637345789
   0.003325935434935
   0.003253578249929
   0.003355876339076
   0.003340905887006
   0.003414510609684
   0.003468154729602
   0.003511818548141
   0.003556729904351
   0.003631582164702
   0.003621601863322
   0.003617859250305
   0.003708929500399
   0.003859881558773
   0.003841168493686
   0.003873604473171
   0.003933486281452
   0.003972159949300
   0.003953446884212
   0.003901050301966
   0.004120616932330
   0.004054497435686
   0.004169270901558
   0.004189231504318
   0.004095666178879
   0.004221667483804
   0.004196716730353
   0.004307747583208
   0.004481155319688
   0.004417530898389
   0.004348916326401
   0.004484897932705
   0.004479907782015
   0.004634602453408
   0.004595928785560
   0.004512343761501
   0.004612146775302
   0.004816742953595
   0.004664543357548
   0.004690741648671
   0.004766841446695
   0.004835456018683
   0.004703217025396
   0.004758108682987
   0.004800524963853
   0.004967695011970
   0.004870387073514
   0.004854169083771
   0.004919041042742
   0.004753118532297
   0.005026329282579
   0.004886605063256
   0.004936506570157
   0.005062507875082
   0.004916545967397
   0.005104924155947
   0.004965199936625
   0.005028824357924
   0.005096191392240
   0.004953972097572
   0.005191004255351
   0.005066250488099
   0.005158568275866
   0.004965199936625
   0.005223440234836
   0.005173538727936
   0.005242153299924
   0.005098686467585
   0.005346946464416
   0.005154825662848
   0.005061260337409
   0.005103676618275
   0.005161063351211
   0.005088706166204
   0.005132369984743
   0.005082468477842
   0.005320748173293
   0.005107419231292
   0.005126132296380
   0.005118647070345
   0.005149835512158
   0.005051280036029
   0.004996388378438
   0.005247143450614
   0.004990150690075
   0.004921536118087
   0.005154825662848
   0.005041299734649
   0.004932763957140
   0.005040052196976
   0.004996388378438
   0.004985160539385
   0.004875377224204
   0.005017596518871
   0.004866644460496
   0.004916545967397
   0.004978922851023
   0.004958962248262
   0.005016348981198
   0.004926526268777
   0.004937754107830
   0.004966447474298
   0.004805515114543
   0.004739395617899
   0.004758108682987
   0.004769336522040
   0.004698226874706
   0.004682008884963
   0.004664543357548
   0.004664543357548
   0.004679513809618
   0.004650820443150
   0.004573473107454
   0.004388837531921
   0.004493630696413
   0.004425016124424
   0.004323965572950
   0.004431253812787
   0.004422521049079
   0.004416283360717
   0.004307747583208
   0.004350163864073
   0.004333945874331
   0.004100656329570
   0.004210439644751
   0.004176756127593
   0.004020813918528
   0.004125607083020
   0.004108141555605
   0.004083190802154
   0.003912278141019
   0.003847406182048
   0.003827445579288
   0.003990873014388
   0.003876099548516
   0.003777544072387
   0.003801247288165
   0.003776296534715
   0.003730137640831
   0.003601641260562
   0.003515561161158
   0.003577938044784
   0.003660275531170
   0.003450689202187
   0.003433223674772
   0.003434471212444
   0.003470649804947
   0.003350886188386
   0.003304727294502
   0.003176230914233
   0.003277281465707
   0.003272291315017
   0.003263558551309
   0.003132567095695
   0.003189953828631
   0.003024031318186
   0.003020288705168
   0.003112606492935
   0.003031516544221
   0.002846880968688
   0.002914248003004
   0.002917990616022
   0.002757058256267
   0.002789494235752
   0.002689691221951
   0.002860603883086
   0.002663492930828
   0.002606106197892
   0.002557452228664
   0.002664740468500
   0.002651017554103
   0.002512540872453
   0.002523768711506
   0.002483847505985
   0.002430203386067
   0.002336638060628
   0.002200656454323
   0.002204399067341
   0.002273013639329
   0.002178200776218
   0.002140774646042
   0.002150754947423
   0.002164477861820
   0.002068417461036
   0.002008535652755
   0.002053447008966
   0.001954891532837
   0.001901247412919
   0.001937426005422
   0.001888772036194
   0.001811424700497
   0.001761523193597
   0.001769008419632
   0.001714116762041
   0.001594353145479
   0.001659225104450
   0.001593105607807
   0.001595600683152
   0.001583125306426
   0.001650492340742
   0.001535718874871
   0.001507025508403
   0.001485817367970
   0.001459619076847
   0.001318647319852
   0.001428430635034
   0.001475837066590
   0.001230072145104
   0.001281221189677
   0.001317399782180
   0.001278726114332
   0.001248785210191
   0.001241299984156
   0.001207616466998
   0.001145239583372
   0.001069139785349
   0.001044189031898
   0.001049179182588
   0.001057911946296
   0.001046684107243
   0.001039198881208
   0.001005515364050
   0.000909454963266
   0.000880761596798
   0.000903217274904
   0.000882009134471
   0.000888246822833
   0.000872028833091
   0.000896979586541
   0.000814642100155
   0.000762245517909
   0.000768483206272
   0.000787196271359
   0.000784701196014
   0.000657452353417
   0.000697373558938
   0.000688640795230
   0.000676165418505
   0.000642481901347
   0.000633749137640
   0.000643729439020
   0.000542678887546
   0.000597570545137
   0.000575114867031
   0.000558896877288
   0.000552659188926
   0.000499015069008
   0.000535193661511
   0.000538936274528
   0.000462836476504
   0.000495272455990
   0.000496519993663
   0.000434143110037
   0.000437885723054
   0.000432895572364
   0.000430400497019
   0.000422915270984
   0.000363033462703
   0.000344320397615
   0.000330597483217
   0.000351805623650
   0.000368023613393
   0.000319369644165
   0.000323112257182
   0.000283191051662
   0.000284438589334
   0.000261982911229
   0.000273210750282
   0.000258240298211
   0.000232042007089
   0.000244517383814
   0.000271963212609
   0.000245764921486
   0.000249507534504
   0.000219566630363
   0.000239527233124
   0.000202101102948
   0.000173407736480
   0.000202101102948
   0.000209586328983
   0.000157189746737
   0.000175902811825
   0.000157189746737
   0.000157189746737
   0.000153447133720
   0.000170912661135
   0.000174655274153
   0.000152199596047
   0.000132238993287
   0.000121011154234
   0.000140971756995
   0.000113525928199
   0.000112278390527
   0.000111030852854
   0.000111030852854
   0.000094812863111
   0.000112278390527
   0.000101050551474
   0.000113525928199
   0.000096060400784
   0.000097307938456
   0.000076099798024
   0.000088575174749
   0.000071109647334
   0.000076099798024
   0.000062376883626
   0.000044911356211
   0.000052396582246
   0.000078594873369
   0.000069862109661
   0.000046158893883
   0.000041168743193
   0.000058634270608
   0.000044911356211
   0.000056139195263
   0.000057386732936
   0.000043663818538
   0.000043663818538
   0.000033683517158
   0.000046158893883
   0.000039921205521
   0.000042416280866
   0.000033683517158
   0.000039921205521
   0.000033683517158
   0.000036178592503
   0.000029940904140
   0.000029940904140
   0.000023703215778
   0.000027445828795
   0.000031188441813
   0.000019960602760
   0.000023703215778
   0.000023703215778
   0.000018713065088
   0.000024950753450
   0.000026198291123
   0.000013722914398
   0.000011227839053
   0.000013722914398
   0.000013722914398
   0.000016217989743
   0.000014970452070
   0.000017465527415
   0.000016217989743
   0.000012475376725
   0.000012475376725
   0.000018713065088
   0.000011227839053
   0.000004990150690
   0.000003742613018
   0.000011227839053
   0.000009980301380
   0.000006237688363
   0.000009980301380
   0.000006237688363
   0.000014970452070
   0.000009980301380
   0.000008732763708
   0.000006237688363
   0.000007485226035
   0.000007485226035
   0.000006237688363
   0.000003742613018
   0.000002495075345
   0.000006237688363
   0.000007485226035
   0.000006237688363
   0.000002495075345
   0.000003742613018
   0.000004990150690
   0.000000000000000
   0.000002495075345
   0.000006237688363
   0.000003742613018
   0.000002495075345
   0.000001247537673
   0.000001247537673
   0.000002495075345
   0.000001247537673
   0.000000000000000
   0.000000000000000
   0.000002495075345
   0.000001247537673
   0.000001247537673
   0.000001247537673
   0.000001247537673
   0.000001247537673
   0.000000000000000
   0.000000000000000
   0.000001247537673
   0.000002495075345
   0.000000000000000
   0.000002495075345
   0.000002495075345
   0.000001247537673
   0.000000000000000
   0.000001247537673
   0.000000000000000
   0.000000000000000
   0.000000000000000
   0.000001247537673
   0.000002495075345
   0.000001247537673
   0.000000000000000
   0.000000000000000
   0.000001247537673
   0.000000000000000
   0.000000000000000
   0.000000000000000
   0.000000000000000
   0.000000000000000
   0.000000000000000
   0.000000000000000
   0.000000000000000
   0.000001247537673
   0.000000000000000
   0.000000000000000
   0.000000000000000
   0.000000000000000
   0.000001247537673
   0.000000000000000
   0.000000000000000
   0.000000000000000
   0.000001247537673
   0.000000000000000
   0.000000000000000
   0.000000000000000
   0.000000000000000
   0.000000000000000
   0.000000000000000
   0.000000000000000
   0.000000000000000
   0.000000000000000
   0.000000000000000
   0.000000000000000
   0.000000000000000
   0.000000000000000
   0.000000000000000
   0.000000000000000
   0.000000000000000
   0.000000000000000
   0.000000000000000
   0.000000000000000
   0.000000000000000
   0.000000000000000
   0.000000000000000
   0.000000000000000
   0.000000000000000
   0.000000000000000
   0.000000000000000
   0.000000000000000
   0.000000000000000
   0.000000000000000
   0.000000000000000
   0.000000000000000
   0.000000000000000
   0.000000000000000
   0.000000000000000
   0.000000000000000
   0.000000000000000
   0.000000000000000
   0.000000000000000
   0.000000000000000
   0.000000000000000
   0.000000000000000
   0.000000000000000
   0.000000000000000
   0.000000000000000
   0.000000000000000
   0.000000000000000
   0.000000000000000
   0.000000000000000
   0.000000000000000
   0.000000000000000
   0.000000000000000
   0.000000000000000
   0.000000000000000
   0.000000000000000
   0.000000000000000
   0.000000000000000
   0.000000000000000
   0.000000000000000
   0.000000000000000
   0.000000000000000
   0.000000000000000
   0.000000000000000
   0.000000000000000
   0.000000000000000
   0.000000000000000
   0.000000000000000
   0.000000000000000
   0.000000000000000
   0.000000000000000
   0.000000000000000
   0.000000000000000
   0.000000000000000
   0.000000000000000
   0.000000000000000
   0.000000000000000
   0.000000000000000
   0.000000000000000
   0.000000000000000
   0.000000000000000
   0.000000000000000
   0.000000000000000
   0.000000000000000
   0.000000000000000
   0.000000000000000
   0.000000000000000
   0.000000000000000
   0.000000000000000
   0.000000000000000
   0.000000000000000
   0.000000000000000
   0.000000000000000
   0.000000000000000
   0.000000000000000
   0.000000000000000
   0.000000000000000
   0.000000000000000
   0.000000000000000
   0.000000000000000
   0.000000000000000
   0.000000000000000
   0.000000000000000
   0.000000000000000
   0.000000000000000
   0.000000000000000
   0.000000000000000
   0.000000000000000
   0.000000000000000
   0.000000000000000
   0.000000000000000
   0.000000000000000
   0.000000000000000
   0.000000000000000
   0.000000000000000
   0.000000000000000
   0.000000000000000
   0.000000000000000
   0.000000000000000
   0.000000000000000
   0.000000000000000
   0.000000000000000
   0.000000000000000
   0.000000000000000
   0.000000000000000
   0.000000000000000
   0.000000000000000
   0.000000000000000
   0.000000000000000
   0.000000000000000
   0.000000000000000
   0.000000000000000
   0.000000000000000
   0.000000000000000
   0.000000000000000
   0.000000000000000
   0.000000000000000
   0.000000000000000
   0.000000000000000
   0.000000000000000
   0.000000000000000
   0.000000000000000
   0.000000000000000
   0.000000000000000
   0.000000000000000
   0.000000000000000
   0.000000000000000
   0.000000000000000
   0.000000000000000
   0.000000000000000
   0.000000000000000
   0.000000000000000
   0.000000000000000
   0.000000000000000
   0.000000000000000
   0.000000000000000
   0.000000000000000
   0.000000000000000
   0.000000000000000
   0.000000000000000
   0.000000000000000
   0.000000000000000
   0.000000000000000
   0.000000000000000
   0.000000000000000
   0.000000000000000
   0.000000000000000
   0.000000000000000
   0.000000000000000
   0.000000000000000
   0.000000000000000
   0.000000000000000
   0.000000000000000
   0.000000000000000
   0.000000000000000
   0.000000000000000
   0.000000000000000
   0.000000000000000
   0.000000000000000
   0.000000000000000
   0.000000000000000
   0.000000000000000
   0.000000000000000
   0.000000000000000
   0.000000000000000
   0.000000000000000
   0.000000000000000
   0.000000000000000
   0.000000000000000
   0.000000000000000
   0.000000000000000
   0.000000000000000
   0.000000000000000
   0.000000000000000
   0.000000000000000
   0.000000000000000
   0.000000000000000
   0.000000000000000
   0.000000000000000
   0.000000000000000
   0.000000000000000
   0.000000000000000
   0.000000000000000
   0.000000000000000
   0.000000000000000
   0.000000000000000
   0.000000000000000
   0.000000000000000
   0.000000000000000
   0.000000000000000
   0.000000000000000
   0.000000000000000
   0.000000000000000
   0.000000000000000
   0.000000000000000
   0.000000000000000
   0.000000000000000
   0.000000000000000
   0.000000000000000
   0.000000000000000
   0.000000000000000
   0.000000000000000
   0.000000000000000
   0.000000000000000
   0.000000000000000
   0.000000000000000
   0.000000000000000
   0.000000000000000
   0.000000000000000
   0.000000000000000
   0.000000000000000
   0.000000000000000
   0.000000000000000
   0.000000000000000
   0.000000000000000
   0.000000000000000
   0.000000000000000
   0.000000000000000
   0.000000000000000
   0.000000000000000
   0.000000000000000
   0.000000000000000
   0.000000000000000
   0.000000000000000
   0.000000000000000
   0.000000000000000
   0.000000000000000
   0.000000000000000
   0.000000000000000
   0.000000000000000
   0.000000000000000
   0.000000000000000
   0.000000000000000
   0.000000000000000
   0.000000000000000
   0.000000000000000
   0.000000000000000
   0.000000000000000
   0.000000000000000
   0.000000000000000
   0.000000000000000
   0.000000000000000
   0.000000000000000
   0.000000000000000
   0.000000000000000
   0.000000000000000
   0.000000000000000
   0.000000000000000
   0.000000000000000
   0.000000000000000
   0.000000000000000
   0.000000000000000
   0.000000000000000
   0.000000000000000
   0.000000000000000
   0.000000000000000
   0.000000000000000
   0.000000000000000
   0.000000000000000
   0.000000000000000
   0.000000000000000
   0.000000000000000
   0.000000000000000
   0.000000000000000
   0.000000000000000
   0.000000000000000
   0.000000000000000
   0.000000000000000
   0.000000000000000
   0.000000000000000
   0.000000000000000
   0.000000000000000
   0.000000000000000
   0.000000000000000
   0.000000000000000
   0.000000000000000
   0.000000000000000
   0.000000000000000
   0.000000000000000
   0.000000000000000
   0.000000000000000
   0.000000000000000
   0.000000000000000
   0.000000000000000
   0.000000000000000
   0.000000000000000
   0.000000000000000
   0.000000000000000
   0.000000000000000
   0.000000000000000
   0.000000000000000
   0.000000000000000
   0.000000000000000
   0.000000000000000
   0.000000000000000
   0.000000000000000
   0.000000000000000
   0.000000000000000
   0.000000000000000
   0.000000000000000
   0.000000000000000
   0.000000000000000
   0.000000000000000
   0.000000000000000
   0.000000000000000
   0.000000000000000
   0.000000000000000
   0.000000000000000
   0.000000000000000
   0.000000000000000
   0.000000000000000
   0.000000000000000
   0.000000000000000
   0.000000000000000
   0.000000000000000
   0.000000000000000
   0.000000000000000
   0.000000000000000
   0.000000000000000
   0.000000000000000
   0.000000000000000
   0.000000000000000
   0.000000000000000
   0.000000000000000
   0.000000000000000
   0.000000000000000
   0.000000000000000
   0.000000000000000
   0.000000000000000
   0.000000000000000
   0.000000000000000
   0.000000000000000
   0.000000000000000
   0.000000000000000
   0.000000000000000
   0.000000000000000
   0.000000000000000
   0.000000000000000
   0.000000000000000
   0.000000000000000
   0.000000000000000
   0.000000000000000
   0.000000000000000
   0.000000000000000
   0.000000000000000
   0.000000000000000
   0.000000000000000
   0.000000000000000
   0.000000000000000
   0.000000000000000
   0.000000000000000
   0.000000000000000
   0.000000000000000
   0.000000000000000
   0.000000000000000
   0.000000000000000
   0.000000000000000
   0.000000000000000
   0.000000000000000
   0.000000000000000
   0.000000000000000
   0.000000000000000
   0.000000000000000
   0.000000000000000
   0.000000000000000
   0.000000000000000
   0.000000000000000
   0.000000000000000
   0.000000000000000
   0.000000000000000
   0.000000000000000
   0.000000000000000
   0.000000000000000
   0.000000000000000
   0.000000000000000
   0.000000000000000
   0.000000000000000
   0.000000000000000
   0.000000000000000
   0.000000000000000
   0.000000000000000
   0.000000000000000
   0.000000000000000
   0.000000000000000
   0.000000000000000
   0.000000000000000
   0.000000000000000
   0.000000000000000
   0.000000000000000
   0.000000000000000
   0.000000000000000
   0.000000000000000
   0.000000000000000
   0.000000000000000
   0.000000000000000
   0.000000000000000
   0.000000000000000
   0.000000000000000
   0.000000000000000
   0.000000000000000
   0.000000000000000
   0.000000000000000
   0.000000000000000
   0.000000000000000
   0.000000000000000
   0.000000000000000
   0.000000000000000
   0.000000000000000
   0.000000000000000
   0.000000000000000
   0.000000000000000
   0.000000000000000
   0.000000000000000
   0.000000000000000
   0.000000000000000
   0.000000000000000
   0.000000000000000
   0.000000000000000
   0.000000000000000
   0.000000000000000
   0.000000000000000
   0.000000000000000
   0.000000000000000
   0.000000000000000
   0.000000000000000
   0.000000000000000
   0.000000000000000
   0.000000000000000
   0.000000000000000
   0.000000000000000
   0.000000000000000
   0.000000000000000
   0.000000000000000
   0.000000000000000
   0.000000000000000
   0.000000000000000
   0.000000000000000
   0.000000000000000
   0.000000000000000
   0.000000000000000
   0.000000000000000
   0.000000000000000
   0.000000000000000
   0.000000000000000
   0.000000000000000
   0.000000000000000
   0.000000000000000
   0.000000000000000
   0.000000000000000
   0.000000000000000
   0.000000000000000
   0.000000000000000
   0.000000000000000
   0.000000000000000
   0.000000000000000
   0.000000000000000
   0.000000000000000
   0.000000000000000
   0.000000000000000
   0.000000000000000
   0.000000000000000
   0.000000000000000
   0.000000000000000
   0.000000000000000
   0.000000000000000
   0.000000000000000
   0.000000000000000
   0.000000000000000
   0.000000000000000
   0.000000000000000
   0.000000000000000
   0.000000000000000
   0.000000000000000
   0.000000000000000
   0.000000000000000
   0.000000000000000
   0.000000000000000
   0.000000000000000
   0.000000000000000
   0.000000000000000
   0.000000000000000
   0.000000000000000
   0.000000000000000
   0.000000000000000
   0.000000000000000
   0.000000000000000
   0.000000000000000
   0.000000000000000
   0.000000000000000
   0.000000000000000
   0.000000000000000
   0.000000000000000
   0.000000000000000
   0.000000000000000
   0.000000000000000
   0.000000000000000
   0.000000000000000
   0.000000000000000
   0.000000000000000
   0.000000000000000
   0.000000000000000
   0.000000000000000
   0.000000000000000
   0.000000000000000
   0.000000000000000
   0.000000000000000
   0.000000000000000
   0.000000000000000
   0.000000000000000
   0.000000000000000
   0.000000000000000
   0.000000000000000
   0.000000000000000
   0.000000000000000
   0.000000000000000
   0.000000000000000
   0.000000000000000
   0.000000000000000
   0.000000000000000
   0.000000000000000
   0.000000000000000
   0.000000000000000
   0.000000000000000
   0.000000000000000
   0.000000000000000
   0.000000000000000
   0.000000000000000
   0.000000000000000
   0.000000000000000
   0.000000000000000
   0.000000000000000
   0.000000000000000
   0.000000000000000
   0.000000000000000
   0.000000000000000
   0.000000000000000
   0.000000000000000
   0.000000000000000
   0.000000000000000
   0.000000000000000
   0.000000000000000
   0.000000000000000
   0.000000000000000
   0.000000000000000
   0.000000000000000
   0.000000000000000
   0.000000000000000
   0.000000000000000
   0.000000000000000
   0.000000000000000
   0.000000000000000
   0.000000000000000
   0.000000000000000
   0.000000000000000
   0.000000000000000
   0.000000000000000
   0.000000000000000
   0.000000000000000
   0.000000000000000
   0.000000000000000
   0.000000000000000
   0.000000000000000
   0.000000000000000
   0.000000000000000
   0.000000000000000
   0.000000000000000
   0.000000000000000
   0.000000000000000
   0.000000000000000
   0.000000000000000
   0.000000000000000
   0.000000000000000
   0.000000000000000
   0.000000000000000
   0.000000000000000
   0.000000000000000
   0.000000000000000
   0.000000000000000
   0.000000000000000
   0.000000000000000
   0.000000000000000
   0.000000000000000
   0.000000000000000
   0.000000000000000
   0.000000000000000
   0.000000000000000
   0.000000000000000
   0.000000000000000
   0.000000000000000
   0.000000000000000
   0.000000000000000
   0.000000000000000
   0.000000000000000
   0.000000000000000
   0.000000000000000
   0.000000000000000
   0.000000000000000
   0.000000000000000
   0.000000000000000
   0.000000000000000
   0.000000000000000
   0.000000000000000
   0.000000000000000
   0.000000000000000
   0.000000000000000
   0.000000000000000
   0.000000000000000
   0.000000000000000
   0.000000000000000
   0.000000000000000
   0.000000000000000
   0.000000000000000
   0.000000000000000
   0.000000000000000
   0.000000000000000
   0.000000000000000
   0.000000000000000
   0.000000000000000
   0.000000000000000
   0.000000000000000
   0.000000000000000
   0.000000000000000
   0.000000000000000
   0.000000000000000
   0.000000000000000
   0.000000000000000
   0.000000000000000
   0.000000000000000
   0.000000000000000
   0.000000000000000
   0.000000000000000
   0.000000000000000
   0.000000000000000
   0.000000000000000
   0.000000000000000
   0.000000000000000
   0.000000000000000
   0.000000000000000
   0.000000000000000
   0.000000000000000
   0.000000000000000
   0.000000000000000
   0.000000000000000
   0.000000000000000
   0.000000000000000
   0.000000000000000
   0.000000000000000
   0.000000000000000
   0.000000000000000
   0.000000000000000
   0.000000000000000
   0.000000000000000
   0.000000000000000
   0.000000000000000
   0.000000000000000
   0.000000000000000
   0.000000000000000
   0.000000000000000
   0.000000000000000
   0.000000000000000
   0.000000000000000
   0.000000000000000
   0.000000000000000
   0.000000000000000
