#44618Type;FSWP-8;
Version;1.71;
Date;03.Mar 2020;
VSupply;OFF;
Mode;Voltage;
Voltage Set;0.0000000000;V
Voltage Min;0.0000000000;V
Voltage Max;16.0000000000;V
Voltage Meas;0.0160030102;V
Current Max;2000.0000000000;mA
Current Meas;0.2689486553;mA
VTune;OFF;
Voltage Set;0.0000000000;V
Voltage Min;-10.0000000000;V
Voltage Max;28.0000000000;V
Voltage Meas;-0.0264177895;V
Current Max;20.0000000000;mA
Current Meas;0.0211822064;mA
VAux;OFF;
Voltage Set;0.0000000000;V
Voltage Min;-10.0000000000;V
Voltage Max;10.0000000000;V
Voltage Meas;0.0008586944;V
Current Max;100.0000000000;mA
Current Meas;-0.0481435298;mA
Mode;Phase Noise;
Measurement;Phase Noise;
Input;RF;
RF Att;0.0000000000;dB
Coupling;AC;
RBW;3.0000000000;%
XCORR Factor;10;
XCORR Optimize;ON;
Estimated Meas Time;172.1825458615;s
Sweep Count;1;
Signal Frequency;320631954.3113929033;Hz
Signal Level;-3.6671000000;dBm
Start;1.0000000000;Hz
Stop;10000000.0000000000;Hz
SubSweep;1;
Start;1.0000000000;Hz
Stop;3.0000000000;Hz
RBW;0.0900000000;Hz
XCORR Count;10;
SubSweep;2;
Start;3.0000000000;Hz
Stop;10.0000000000;Hz
RBW;0.0900000000;Hz
XCORR Count;10;
SubSweep;3;
Start;10.0000000000;Hz
Stop;30.0000000000;Hz
RBW;0.3000000000;Hz
XCORR Count;40;
SubSweep;4;
Start;30.0000000000;Hz
Stop;100.0000000000;Hz
RBW;0.9000000000;Hz
XCORR Count;130;
SubSweep;5;
Start;100.0000000000;Hz
Stop;300.0000000000;Hz
RBW;3.0000000000;Hz
XCORR Count;430;
SubSweep;6;
Start;300.0000000000;Hz
Stop;1000.0000000000;Hz
RBW;9.0000000000;Hz
XCORR Count;1300;
SubSweep;7;
Start;1000.0000000000;Hz
Stop;3000.0000000000;Hz
RBW;30.0000000000;Hz
XCORR Count;4300;
SubSweep;8;
Start;3000.0000000000;Hz
Stop;10000.0000000000;Hz
RBW;90.0000000000;Hz
XCORR Count;13000;
SubSweep;9;
Start;10000.0000000000;Hz
Stop;30000.0000000000;Hz
RBW;300.0000000000;Hz
XCORR Count;43000;
SubSweep;10;
Start;30000.0000000000;Hz
Stop;100000.0000000000;Hz
RBW;900.0000000000;Hz
XCORR Count;130000;
SubSweep;11;
Start;100000.0000000000;Hz
Stop;300000.0000000000;Hz
RBW;3000.0000000000;Hz
XCORR Count;430000;
SubSweep;12;
Start;300000.0000000000;Hz
Stop;1000000.0000000000;Hz
RBW;9000.0000000000;Hz
XCORR Count;1000000;
SubSweep;13;
Start;1000000.0000000000;Hz
Stop;3000000.0000000000;Hz
RBW;30000.0000000000;Hz
XCORR Count;1000000;
SubSweep;14;
Start;3000000.0000000000;Hz
Stop;10000000.0000000000;Hz
RBW;90000.0000000000;Hz
XCORR Count;1000000;
Integrated Measurements Range;1;
Start;1.0000000000;Hz
Stop;10000000.0000000000;Hz
Weighting;OFF;
Integrated Measurements Range;2;
Start;1.0000000000;Hz
Stop;10000000.0000000000;Hz
Weighting;OFF;
Integrated Measurements Range;3;
Start;1.0000000000;Hz
Stop;10000000.0000000000;Hz
Weighting;OFF;
Integrated Measurements Range;4;
Start;1.0000000000;Hz
Stop;10000000.0000000000;Hz
Weighting;OFF;
Integrated Measurements Range;5;
Start;1.0000000000;Hz
Stop;10000000.0000000000;Hz
Weighting;OFF;
Integrated Measurements Range;6;
Start;1.0000000000;Hz
Stop;10000000.0000000000;Hz
Weighting;OFF;
Integrated Measurements Range;7;
Start;1.0000000000;Hz
Stop;10000000.0000000000;Hz
Weighting;OFF;
Integrated Measurements Range;8;
Start;1.0000000000;Hz
Stop;10000000.0000000000;Hz
Weighting;OFF;
Integrated Measurements Range;9;
Start;1.0000000000;Hz
Stop;10000000.0000000000;Hz
Weighting;OFF;
Integrated Measurements Range;10;
Start;1.0000000000;Hz
Stop;10000000.0000000000;Hz
Weighting;OFF;
Spot Noise Decade Edges;ON;
Spot Noise User Defined;ON;
Spot Noise User Defined Offset;1;
State;ON;
Offset;1000.0000000000;Hz
Spot Noise User Defined Offset;2;
State;ON;
Offset;10000.0000000000;Hz
Spot Noise User Defined Offset;3;
State;ON;
Offset;100000.0000000000;Hz
Spot Noise User Defined Offset;4;
State;ON;
Offset;1000000.0000000000;Hz
Spot Noise User Defined Offset;5;
State;ON;
Offset;10000000.0000000000;Hz
Spot Noise User Defined Offset;6;
State;ON;
Offset;100000000.0000000000;Hz
Spur List;;
1;1;1;49.9675750732;Hz;-89.0285797119;dBc;2.482557684272725107e-14;s
1;1;2;255990.5781250000;Hz;-97.9230804443;dBc;8.9160864902662097242e-15;s
1;1;3;16000.7050781250;Hz;-101.2755203247;dBc;6.0611119666017024277e-15;s
1;2;1;49.9675750732;Hz;-89.0285797119;dBc;2.482557684272725107e-14;s
1;2;2;255990.5781250000;Hz;-97.9230804443;dBc;8.9160864902662097242e-15;s
1;2;3;16000.7050781250;Hz;-101.2755203247;dBc;6.0611119666017024277e-15;s
Window;Trace;Discrete Jitter;Unit;Random Jitter;Unit
1;1;2.7065530060752830688e-14;s;2.6695804854898197433e-12;s
1;2;2.7065530060752830688e-14;s;2.6698745211189978122e-12;s

