﻿Field=#~Integer~#~50|Field=Description~String~Description~100|Field=Designator~String~Designator~100|Field=Footprint~String~Footprint~100|Field=LibRef~String~LibRef~100|Field=Quantity~Integer~Quantity~100|ReportField=Currency~<none>|ReportField=ProductionQuantity~1|ReportField=ProjectFileName~ocxo_si5344evb.PrjPcb|ReportField=ProjectFullPath~C:\Users\Public\Documents\Altium\Projects\ocxo_si5344evb\ocxo_si5344evb.PrjPcb|ReportField=Title~Bill of Materials For Variant [LDOPWR_ocxo_si5344evb] of PCB Document [pcb_ocxo_si5344.PcbDoc]|ReportField=ReportTime~11:51:25|ReportField=ReportDate~16/09/2019|ReportField=ReportDateTime~16/09/2019 11:51:25|ReportField=OutputName~Bill of Materials|ReportField=OutputType~BOM_PartType|ReportField=GeneratorName~BOM|ReportField=GeneratorDescription~Bill of Materials|ReportField=VariantName~LDOPWR_ocxo_si5344evb|ReportField=TotalQuantity~128|ReportField=TotalActualPrice~0|ReportField=TotalTargetPrice~0|ReportField=VersionControl_RevNumber~|ReportField=VersionControl_ProjFolderRevNumber~|ReportField=DataSourceFileName~pcb_ocxo_si5344.PcbDoc|ReportField=DataSourceFullPath~C:\Users\Public\Documents\Altium\Projects\ocxo_si5344evb\pcb_ocxo_si5344.PcbDoc|ReportField=PCBConfigurationName~Sources|ReportField=Item~|ReportField=ItemRevision~|ReportField=ItemAndRevision~|ReportField=ItemRevisionBase~|ReportField=ItemRevisionLevel1~|ReportField=ItemRevisionLevel2~|ReportField=ItemRevisionLevel1AndBase~|ReportField=ItemRevisionLevel2AndLevel1~
1|LED Green 1C 2A|1V8_PLL, 3V3_OCXO, 3V3_PLL, 5V5|LED_OSRAM_LGN971|LED_OSRAM_LGN971|4
2|Test Point|A0_CSB, A1_SDO, GND, SCLK, SDA_SDIO|HARWIN_S1751-46|HARWIN_S1751-46|5
3|Non-polarised capacitor|C1, C7, C9, C14, C16, C21, C23, C28|CAPC1608X87N|CC0603_10UF_6.3V_20%_X5R|8
4|Non-polarised capacitor|C2, C4, C8, C11, C15, C17, C22, C24, C36, C40, C47, C48, C49, C50, C51, C52, C53, C54, C55|CAPC1005X55N|CC0402_1UF_16V_10%_X5R|19
5|Non-polarised capacitor|C3, C5, C6, C10, C12, C13, C18, C19, C20, C25, C26, C27, C30, C33, C34, C45, C46|CAPC1005X55N|CC0402_100NF_6.3V_10%_X7R, CC0402_100NF_16V_10%_X7R|17
6|Non-polarised capacitor|C29|CAPC1005X55N|CC0402_10PF_50V_5%_C0G|1
7|Non-polarised capacitor|C31, C43, C44|CAPC2012X135N|CC0805_10UF_10V_10%_X7R|3
8|Non-polarised capacitor|C32|CAPC1005X55N|CC0402_6.8NF_16V_10%_X7R|1
9|Non-polarised capacitor|C35|CAPC1005X55N|CC0402_15PF_50V_5%_C0G|1
10|Non-polarised capacitor|C37, C41|CAPC1005X55N|CC0402_2.2UF_6.3V_10%_X5R|2
11|Non-polarised capacitor|C38, C42|CAPC5750X200N|CC2220_47UF_16V_20%_X7R|2
12|Non-polarised capacitor|C39|CAPC1005X55N|CC0402_30PF_50V_1%_C0G_MURATA_GJM1555C1H300FB01|1
13|Transient Voltage Suppressor Diode (Uni-Directional)|D1|DIOM5436X265N|SM6T10A|1
14||IN0_N, IN0_P, IN1_N, IN1_P, IN2_N, IN2_P, IN3_N, IN3_P, OUT0_N, OUT0_P, OUT1_N, OUT1_P, OUT2_N, OUT2_P, OUT3_N, OUT3_P|MOLEX_73251-1150|Coax_1Female_1Shield|16
15|Connector 2 Male|J17|PHOENIX_1757242|PHOENIX_1757242|1
16|High-Current (4 A), High-Accuracy (1%), Low-Noise (4.4 µV RMS), Low-Dropout Voltage Regulator|LDO_OCXO_3V3|QFN50P350X350X100-21N-S215|TPS7A8500RGR|1
17|Ultralow-Noise, High-PSRR, Fast, RF, 1A Low-Dropout Linear Regulator|LDO_PLL_1V8, LDO_PLL_3V3|SOT127P700X180-6N|TPS79633DCQG4|2
18|STRATUM 3E High Stability Oven Stabilized Oscillator (OH300 Series)|OCXO|OSC_CONNOR-WINFIELD_OH300_modif|OSC_50MHZ_CONNOR-WINFIELD_OH300-50503CF-050.0M|1
19|Header, 5-Pin|P1|HDR1X5|Header 5|1
20|4 Input /4 Output, 0.001 to 1028MHz, Any-Output Jitter Attenuator/Clock Multiplier|PLL|QFN50P700X700X90-45N-S530|Si5344|1
21|LED Red 1C 2A|PLL_INTR, PLL_LOL, PLL_LOS_XAXB|LED_AVAGO_HSMH-C150|LED_AVAGO_HSMH-C150|3
22|Resistor - 1%|R1, R2, R3, R4, R5, R6, R7, R8|RESC1005X40N|R0402_49R9_1%_0.0625W_100PPM|8
23|Resistor - 1%|R9, R10|RESC1608X55N|R0603_453R_1%_0.1W_100PPM|2
24|Resistor - 1%|R11, R12, R19, R20|RESC1005X40N|R0402_470R_1%_0.0625W_100PPM|4
25|Resistor|R14, R15, R22, R24|RESC1608X55N|R0603_0R_JUMPER|4
26|Resistor - 1%|R16|RESC1608X55N|R0603_51K_1%_0.1W_100PPM|1
27|Resistor - 0.1%|R17|RESC2012X60N|R0805_30K1_0.1%_0.1W_10PPM|1
28|Resistor - 1%|R18|RESC1608X55N|R0603_100K_1%_0.1W_100PPM|1
29|Resistor|R23, R25|RESC6331X70N|R2512_0R_JUMPER|2
30|Resistor - 0.1%|R26|RESC2012X60N|R0805_14K_0.1%_0.1W_10PPM|1
31|Resistor - 1%|R27|RESC1608X55N|R0603_30K_1%_0.1W_100PPM|1
32|Resistor - 1%|R28, R29, R30, R31, R32|RESC1005X40N|R0402_4K7_1%_0.0625W_100PPM|5
33|Resistor - 1%|R33, R34, R35|RESC1005X40N|R0402_220R_1%_0.0625W_100PPM|3
34|6 Ways SPST DIP Switch|SW2|SW_OMRON_A6H-6102|SW_OMRON_A6H-6102|1
35|N-CHANNEL MOSFET WITH DIODE|T1, T2, T3|SOT95P240X110-3N|BSS138LT1G|3
